riscv-16/tb/waveform/top_pipeline.vcd
$date
	Mon Mar 02 10:41:24 2026
$end
$version
	Icarus Verilog
$end
$timescale
	1ps
$end
$scope module top_pipeline_tb $end
$var wire 16 ! dbg_x7 [15:0] $end
$var wire 16 " dbg_x6 [15:0] $end
$var wire 16 # dbg_x5 [15:0] $end
$var wire 16 $ dbg_x4 [15:0] $end
$var wire 16 % dbg_x3 [15:0] $end
$var wire 16 & dbg_x2 [15:0] $end
$var wire 16 ' dbg_x1 [15:0] $end
$var wire 16 ( dbg_pc [15:0] $end
$var wire 16 ) dbg_instr [15:0] $end
$var wire 16 * dbg_alu_result [15:0] $end
$var reg 1 + clk $end
$var reg 8 , passed [7:0] $end
$var reg 1 - reset $end
$var reg 8 . total [7:0] $end
$var reg 16 / watchdog [15:0] $end
$var integer 32 0 drain_count [31:0] $end
$scope module dut $end
$var wire 16 1 NOP [15:0] $end
$var wire 1 + clk $end
$var wire 16 2 dbg_alu_result [15:0] $end
$var wire 16 3 dbg_instr [15:0] $end
$var wire 16 4 dbg_pc [15:0] $end
$var wire 16 5 dbg_x1 [15:0] $end
$var wire 16 6 dbg_x2 [15:0] $end
$var wire 16 7 dbg_x3 [15:0] $end
$var wire 16 8 dbg_x4 [15:0] $end
$var wire 16 9 dbg_x5 [15:0] $end
$var wire 16 : dbg_x6 [15:0] $end
$var wire 16 ; dbg_x7 [15:0] $end
$var wire 1 < ex_is_load $end
$var wire 1 = id_ex_bubble $end
$var wire 1 > if_id_flush $end
$var wire 1 ? if_id_we $end
$var wire 16 @ instruction [15:0] $end
$var wire 1 A load_use_hazard $end
$var wire 1 B pc_en $end
$var wire 16 C pc_next [15:0] $end
$var wire 1 - reset $end
$var wire 16 D rf_dbg_x1 [15:0] $end
$var wire 16 E rf_dbg_x2 [15:0] $end
$var wire 16 F rf_dbg_x3 [15:0] $end
$var wire 16 G rf_dbg_x4 [15:0] $end
$var wire 16 H rf_dbg_x5 [15:0] $end
$var wire 16 I rf_dbg_x6 [15:0] $end
$var wire 16 J rf_dbg_x7 [15:0] $end
$var wire 1 K wb_RegWrite $end
$var wire 3 L wb_rd [2:0] $end
$var wire 1 M zero_ex $end
$var wire 16 N wb_wd [15:0] $end
$var wire 3 O rs2_s [2:0] $end
$var wire 3 P rs2_r [2:0] $end
$var wire 3 Q rs2_b [2:0] $end
$var wire 3 R rs2 [2:0] $end
$var wire 3 S rs1_s [2:0] $end
$var wire 3 T rs1_r [2:0] $end
$var wire 3 U rs1_l [2:0] $end
$var wire 3 V rs1_b [2:0] $end
$var wire 3 W rs1 [2:0] $end
$var wire 3 X rd_u [2:0] $end
$var wire 3 Y rd_r [2:0] $end
$var wire 3 Z rd_l [2:0] $end
$var wire 3 [ rd_j [2:0] $end
$var wire 3 \ rd_i [2:0] $end
$var wire 3 ] rd [2:0] $end
$var wire 3 ^ opcode [2:0] $end
$var wire 16 _ instruction_if [15:0] $end
$var wire 10 ` imm_u_raw [9:0] $end
$var wire 16 a imm_u [15:0] $end
$var wire 7 b imm_s_raw [6:0] $end
$var wire 16 c imm_s [15:0] $end
$var wire 7 d imm_l_raw [6:0] $end
$var wire 10 e imm_j_raw [9:0] $end
$var wire 16 f imm_j [15:0] $end
$var wire 6 g imm_i_raw [5:0] $end
$var wire 16 h imm_i [15:0] $end
$var wire 16 i imm_ext [15:0] $end
$var wire 4 j imm_b_lo [3:0] $end
$var wire 3 k imm_b_hi [2:0] $end
$var wire 16 l imm_b [15:0] $end
$var wire 16 m imm [15:0] $end
$var wire 4 n func [3:0] $end
$var wire 16 o ex_srcB [15:0] $end
$var wire 16 p ex_srcA [15:0] $end
$var wire 16 q ex_rs2_val [15:0] $end
$var wire 1 r ResultSrc_id $end
$var wire 1 s RegWrite_id $end
$var wire 16 t ReadData_wb [15:0] $end
$var wire 16 u RD2 [15:0] $end
$var wire 16 v RD1 [15:0] $end
$var wire 16 w PC_plus2_if [15:0] $end
$var wire 1 x PCSrc_id $end
$var wire 16 y PC [15:0] $end
$var wire 1 z MemWrite_id $end
$var wire 3 { ImmSrc_id [2:0] $end
$var wire 1 | ALUSrc_id $end
$var wire 16 } ALUResult_ex [15:0] $end
$var wire 4 ~ ALUControl_id [3:0] $end
$var reg 1 !" ex_wb_MemWrite $end
$var reg 1 K ex_wb_RegWrite $end
$var reg 1 "" ex_wb_ResultSrc $end
$var reg 16 #" ex_wb_alu_result [15:0] $end
$var reg 3 $" ex_wb_rd [2:0] $end
$var reg 16 %" ex_wb_store_data [15:0] $end
$var reg 4 &" id_ex_ALUControl [3:0] $end
$var reg 1 '" id_ex_ALUSrc $end
$var reg 1 (" id_ex_MemWrite $end
$var reg 1 )" id_ex_RegWrite $end
$var reg 1 *" id_ex_ResultSrc $end
$var reg 16 +" id_ex_imm [15:0] $end
$var reg 16 ," id_ex_pc [15:0] $end
$var reg 3 -" id_ex_rd [2:0] $end
$var reg 16 ." id_ex_rd1 [15:0] $end
$var reg 16 /" id_ex_rd2 [15:0] $end
$var reg 3 0" id_ex_rs1 [2:0] $end
$var reg 3 1" id_ex_rs2 [2:0] $end
$var reg 16 2" if_id_instr [15:0] $end
$var reg 16 3" if_id_pc [15:0] $end
$scope module ALU_CORE $end
$var wire 4 4" ALU_control [3:0] $end
$var wire 16 5" SrcA [15:0] $end
$var wire 16 6" SrcB [15:0] $end
$var wire 1 M zero $end
$var reg 16 7" ALU_result [15:0] $end
$upscope $end
$scope module CU $end
$var wire 4 8" func [3:0] $end
$var wire 3 9" opcode [2:0] $end
$var wire 1 :" zero $end
$var reg 4 ;" ALUControl [3:0] $end
$var reg 1 | ALUSrc $end
$var reg 3 <" ImmSrc [2:0] $end
$var reg 1 z MemWrite $end
$var reg 1 x PCSrc $end
$var reg 1 s RegWrite $end
$var reg 1 r ResultSrc $end
$upscope $end
$scope module DMEM $end
$var wire 1 + clk $end
$var wire 16 =" mem_access_addr [15:0] $end
$var wire 1 "" mem_read $end
$var wire 16 >" mem_write_data [15:0] $end
$var wire 1 !" mem_write_en $end
$var wire 16 ?" mem_read_data [15:0] $end
$var wire 3 @" addr [2:0] $end
$upscope $end
$scope module IMEM $end
$var wire 1 + clk $end
$var wire 16 A" word_index [15:0] $end
$var wire 16 B" pc [15:0] $end
$var wire 16 C" instruction [15:0] $end
$var integer 32 D" i [31:0] $end
$upscope $end
$scope module PC_REG $end
$var wire 1 + clk $end
$var wire 1 B pc_en $end
$var wire 16 E" pc_next [15:0] $end
$var wire 1 - reset $end
$var reg 16 F" pc [15:0] $end
$upscope $end
$scope module RF $end
$var wire 3 G" A1 [2:0] $end
$var wire 3 H" A2 [2:0] $end
$var wire 3 I" A3 [2:0] $end
$var wire 1 K RegWrite $end
$var wire 16 J" WD3 [15:0] $end
$var wire 1 + clk $end
$var wire 16 K" dbg_x1 [15:0] $end
$var wire 16 L" dbg_x2 [15:0] $end
$var wire 16 M" dbg_x3 [15:0] $end
$var wire 16 N" dbg_x4 [15:0] $end
$var wire 16 O" dbg_x5 [15:0] $end
$var wire 16 P" dbg_x6 [15:0] $end
$var wire 16 Q" dbg_x7 [15:0] $end
$var wire 16 R" RD2 [15:0] $end
$var wire 16 S" RD1 [15:0] $end
$var integer 32 T" i [31:0] $end
$upscope $end
$scope module SE $end
$var wire 3 U" ImmSrc [2:0] $end
$var wire 16 V" instr [15:0] $end
$var reg 16 W" ImmExt [15:0] $end
$upscope $end
$upscope $end
$scope begin RUN_LOOP $end
$upscope $end
$scope task allPassed $end
$var reg 8 X" n [7:0] $end
$var reg 8 Y" p [7:0] $end
$upscope $end
$scope task passTest $end
$var reg 16 Z" actualOut [15:0] $end
$var reg 16 [" expectedOut [15:0] $end
$var reg 8 \" n [7:0] $end
$var reg 8 ]" p [7:0] $end
$var reg 513 ^" testName [512:0] $end
$upscope $end
$upscope $end
$enddefinitions $end
#0
$dumpvars
bx ^"
bx ]"
bx \"
bx ["
bx Z"
bx Y"
bx X"
b0 W"
b0 V"
b0 U"
b1000 T"
b0 S"
b0 R"
b0 Q"
b0 P"
b0 O"
b0 N"
b0 M"
b0 L"
b0 K"
b0 J"
b0 I"
b0 H"
b0 G"
b0 F"
b10 E"
b100000000 D"
b0 C"
b0 B"
b0 A"
b0 @"
b0 ?"
b0 >"
b0 ="
b0 <"
b0 ;"
0:"
b0 9"
b0 8"
b0 7"
b0 6"
b0 5"
b0 4"
b0 3"
b0 2"
b0 1"
b0 0"
b0 /"
b0 ."
b0 -"
b0 ,"
b0 +"
0*"
0)"
0("
0'"
b0 &"
b0 %"
b0 $"
b0 #"
0""
0!"
b0 ~
b0 }
0|
b0 {
0z
b0 y
0x
b10 w
b0 v
b0 u
b0 t
1s
0r
b0 q
b0 p
b0 o
b0 n
b0 m
b0 l
b0 k
b0 j
b0 i
b0 h
b0 g
b0 f
b0 e
b0 d
b0 c
b0 b
b0 a
b0 `
b0 _
b0 ^
b0 ]
b0 \
b0 [
b0 Z
b0 Y
b0 X
b0 W
b0 V
b0 U
b0 T
b0 S
b0 R
b0 Q
b0 P
b0 O
b0 N
1M
b0 L
0K
b0 J
b0 I
b0 H
b0 G
b0 F
b0 E
b0 D
b10 C
1B
0A
b0 @
1?
0>
0=
0<
b0 ;
b0 :
b0 9
b0 8
b0 7
b0 6
b0 5
b0 4
b0 3
b0 2
b0 1
bx 0
b0 /
b0 .
1-
b0 ,
0+
b0 *
b0 )
b0 (
b0 '
b0 &
b0 %
b0 $
b0 #
b0 "
b0 !
$end
#5000
1+
#10000
0+
#15000
1+
#20000
0+
#25000
1+
#26000
b11111111111111111111111111111111 0
0-
#30000
0+
#35000
b1010010000001 _
b1010010000001 C"
b1 A"
b100 C
b100 E"
b100 w
b10 (
b10 4
b10 y
b10 B"
b10 F"
1)"
1+
#36000
b1 /
#40000
0+
#45000
b1 ]
b101 i
b101 W"
b1 W
b1 G"
b101 m
b1 {
b1 <"
b1 U"
1|
1s
b110100000001 _
b110100000001 C"
b1 ^
b1 9"
b101 P
b1 Y
b101 h
b101 g
b1 \
b1010 c
b1010 b
b10 S
b1010 d
b10 U
b1010 l
b1010 j
b10 V
b1010010000000 a
b1010010 `
b1010010 f
b1010010 e
b10 A"
1K
b1010010000001 )
b1010010000001 3
b1010010000001 @
b1010010000001 V"
b1010010000001 2"
b10 3"
b110 C
b110 E"
b110 w
b100 (
b100 4
b100 y
b100 B"
b100 F"
1+
#46000
b10 /
#50000
0+
#55000
b10 W
b10 G"
b10 ]
b10010000001 _
b10010000001 C"
b11 m
0M
b101 *
b101 2
b101 }
b101 7"
b11 A"
b11 P
b10 Y
b11 h
b11 g
b10 \
b110 c
b110 b
b100 S
b110 d
b100 U
b110 l
b110 j
b100 V
b110100000000 a
b110100 `
b110100 f
b110100 e
b11 i
b11 W"
b101 o
b101 6"
b1000 C
b1000 E"
b1000 w
b110 (
b110 4
b110 y
b110 B"
b110 F"
b110100000001 )
b110100000001 3
b110100000001 @
b110100000001 V"
b110100000001 2"
b100 3"
1'"
b1 -"
b1 0"
b101 +"
b10 ,"
1+
#56000
b11 /
#60000
0+
#65000
b1 W
b1 G"
b1 ]
b11 *
b11 2
b11 }
b11 7"
b1 m
b1111110110000001 _
b1111110110000001 C"
b101 N
b101 J"
b10 @"
b11 o
b11 6"
b1 P
b1 Y
b1 h
b1 g
b1 \
b10 c
b10 b
b10 S
b10 d
b10 U
b10 l
b10 j
b10 V
b10010000000 a
b10010 `
b10010 f
b10010 e
b1 i
b1 W"
b100 A"
b1 L
b1 $"
b1 I"
b101 #"
b101 ="
b10 -"
b10 0"
b11 +"
b100 ,"
b10010000001 )
b10010000001 3
b10010000001 @
b10010000001 V"
b10010000001 2"
b110 3"
b1010 C
b1010 E"
b1010 w
b1000 (
b1000 4
b1000 y
b1000 B"
b1000 F"
1+
#66000
b100 /
#70000
0+
#75000
b11 W
b11 G"
b11 ]
b1111101000000001 _
b1111101000000001 C"
b1111111111111111 m
b1 *
b1 2
b1 }
b1 7"
b101 A"
b111 T
b111 P
b11 Y
b1111111111111111 h
b111111 g
b11 \
b1111111111111110 c
b1111110 b
b110 S
b1111110 d
b110 U
b111 k
b1111111111111110 l
b1110 j
b110 V
b1111110110000000 a
b1111110110 `
b1111111111110110 f
b1111110110 e
b1111111111111111 i
b1111111111111111 W"
b1 o
b1 6"
b11 N
b11 J"
b1 @"
b0 v
b0 S"
b1100 C
b1100 E"
b1100 w
b1010 (
b1010 4
b1010 y
b1010 B"
b1010 F"
b1111110110000001 )
b1111110110000001 3
b1111110110000001 @
b1111110110000001 V"
b1111110110000001 2"
b1000 3"
b1 -"
b1 0"
b1 +"
b110 ,"
b10 L
b10 $"
b10 I"
b11 #"
b11 ="
b101 '
b101 5
b101 D
b101 K"
1+
#76000
b101 /
#80000
0+
#85000
b100 W
b100 G"
b100 ]
b1111111111111111 *
b1111111111111111 2
b1111111111111111 }
b1111111111111111 7"
b1111111111111110 m
b110100001001 _
b110100001001 C"
b1 N
b1 J"
b0 @"
b1111111111111111 o
b1111111111111111 6"
b110 P
b100 Y
b1111111111111110 h
b111110 g
b100 \
b1111111111111101 c
b1111101 b
b0 S
b1111101 d
b0 U
b1111111111111101 l
b1101 j
b0 V
b1111101000000000 a
b1111101000 `
b1111111111101000 f
b1111101000 e
b1111111111111110 i
b1111111111111110 W"
b110 A"
b1 L
b1 $"
b1 I"
b1 #"
b1 ="
b11 -"
b11 0"
b1111111111111111 +"
b1000 ,"
b1111101000000001 )
b1111101000000001 3
b1111101000000001 @
b1111101000000001 V"
b1111101000000001 2"
b1010 3"
b1110 C
b1110 E"
b1110 w
b1100 (
b1100 4
b1100 y
b1100 B"
b1100 F"
b11 &
b11 6
b11 E
b11 L"
1+
#86000
b110 /
#90000
0+
#95000
b11 v
b11 S"
b10 W
b10 G"
b10 ]
b1110100010001 _
b1110100010001 C"
b10 ~
b10 ;"
1s
b1 {
b1 <"
b1 U"
1|
b11 m
b1111111111111110 *
b1111111111111110 2
b1111111111111110 }
b1111111111111110 7"
b111 A"
b1 n
b1 8"
b0 T
b11 P
b10 Y
b11 h
b11 g
b10 \
b110 c
b110 b
b100 S
b1 O
b110 d
b100 U
b1 Z
b0 k
b110 l
b110 j
b100 V
b1 Q
b110100000000 a
b110100 `
b1 X
b110100 f
b110100 e
b1 [
b11 i
b11 W"
b1111111111111110 o
b1111111111111110 6"
b1111111111111111 N
b1111111111111111 J"
b111 @"
b10000 C
b10000 E"
b10000 w
b1110 (
b1110 4
b1110 y
b1110 B"
b1110 F"
b110100001001 )
b110100001001 3
b110100001001 @
b110100001001 V"
b110100001001 2"
b1100 3"
b100 -"
b100 0"
b1111111111111110 +"
b1010 ,"
b11 L
b11 $"
b11 I"
b1111111111111111 #"
b1111111111111111 ="
b1 '
b1 5
b1 D
b1 K"
1+
#96000
b111 /
#100000
0+
#105000
1s
b1 {
b1 <"
b1 U"
1|
b11 ~
b11 ;"
b111 m
b1010100011001 _
b1010100011001 C"
b1111111111111110 N
b1111111111111110 J"
1M
b0 *
b0 2
b0 }
b0 7"
b11 o
b11 6"
b11 p
b11 5"
b10 n
b10 8"
b111 P
b111 h
b111 g
b1110 c
b1110 b
b10 O
b1110 d
b10 Z
b1110 l
b1110 j
b10 Q
b1110100000000 a
b1110100 `
b10 X
b1110100 f
b1110100 e
b10 [
b111 i
b111 W"
b1000 A"
b100 L
b100 $"
b100 I"
b1111111111111110 #"
b1111111111111110 ="
b10 &"
b10 4"
b10 -"
b10 0"
b11 +"
b11 ."
b1100 ,"
b1110100010001 )
b1110100010001 3
b1110100010001 @
b1110100010001 V"
b1110100010001 2"
b1110 3"
b10010 C
b10010 E"
b10010 w
b10000 (
b10000 4
b10000 y
b10000 B"
b10000 F"
b1111111111111111 %
b1111111111111111 7
b1111111111111111 F
b1111111111111111 M"
1+
#106000
b1000 /
#110000
0+
#115000
b111111010000001 _
b111111010000001 C"
1s
b1 {
b1 <"
b1 U"
1|
b100 ~
b100 ;"
b101 m
b0 p
b0 5"
b1001 A"
b11 n
b11 8"
b101 P
b101 h
b101 g
b1010 c
b1010 b
b11 O
b1010 d
b11 Z
b1010 l
b1010 j
b11 Q
b1010100000000 a
b1010100 `
b11 X
b1010100 f
b1010100 e
b11 [
b101 i
b101 W"
0M
b111 *
b111 2
b111 }
b111 7"
b111 o
b111 6"
b0 N
b0 J"
b0 @"
b10100 C
b10100 E"
b10100 w
b10010 (
b10010 4
b10010 y
b10010 B"
b10010 F"
b1010100011001 )
b1010100011001 3
b1010100011001 @
b1010100011001 V"
b1010100011001 2"
b10000 3"
b11 &"
b11 4"
b111 +"
b1110 ,"
b10 L
b10 $"
b10 I"
b0 #"
b0 ="
b1111111111111110 $
b1111111111111110 8
b1111111111111110 G
b1111111111111110 N"
1+
#116000
b1001 /
#120000
0+
#125000
b101 W
b101 G"
b101 ]
b111 p
b111 5"
1s
b1 {
b1 <"
b1 U"
1|
b0 ~
b0 ;"
b11111 m
b1000001100000001 _
b1000001100000001 C"
b111 N
b111 J"
b11 @"
0M
b101 *
b101 2
b101 }
b101 7"
b101 o
b101 6"
b0 n
b0 8"
b11 T
b111 P
b101 Y
b11111 h
b11111 g
b101 \
b111111 c
b111111 b
b10 S
b0 O
b111111 d
b10 U
b0 Z
b11 k
b111111 l
b1111 j
b10 V
b0 Q
b111111010000000 a
b111111010 `
b0 X
b111111010 f
b111111010 e
b0 [
b11111 i
b11111 W"
b1010 A"
b0 v
b0 S"
b111 #"
b111 ="
b100 &"
b100 4"
b101 +"
b10000 ,"
b111111010000001 )
b111111010000001 3
b111111010000001 @
b111111010000001 V"
b111111010000001 2"
b10010 3"
b10110 C
b10110 E"
b10110 w
b10100 (
b10100 4
b10100 y
b10100 B"
b10100 F"
b0 &
b0 6
b0 E
b0 L"
1+
#126000
b1010 /
b101 0
#130000
0+
#135000
b110 W
b110 G"
b110 ]
b0 _
b0 C"
b1111111111100000 m
b0 p
b0 5"
b1011 A"
b100 T
b0 P
b110 Y
b1111111111100000 h
b100000 g
b110 \
b1111111111000001 c
b1000001 b
b100 S
b1000001 d
b100 U
b100 k
b1111111111000001 l
b1 j
b100 V
b1000001100000000 a
b1000001100 `
b1111111000001100 f
b1000001100 e
b1111111111100000 i
b1111111111100000 W"
b11111 *
b11111 2
b11111 }
b11111 7"
b11111 o
b11111 6"
b101 N
b101 J"
b10 @"
b11000 C
b11000 E"
b11000 w
b10110 (
b10110 4
b10110 y
b10110 B"
b10110 F"
b1000001100000001 )
b1000001100000001 3
b1000001100000001 @
b1000001100000001 V"
b1000001100000001 2"
b10100 3"
b0 &"
b0 4"
b101 -"
b101 0"
b11111 +"
b0 ."
b10010 ,"
b101 #"
b101 ="
b111 &
b111 6
b111 E
b111 L"
1+
#136000
b1011 /
b100 0
#140000
0+
#145000
b1111111111100000 *
b1111111111100000 2
b1111111111100000 }
b1111111111100000 7"
b0 W
b0 G"
b0 ]
1s
b0 {
b0 <"
b0 U"
0|
b0 m
b11111 N
b11111 J"
b111 @"
b1111111111100000 o
b1111111111100000 6"
b0 ^
b0 9"
b0 T
b0 Y
b0 h
b0 g
b0 \
b0 c
b0 b
b0 S
b0 d
b0 U
b0 k
b0 l
b0 j
b0 V
b0 a
b0 `
b0 f
b0 e
b0 i
b0 W"
b1100 A"
b101 L
b101 $"
b101 I"
b11111 #"
b11111 ="
b110 -"
b110 0"
b1111111111100000 +"
b10100 ,"
b0 )
b0 3
b0 @
b0 V"
b0 2"
b10110 3"
b11010 C
b11010 E"
b11010 w
b11000 (
b11000 4
b11000 y
b11000 B"
b11000 F"
b101 &
b101 6
b101 E
b101 L"
1+
#146000
b1100 /
b11 0
#150000
0+
#155000
1M
b0 *
b0 2
b0 }
b0 7"
b1101 A"
b0 o
b0 6"
b1111111111100000 N
b1111111111100000 J"
b0 @"
b11100 C
b11100 E"
b11100 w
b11010 (
b11010 4
b11010 y
b11010 B"
b11010 F"
b11000 3"
0'"
b0 -"
b0 0"
b0 +"
b10110 ,"
b110 L
b110 $"
b110 I"
b1111111111100000 #"
b1111111111100000 ="
b11111 #
b11111 9
b11111 H
b11111 O"
1+
#156000
b1101 /
b10 0
#160000
0+
#165000
b0 N
b0 J"
b1110 A"
b0 L
b0 $"
b0 I"
b0 #"
b0 ="
b11000 ,"
b11010 3"
b11110 C
b11110 E"
b11110 w
b11100 (
b11100 4
b11100 y
b11100 B"
b11100 F"
b1111111111100000 "
b1111111111100000 :
b1111111111100000 I
b1111111111100000 P"
1+
#166000
b1110 /
b1 0
#170000
0+
#175000
b1111 A"
b100000 C
b100000 E"
b100000 w
b11110 (
b11110 4
b11110 y
b11110 B"
b11110 F"
b11100 3"
b11010 ,"
1+
#176000
b0 0
#180000
0+
#185000
b10000 A"
b11100 ,"
b11110 3"
b100010 C
b100010 E"
b100010 w
b100000 (
b100000 4
b100000 y
b100000 B"
b100000 F"
1+
#186000
b111 X"
b110 Y"
b110 ,
b111 .
b111 \"
b110 ]"
b1111000001101110010000001110101011011100111010001101111011101010110001101101000011001010110010000100000001111010011111000100000001100000111100000110000001100000011000000110000 ^"
b0 ["
b0 Z"
