riscv-16/tb/waveform/tt_um_riscv16.vcd
$date
	Sun Apr  5 13:21:29 2026
$end
$version
	Icarus Verilog
$end
$timescale
	1ps
$end
$scope module tt_um_riscv16_tb $end
$var wire 16 ! internal_alu [15:0] $end
$var wire 16 " internal_instr [15:0] $end
$var wire 16 # internal_pc [15:0] $end
$var wire 16 $ internal_x1 [15:0] $end
$var wire 16 % internal_x2 [15:0] $end
$var wire 16 & internal_x3 [15:0] $end
$var wire 8 ' uo_out [7:0] $end
$var wire 8 ( uio_out [7:0] $end
$var wire 8 ) uio_oe [7:0] $end
$var reg 1 * clk $end
$var reg 1 + ena $end
$var reg 1 , rst_n $end
$var reg 8 - ui_in [7:0] $end
$var reg 8 . uio_in [7:0] $end
$var integer 32 / fail_count [31:0] $end
$var integer 32 0 pass_count [31:0] $end
$scope module DUT $end
$var wire 1 * clk $end
$var wire 1 + ena $end
$var wire 1 1 reset $end
$var wire 1 , rst_n $end
$var wire 8 2 ui_in [7:0] $end
$var wire 8 3 uio_in [7:0] $end
$var wire 8 4 uo_out [7:0] $end
$var wire 8 5 uio_out [7:0] $end
$var wire 8 6 uio_oe [7:0] $end
$var wire 1 7 run_mode $end
$var wire 1 8 load_ack $end
$var wire 16 9 dbg_x3 [15:0] $end
$var wire 16 : dbg_x2 [15:0] $end
$var wire 16 ; dbg_x1 [15:0] $end
$var wire 16 < dbg_pc [15:0] $end
$var wire 16 = dbg_instr [15:0] $end
$var wire 16 > dbg_alu_result [15:0] $end
$var wire 1 ? _unused $end
$var reg 16 @ dbg_word [15:0] $end
$scope module CPU $end
$var wire 1 A WB_RegWrite $end
$var wire 16 B WB_WD3 [15:0] $end
$var wire 3 C WB_rd [2:0] $end
$var wire 1 * clk $end
$var wire 1 D ctrl_taken $end
$var wire 16 E dbg_alu_result [15:0] $end
$var wire 16 F dbg_instr [15:0] $end
$var wire 16 G dbg_pc [15:0] $end
$var wire 16 H dbg_x1 [15:0] $end
$var wire 16 I dbg_x2 [15:0] $end
$var wire 16 J dbg_x3 [15:0] $end
$var wire 1 K ex_flush $end
$var wire 1 L fwd_a_exme $end
$var wire 1 M fwd_a_mewb $end
$var wire 1 N fwd_b_exme $end
$var wire 1 O fwd_b_mewb $end
$var wire 1 P ifex_stall $end
$var wire 8 Q load_ui [7:0] $end
$var wire 8 R load_uio [7:0] $end
$var wire 1 S load_use_stall $end
$var wire 1 T pc_stall $end
$var wire 1 1 reset $end
$var wire 16 U rf_dbg_x1 [15:0] $end
$var wire 16 V rf_dbg_x2 [15:0] $end
$var wire 16 W rf_dbg_x3 [15:0] $end
$var wire 1 8 load_ack $end
$var wire 16 X PC_next [15:0] $end
$var wire 16 Y MEM_WB_result [15:0] $end
$var wire 16 Z MEM_ReadData [15:0] $end
$var wire 16 [ IF_instr [15:0] $end
$var wire 16 \ IF_PC_plus2 [15:0] $end
$var wire 1 ] EX_zero $end
$var wire 3 ^ EX_rs2_s [2:0] $end
$var wire 3 _ EX_rs2_r [2:0] $end
$var wire 3 ` EX_rs2_b [2:0] $end
$var wire 3 a EX_rs2 [2:0] $end
$var wire 3 b EX_rs1_s [2:0] $end
$var wire 3 c EX_rs1_r [2:0] $end
$var wire 3 d EX_rs1_l [2:0] $end
$var wire 3 e EX_rs1_jr [2:0] $end
$var wire 3 f EX_rs1_i [2:0] $end
$var wire 3 g EX_rs1_b [2:0] $end
$var wire 3 h EX_rs1 [2:0] $end
$var wire 3 i EX_rd_u [2:0] $end
$var wire 3 j EX_rd_r [2:0] $end
$var wire 3 k EX_rd_l [2:0] $end
$var wire 3 l EX_rd_jr [2:0] $end
$var wire 3 m EX_rd_j [2:0] $end
$var wire 3 n EX_rd_i [2:0] $end
$var wire 3 o EX_rd [2:0] $end
$var wire 3 p EX_opcode [2:0] $end
$var wire 1 q EX_negative $end
$var wire 16 r EX_jalr_target [15:0] $end
$var wire 16 s EX_jalr_sum [15:0] $end
$var wire 16 t EX_jal_target [15:0] $end
$var wire 16 u EX_imm_ext [15:0] $end
$var wire 4 v EX_func [3:0] $end
$var wire 16 w EX_branch_target [15:0] $end
$var wire 2 x EX_ResultSrc [1:0] $end
$var wire 1 y EX_RegWrite $end
$var wire 16 z EX_RD2_raw [15:0] $end
$var wire 16 { EX_RD2 [15:0] $end
$var wire 16 | EX_RD1_raw [15:0] $end
$var wire 16 } EX_RD1 [15:0] $end
$var wire 1 ~ EX_PCSrc $end
$var wire 1 !" EX_MemWrite $end
$var wire 1 "" EX_MemRead $end
$var wire 3 #" EX_ImmSrc [2:0] $end
$var wire 16 $" EX_ALU_B [15:0] $end
$var wire 1 %" EX_ALUSrc $end
$var wire 16 &" EX_ALUResult [15:0] $end
$var wire 4 '" EX_ALUControl [3:0] $end
$var parameter 3 (" OPC_B $end
$var parameter 3 )" OPC_I $end
$var parameter 3 *" OPC_J $end
$var parameter 3 +" OPC_JR $end
$var parameter 3 ," OPC_L $end
$var parameter 3 -" OPC_R $end
$var parameter 3 ." OPC_S $end
$var parameter 3 /" OPC_U $end
$var reg 16 0" EXME_ALUResult [15:0] $end
$var reg 1 1" EXME_MemRead $end
$var reg 1 2" EXME_MemWrite $end
$var reg 16 3" EXME_RD2 [15:0] $end
$var reg 1 4" EXME_RegWrite $end
$var reg 2 5" EXME_ResultSrc [1:0] $end
$var reg 16 6" EXME_pc_plus2 [15:0] $end
$var reg 3 7" EXME_rd [2:0] $end
$var reg 16 8" IFEX_instr [15:0] $end
$var reg 16 9" IFEX_pc [15:0] $end
$var reg 16 :" IFEX_pc_plus2 [15:0] $end
$var reg 16 ;" IF_PC [15:0] $end
$var reg 1 <" MEWB_MemRead $end
$var reg 1 =" MEWB_RegWrite $end
$var reg 16 >" MEWB_WD3 [15:0] $end
$var reg 3 ?" MEWB_rd [2:0] $end
$scope module ALU_CORE $end
$var wire 16 @" SrcA [15:0] $end
$var wire 1 ] zero $end
$var wire 1 q negative $end
$var wire 16 A" SrcB [15:0] $end
$var wire 4 B" ALU_control [3:0] $end
$var reg 16 C" ALU_result [15:0] $end
$upscope $end
$scope module CU $end
$var wire 4 D" func [3:0] $end
$var wire 1 q negative $end
$var wire 3 E" opcode [2:0] $end
$var wire 1 ] zero $end
$var reg 4 F" ALUControl [3:0] $end
$var reg 1 %" ALUSrc $end
$var reg 3 G" ImmSrc [2:0] $end
$var reg 1 "" MemRead $end
$var reg 1 !" MemWrite $end
$var reg 1 ~ PCSrc $end
$var reg 1 y RegWrite $end
$var reg 2 H" ResultSrc [1:0] $end
$upscope $end
$scope module DMEM $end
$var wire 1 * clk $end
$var wire 16 I" mem_access_addr [15:0] $end
$var wire 1 1" mem_read $end
$var wire 16 J" mem_write_data [15:0] $end
$var wire 1 2" mem_write_en $end
$var wire 16 K" mem_read_data [15:0] $end
$var wire 3 L" addr [2:0] $end
$upscope $end
$scope module IMEM $end
$var wire 1 * clk $end
$var wire 1 M" load_mode $end
$var wire 1 N" load_transfer $end
$var wire 6 O" load_ui [5:0] $end
$var wire 8 P" load_uio [7:0] $end
$var wire 16 Q" pc [15:0] $end
$var wire 16 R" word_index [15:0] $end
$var wire 16 S" instruction [15:0] $end
$var parameter 2 T" ACK $end
$var parameter 2 U" GOT_T1 $end
$var parameter 2 V" IDLE $end
$var parameter 32 W" IMEM_WORDS $end
$var parameter 2 X" WRITE $end
$var reg 16 Y" instr_latch [15:0] $end
$var reg 1 8 load_ack $end
$var reg 2 Z" state [1:0] $end
$var reg 8 [" write_addr [7:0] $end
$var integer 32 \" i [31:0] $end
$upscope $end
$scope module RD2_MUX $end
$var wire 1 %" ALUSrc $end
$var wire 16 ]" RD2 [15:0] $end
$var wire 16 ^" SrcB [15:0] $end
$var wire 16 _" ImmExt [15:0] $end
$upscope $end
$scope module RF $end
$var wire 3 `" A1 [2:0] $end
$var wire 3 a" A2 [2:0] $end
$var wire 3 b" A3 [2:0] $end
$var wire 1 A RegWrite $end
$var wire 16 c" WD3 [15:0] $end
$var wire 1 * clk $end
$var wire 16 d" dbg_x1 [15:0] $end
$var wire 16 e" dbg_x2 [15:0] $end
$var wire 16 f" dbg_x3 [15:0] $end
$var wire 1 1 reset $end
$var wire 16 g" RD2 [15:0] $end
$var wire 16 h" RD1 [15:0] $end
$var integer 32 i" i [31:0] $end
$upscope $end
$scope module SE $end
$var wire 3 j" ImmSrc [2:0] $end
$var wire 16 k" instr [15:0] $end
$var reg 16 l" ImmExt [15:0] $end
$upscope $end
$scope module WB_MUX $end
$var wire 16 m" ALUResult [15:0] $end
$var wire 16 n" MemData [15:0] $end
$var wire 2 o" MemtoReg [1:0] $end
$var wire 16 p" PcPlus2 [15:0] $end
$var wire 16 q" WD3 [15:0] $end
$upscope $end
$upscope $end
$upscope $end
$scope begin byte_split_check $end
$var reg 16 r" word [15:0] $end
$var integer 32 s" ch [31:0] $end
$upscope $end
$scope begin noise_test $end
$var reg 16 t" baseline [15:0] $end
$var reg 16 u" noisy [15:0] $end
$var integer 32 v" pattern [31:0] $end
$upscope $end
$scope begin rapid_switch $end
$var reg 3 w" ch [2:0] $end
$var reg 16 x" expected_word [15:0] $end
$var integer 32 y" i [31:0] $end
$upscope $end
$scope begin reset_consistency $end
$var integer 32 z" r [31:0] $end
$upscope $end
$scope begin uio_isolation $end
$var reg 16 {" check_out [15:0] $end
$var reg 16 |" ref_out [15:0] $end
$var integer 32 }" p [31:0] $end
$upscope $end
$scope begin uniqueness $end
$var integer 32 ~" a [31:0] $end
$upscope $end
$scope task check_byte $end
$var reg 8 !# actual [7:0] $end
$var reg 8 "# expected [7:0] $end
$var reg 128 ## test_name [127:0] $end
$upscope $end
$scope task check_output $end
$var reg 16 $# actual [15:0] $end
$var reg 16 %# expected [15:0] $end
$var reg 128 &# test_name [127:0] $end
$upscope $end
$scope task snapshot_all_channels $end
$var integer 32 '# ch [31:0] $end
$upscope $end
$upscope $end
$enddefinitions $end
$comment Show the parameter values. $end
$dumpall
b10 X"
b100000000 W"
b0 V"
b1 U"
b11 T"
b110 /"
b11 ."
b0 -"
b10 ,"
b111 +"
b101 *"
b1 )"
b100 ("
$end
#0
$dumpvars
bx '#
bx &#
bx %#
bx $#
bx ##
bx "#
bx !#
bx ~"
bx }"
bx |"
bx {"
bx z"
bx y"
bx x"
bx w"
bx v"
bx u"
bx t"
bx s"
bx r"
b0 q"
b0 p"
b0 o"
b0 n"
b0 m"
b0 l"
b0 k"
b0 j"
b1000 i"
b0 h"
b0 g"
b0 f"
b0 e"
b0 d"
b0 c"
b0 b"
b0 a"
b0 `"
b0 _"
b0 ^"
b0 ]"
b100000000 \"
b0 ["
b0 Z"
b0 Y"
b0 S"
b0 R"
b0 Q"
b10101010 P"
b111111 O"
1N"
1M"
b0 L"
b0 K"
b0 J"
b0 I"
b0 H"
b0 G"
b0 F"
b0 E"
b0 D"
b0 C"
b0 B"
b0 A"
b0 @"
b0 ?"
b0 >"
0="
0<"
b0 ;"
b10 :"
b0 9"
b0 8"
b0 7"
b0 6"
b0 5"
04"
b0 3"
02"
01"
b0 0"
b0 '"
b0 &"
0%"
b0 $"
b0 #"
0""
0!"
0~
b0 }
b0 |
b0 {
b0 z
1y
b0 x
b0 w
b0 v
b0 u
b0 t
b0 s
b0 r
0q
b0 p
b0 o
b0 n
b0 m
b0 l
b0 k
b0 j
b0 i
b0 h
b0 g
b0 f
b0 e
b0 d
b0 c
b0 b
b0 a
b0 `
b0 _
b0 ^
1]
b10 \
b0 [
b0 Z
b0 Y
b10 X
b0 W
b0 V
b0 U
0T
0S
b10101010 R
b11111111 Q
0P
0O
0N
0M
0L
0K
b0 J
b0 I
b0 H
b0 G
b0 F
b0 E
0D
b0 C
b0 B
0A
b1101111010101101 @
0?
b0 >
b0 =
b0 <
b0 ;
b0 :
b0 9
08
17
b11111111 6
b11011110 5
b10101101 4
b10101010 3
b11111111 2
11
b0 0
b0 /
b10101010 .
b11111111 -
0,
1+
0*
b11111111 )
b11011110 (
b10101101 '
b0 &
b0 %
b0 $
b0 #
b0 "
b0 !
$end
#2000
01
1,
b1 0
b1011111011011110110010100100000011001000111010101110010011010010110111001100111001000000111001001100101011100110110010101110100 ##
b11111111 "#
b11111111 !#
#5000
b100 X
b1 R"
b100 \
b10 ;"
b10 Q"
b10 6"
b10 p"
14"
1*
#10000
0*
#12000
b10 0
b1101111010111110110111101100101001000000110000101100110011101000110010101110010001000000111001001100101011100110110010101110100 ##
#15000
b110 X
b10 R"
1A
1="
b100 :"
b10 w
b10 t
b10 #
b10 <
b10 G
b10 9"
b110 \
b100 ;"
b100 Q"
1*
#20000
0*
#25000
b1000 X
b11 R"
b110 :"
b100 w
b100 t
b100 #
b100 <
b100 G
b100 9"
b1000 \
b110 ;"
b110 Q"
b100 6"
b100 p"
1*
#30000
0*
#35000
b1010 X
b100 R"
b110 6"
b110 p"
b1000 :"
b110 w
b110 t
b110 #
b110 <
b110 G
b110 9"
b1010 \
b1000 ;"
b1000 Q"
1*
#40000
0*
#45000
b1100 X
b101 R"
b1010 :"
b1000 w
b1000 t
b1000 #
b1000 <
b1000 G
b1000 9"
b1100 \
b1010 ;"
b1010 Q"
b1000 6"
b1000 p"
1*
#50000
0*
#55000
b1110 X
b110 R"
b1010 6"
b1010 p"
b1100 :"
b1010 w
b1010 t
b1010 #
b1010 <
b1010 G
b1010 9"
b1110 \
b1100 ;"
b1100 Q"
1*
#60000
0*
#65000
b10000 X
b111 R"
b1110 :"
b1100 w
b1100 t
b1100 #
b1100 <
b1100 G
b1100 9"
b10000 \
b1110 ;"
b1110 Q"
b1100 6"
b1100 p"
1*
#70000
0*
#75000
b10010 X
b1000 R"
b1110 6"
b1110 p"
b10000 :"
b1110 w
b1110 t
b1110 #
b1110 <
b1110 G
b1110 9"
b10010 \
b10000 ;"
b10000 Q"
1*
#80000
0*
#85000
b10100 X
b1001 R"
b10010 :"
b10000 w
b10000 t
b10000 #
b10000 <
b10000 G
b10000 9"
b10100 \
b10010 ;"
b10010 Q"
b10000 6"
b10000 p"
1*
#90000
0*
#95000
b10110 X
b1010 R"
b10010 6"
b10010 p"
b10100 :"
b10010 w
b10010 t
b10010 #
b10010 <
b10010 G
b10010 9"
b10110 \
b10100 ;"
b10100 Q"
1*
#100000
0*
#105000
b11000 X
b1011 R"
b10110 :"
b10100 w
b10100 t
b10100 #
b10100 <
b10100 G
b10100 9"
b11000 \
b10110 ;"
b10110 Q"
b10100 6"
b10100 p"
1*
#110000
0*
#115000
b11010 X
b1100 R"
b10110 6"
b10110 p"
b11000 :"
b10110 w
b10110 t
b10110 #
b10110 <
b10110 G
b10110 9"
b11010 \
b11000 ;"
b11000 Q"
1*
#120000
0*
#125000
b11100 X
b1101 R"
b11010 :"
b11000 w
b11000 t
b11000 #
b11000 <
b11000 G
b11000 9"
b11100 \
b11010 ;"
b11010 Q"
b11000 6"
b11000 p"
1*
#130000
0*
#135000
b11110 X
b1110 R"
b11010 6"
b11010 p"
b11100 :"
b11010 w
b11010 t
b11010 #
b11010 <
b11010 G
b11010 9"
b11110 \
b11100 ;"
b11100 Q"
1*
#140000
0*
#145000
b100000 X
b1111 R"
b11110 :"
b11100 w
b11100 t
b11100 #
b11100 <
b11100 G
b11100 9"
b100000 \
b11110 ;"
b11110 Q"
b11100 6"
b11100 p"
1*
#150000
0*
#155000
b100010 X
b10000 R"
b11110 6"
b11110 p"
b100000 :"
b11110 w
b11110 t
b11110 #
b11110 <
b11110 G
b11110 9"
b100010 \
b100000 ;"
b100000 Q"
1*
#160000
0*
#165000
b100100 X
b10001 R"
b100010 :"
b100000 w
b100000 t
b100000 #
b100000 <
b100000 G
b100000 9"
b100100 \
b100010 ;"
b100010 Q"
b100000 6"
b100000 p"
1*
#170000
0*
#175000
b100110 X
b10010 R"
b100010 6"
b100010 p"
b100100 :"
b100010 w
b100010 t
b100010 #
b100010 <
b100010 G
b100010 9"
b100110 \
b100100 ;"
b100100 Q"
1*
#180000
0*
#185000
b101000 X
b10011 R"
b100110 :"
b100100 w
b100100 t
b100100 #
b100100 <
b100100 G
b100100 9"
b101000 \
b100110 ;"
b100110 Q"
b100100 6"
b100100 p"
1*
#190000
0*
#195000
b101010 X
b10100 R"
b100110 6"
b100110 p"
b101000 :"
b100110 w
b100110 t
b100110 #
b100110 <
b100110 G
b100110 9"
b101010 \
b101000 ;"
b101000 Q"
1*
#200000
0*
#205000
b10 X
b0 R"
04"
0A
0="
b10 :"
b0 w
b0 t
b0 #
b0 <
b0 G
b0 9"
b10 \
b0 ;"
b0 Q"
b0 6"
b0 p"
11
0,
b11 0
b100000011000010110011001110100011001010111001000100000001100100011000000100000011000110111100101100011011011000110010101110011 ##
1*
#208000
b0 '
b0 4
b0 (
b0 5
b111000 O"
b0 @
b11111000 -
b11111000 2
b11111000 Q
b100 0
b1100101001000000110000101100110011101000110010101110010001000000111001001100101001011010111001001100101011100110110010101110100 ##
0,
#210000
0*
#215000
b1000 i"
1*
#220000
0*
#225000
b1000 i"
1*
#230000
0*
#235000
b1000 i"
1*
#240000
0*
#245000
b1000 i"
1*
#247000
01
1,
b101 0
b0 $#
b1000011001111010011000000100000011001000111010101110010011010010110111001100111001000000111001001100101011100110110010101110100 &#
b0 %#
#250000
0*
#255000
b100 X
b1 R"
b100 \
b10 ;"
b10 Q"
b10 6"
b10 p"
14"
1*
#260000
0*
#265000
b10 '
b10 4
b110 X
b10 @
b10 R"
1A
1="
b100 :"
b10 w
b10 t
b10 #
b10 <
b10 G
b10 9"
b110 \
b100 ;"
b100 Q"
1*
#267000
b110 0
#270000
0*
#275000
b100 '
b100 4
b1000 X
b100 @
b11 R"
b110 :"
b100 w
b100 t
b100 #
b100 <
b100 G
b100 9"
b1000 \
b110 ;"
b110 Q"
b100 6"
b100 p"
1*
#280000
0*
#285000
b110 '
b110 4
b1010 X
b110 @
b100 R"
b110 6"
b110 p"
b1000 :"
b110 w
b110 t
b110 #
b110 <
b110 G
b110 9"
b1010 \
b1000 ;"
b1000 Q"
1*
#290000
0*
#295000
b1000 '
b1000 4
b1100 X
b1000 @
b101 R"
b1010 :"
b1000 w
b1000 t
b1000 #
b1000 <
b1000 G
b1000 9"
b1100 \
b1010 ;"
b1010 Q"
b1000 6"
b1000 p"
1*
#300000
0*
#305000
b1010 '
b1010 4
b1110 X
b1010 @
b110 R"
b1010 6"
b1010 p"
b1100 :"
b1010 w
b1010 t
b1010 #
b1010 <
b1010 G
b1010 9"
b1110 \
b1100 ;"
b1100 Q"
1*
#310000
0*
#315000
b1100 '
b1100 4
b10000 X
b1100 @
b111 R"
b1110 :"
b1100 w
b1100 t
b1100 #
b1100 <
b1100 G
b1100 9"
b10000 \
b1110 ;"
b1110 Q"
b1100 6"
b1100 p"
1*
#320000
0*
#325000
b1110 '
b1110 4
b10010 X
b1110 @
b1000 R"
b1110 6"
b1110 p"
b10000 :"
b1110 w
b1110 t
b1110 #
b1110 <
b1110 G
b1110 9"
b10010 \
b10000 ;"
b10000 Q"
1*
#330000
0*
#335000
b10000 '
b10000 4
b10100 X
b10000 @
b1001 R"
b10010 :"
b10000 w
b10000 t
b10000 #
b10000 <
b10000 G
b10000 9"
b10100 \
b10010 ;"
b10010 Q"
b10000 6"
b10000 p"
1*
#340000
0*
#345000
b10010 '
b10010 4
b10110 X
b10010 @
b1010 R"
b10010 6"
b10010 p"
b10100 :"
b10010 w
b10010 t
b10010 #
b10010 <
b10010 G
b10010 9"
b10110 \
b10100 ;"
b10100 Q"
1*
#350000
0*
#355000
b10100 '
b10100 4
b11000 X
b10100 @
b1011 R"
b10110 :"
b10100 w
b10100 t
b10100 #
b10100 <
b10100 G
b10100 9"
b11000 \
b10110 ;"
b10110 Q"
b10100 6"
b10100 p"
1*
#360000
0*
#365000
b10110 '
b10110 4
b11010 X
b10110 @
b1100 R"
b10110 6"
b10110 p"
b11000 :"
b10110 w
b10110 t
b10110 #
b10110 <
b10110 G
b10110 9"
b11010 \
b11000 ;"
b11000 Q"
1*
#370000
0*
#375000
b11000 '
b11000 4
b11100 X
b11000 @
b1101 R"
b11010 :"
b11000 w
b11000 t
b11000 #
b11000 <
b11000 G
b11000 9"
b11100 \
b11010 ;"
b11010 Q"
b11000 6"
b11000 p"
1*
#380000
0*
#385000
b11010 '
b11010 4
b11110 X
b11010 @
b1110 R"
b11010 6"
b11010 p"
b11100 :"
b11010 w
b11010 t
b11010 #
b11010 <
b11010 G
b11010 9"
b11110 \
b11100 ;"
b11100 Q"
1*
#390000
0*
#395000
b11100 '
b11100 4
b100000 X
b11100 @
b1111 R"
b11110 :"
b11100 w
b11100 t
b11100 #
b11100 <
b11100 G
b11100 9"
b100000 \
b11110 ;"
b11110 Q"
b11100 6"
b11100 p"
1*
#400000
0*
#405000
b11110 '
b11110 4
b100010 X
b11110 @
b10000 R"
b11110 6"
b11110 p"
b100000 :"
b11110 w
b11110 t
b11110 #
b11110 <
b11110 G
b11110 9"
b100010 \
b100000 ;"
b100000 Q"
1*
#410000
0*
#415000
b0 '
b0 4
b10 X
b0 @
b0 R"
04"
0A
0="
b10 :"
b0 w
b0 t
b0 #
b0 <
b0 G
b0 9"
b10 \
b0 ;"
b0 Q"
b0 6"
b0 p"
11
0,
1*
#420000
0*
#425000
b1000 i"
1*
#430000
0*
#435000
b1000 i"
1*
#440000
0*
#445000
b1000 i"
1*
#450000
0*
#455000
b1000 i"
1*
#457000
01
1,
b111 0
b1100101011100100010000001101101011010010110010000101101011100100111010101101110001000000111001001100101011100110110010101110100 &#
#460000
0*
#465000
b100 X
b1 R"
b100 \
b10 ;"
b10 Q"
b10 6"
b10 p"
14"
1*
#470000
0*
#475000
b10 '
b10 4
b110 X
b10 @
b10 R"
1A
1="
b100 :"
b10 w
b10 t
b10 #
b10 <
b10 G
b10 9"
b110 \
b100 ;"
b100 Q"
1*
#480000
0*
#485000
b100 '
b100 4
b1000 X
b100 @
b11 R"
b110 :"
b100 w
b100 t
b100 #
b100 <
b100 G
b100 9"
b1000 \
b110 ;"
b110 Q"
b100 6"
b100 p"
1*
#490000
0*
#495000
b110 '
b110 4
b1010 X
b110 @
b100 R"
b110 6"
b110 p"
b1000 :"
b110 w
b110 t
b110 #
b110 <
b110 G
b110 9"
b1010 \
b1000 ;"
b1000 Q"
1*
#500000
0*
#505000
b1000 '
b1000 4
b1100 X
b1000 @
b101 R"
b1010 :"
b1000 w
b1000 t
b1000 #
b1000 <
b1000 G
b1000 9"
b1100 \
b1010 ;"
b1010 Q"
b1000 6"
b1000 p"
1*
#510000
0*
#515000
b1010 '
b1010 4
b1110 X
b1010 @
b110 R"
b1010 6"
b1010 p"
b1100 :"
b1010 w
b1010 t
b1010 #
b1010 <
b1010 G
b1010 9"
b1110 \
b1100 ;"
b1100 Q"
1*
#520000
0*
#525000
b1100 '
b1100 4
b10000 X
b1100 @
b111 R"
b1110 :"
b1100 w
b1100 t
b1100 #
b1100 <
b1100 G
b1100 9"
b10000 \
b1110 ;"
b1110 Q"
b1100 6"
b1100 p"
1*
#530000
0*
#535000
b1110 '
b1110 4
b10010 X
b1110 @
b1000 R"
b1110 6"
b1110 p"
b10000 :"
b1110 w
b1110 t
b1110 #
b1110 <
b1110 G
b1110 9"
b10010 \
b10000 ;"
b10000 Q"
1*
#540000
0*
#545000
b10000 '
b10000 4
b10100 X
b10000 @
b1001 R"
b10010 :"
b10000 w
b10000 t
b10000 #
b10000 <
b10000 G
b10000 9"
b10100 \
b10010 ;"
b10010 Q"
b10000 6"
b10000 p"
1*
#550000
0*
#555000
b10010 '
b10010 4
b10110 X
b10010 @
b1010 R"
b10010 6"
b10010 p"
b10100 :"
b10010 w
b10010 t
b10010 #
b10010 <
b10010 G
b10010 9"
b10110 \
b10100 ;"
b10100 Q"
1*
#559000
b0 '
b0 4
b111001 O"
b0 @
b11111001 -
b11111001 2
b11111001 Q
b1000 0
b10010 $#
b1100011011010000110010101110011001000000110100101101110011101000110010101110010011011100110000101101100001000000101000001000011 &#
b10010 %#
#560000
0*
#561000
b111010 O"
b11111010 -
b11111010 2
b11111010 Q
b1001 0
b0 $#
b1110011001000000110100101101110011101000110010101110010011011100110000101101100001000000100100101001110010100110101010001010010 &#
b0 %#
#563000
b111011 O"
b11111011 -
b11111011 2
b11111011 Q
b1010 0
b1101000011001010111001100100000011010010110111001110100011001010111001001101110011000010110110000100000010000010100110001010101 &#
#565000
b11000 X
b1011 R"
b10110 :"
b10100 w
b10100 t
b10100 #
b10100 <
b10100 G
b10100 9"
b11000 \
b10110 ;"
b10110 Q"
b10100 6"
b10100 p"
b111100 O"
b11111100 -
b11111100 2
b11111100 Q
b1011 0
b1100011011010000110010101110011001000000110100101101110011101000110010101110010011011100110000101101100001000000111100000110001 &#
1*
#567000
b111101 O"
b11111101 -
b11111101 2
b11111101 Q
b1100 0
b1100011011010000110010101110011001000000110100101101110011101000110010101110010011011100110000101101100001000000111100000110010 &#
#569000
b10101101 '
b10101101 4
b11011110 (
b11011110 5
b111110 O"
b1101111010101101 @
b11111110 -
b11111110 2
b11111110 Q
b1101 0
b1100011011010000110010101110011001000000110100101101110011101000110010101110010011011100110000101101100001000000111100000110011 &#
#570000
0*
#571000
b111111 O"
b11111111 -
b11111111 2
b11111111 Q
b1110 0
b1101111010101101 $#
b1100100011001010110011001100001011101010110110001110100001000000011110100100000001100000111100001000100010001010100000101000100 &#
b1101111010101101 %#
#573000
b10100 '
b10100 4
b0 (
b0 5
b111000 O"
b10100 @
b11111000 -
b11111000 2
b11111000 Q
b0 s"
b1111 0
#575000
b11010 X
b1100 R"
b10110 6"
b10110 p"
b11000 :"
b10110 w
b10110 t
b10110 #
b10110 <
b10110 G
b10110 9"
b11010 \
b11000 ;"
b11000 Q"
b0 '
b0 4
b111001 O"
b0 @
b11111001 -
b11111001 2
b11111001 Q
b1 s"
b10001 0
b10100 r"
1*
#577000
b111010 O"
b11111010 -
b11111010 2
b11111010 Q
b10 s"
b10011 0
b0 r"
#579000
b111011 O"
b11111011 -
b11111011 2
b11111011 Q
b11 s"
b10101 0
#580000
0*
#581000
b111100 O"
b11111100 -
b11111100 2
b11111100 Q
b100 s"
b10111 0
#583000
b111101 O"
b11111101 -
b11111101 2
b11111101 Q
b101 s"
b11001 0
#585000
b11100 X
b1101 R"
b11010 :"
b11000 w
b11000 t
b11000 #
b11000 <
b11000 G
b11000 9"
b11100 \
b11010 ;"
b11010 Q"
b11000 6"
b11000 p"
b0 y"
b110 s"
b11011 0
1*
#590000
0*
#595000
b11110 X
b1110 R"
b11010 6"
b11010 p"
b11100 :"
b11010 w
b11010 t
b11010 #
b11010 <
b11010 G
b11010 9"
b11110 \
b11100 ;"
b11100 Q"
1*
#597000
b11010 '
b11010 4
b111000 O"
b11010 @
b11111000 -
b11111000 2
b11111000 Q
b0 w"
#598000
b1 y"
b11100 0
b11010 x"
#600000
0*
#605000
b11100 '
b11100 4
b100000 X
b11100 @
b1111 R"
b11110 :"
b11100 w
b11100 t
b11100 #
b11100 <
b11100 G
b11100 9"
b100000 \
b11110 ;"
b11110 Q"
b11100 6"
b11100 p"
1*
#607000
b0 '
b0 4
b111001 O"
b0 @
b11111001 -
b11111001 2
b11111001 Q
b1 w"
#608000
b10 y"
b11101 0
b0 x"
#610000
0*
#615000
b100010 X
b10000 R"
b11110 6"
b11110 p"
b100000 :"
b11110 w
b11110 t
b11110 #
b11110 <
b11110 G
b11110 9"
b100010 \
b100000 ;"
b100000 Q"
1*
#617000
b111010 O"
b11111010 -
b11111010 2
b11111010 Q
b10 w"
#618000
b11 y"
b11110 0
#620000
0*
#625000
b100100 X
b10001 R"
b100010 :"
b100000 w
b100000 t
b100000 #
b100000 <
b100000 G
b100000 9"
b100100 \
b100010 ;"
b100010 Q"
b100000 6"
b100000 p"
1*
#627000
b111011 O"
b11111011 -
b11111011 2
b11111011 Q
b11 w"
#628000
b100 y"
b11111 0
#630000
0*
#635000
b100110 X
b10010 R"
b100010 6"
b100010 p"
b100100 :"
b100010 w
b100010 t
b100010 #
b100010 <
b100010 G
b100010 9"
b100110 \
b100100 ;"
b100100 Q"
1*
#637000
b111100 O"
b11111100 -
b11111100 2
b11111100 Q
b100 w"
#638000
b101 y"
b100000 0
#640000
0*
#645000
b101000 X
b10011 R"
b100110 :"
b100100 w
b100100 t
b100100 #
b100100 <
b100100 G
b100100 9"
b101000 \
b100110 ;"
b100110 Q"
b100100 6"
b100100 p"
1*
#647000
b111101 O"
b11111101 -
b11111101 2
b11111101 Q
b101 w"
#648000
b110 y"
b100001 0
#650000
0*
#655000
b101010 X
b10100 R"
b100110 6"
b100110 p"
b101000 :"
b100110 w
b100110 t
b100110 #
b100110 <
b100110 G
b100110 9"
b101010 \
b101000 ;"
b101000 Q"
1*
#657000
b100110 '
b100110 4
b111000 O"
b100110 @
b11111000 -
b11111000 2
b11111000 Q
b0 w"
#658000
b111 y"
b100010 0
b100110 x"
#660000
0*
#665000
b101000 '
b101000 4
b101100 X
b101000 @
b10101 R"
b101010 :"
b101000 w
b101000 t
b101000 #
b101000 <
b101000 G
b101000 9"
b101100 \
b101010 ;"
b101010 Q"
b101000 6"
b101000 p"
1*
#667000
b0 '
b0 4
b111001 O"
b0 @
b11111001 -
b11111001 2
b11111001 Q
b1 w"
#668000
b1000 y"
b100011 0
b0 x"
#670000
0*
#675000
b101110 X
b10110 R"
b101010 6"
b101010 p"
b101100 :"
b101010 w
b101010 t
b101010 #
b101010 <
b101010 G
b101010 9"
b101110 \
b101100 ;"
b101100 Q"
1*
#677000
b111010 O"
b11111010 -
b11111010 2
b11111010 Q
b10 w"
#678000
b1001 y"
b100100 0
#680000
0*
