riscv-16/riscv16_pipeline_tb.vcd
$date
	Mon Mar 23 09:07:27 2026
$end
$version
	Icarus Verilog
$end
$timescale
	1ps
$end
$scope module riscv16_top_tb $end
$var wire 3 ! op [2:0] $end
$var wire 16 " dbg_x3 [15:0] $end
$var wire 16 # dbg_x2 [15:0] $end
$var wire 16 $ dbg_x1 [15:0] $end
$var wire 16 % dbg_pc [15:0] $end
$var wire 16 & dbg_instr [15:0] $end
$var wire 16 ' dbg_alu_result [15:0] $end
$var reg 1 ( clk $end
$var reg 16 ) pc0 [15:0] $end
$var reg 16 * pc1 [15:0] $end
$var reg 16 + pc2 [15:0] $end
$var reg 1 , reset $end
$var reg 1 - seen_B $end
$var reg 1 . seen_I $end
$var reg 1 / seen_J $end
$var reg 1 0 seen_JR $end
$var reg 1 1 seen_L $end
$var reg 1 2 seen_R $end
$var reg 1 3 seen_S $end
$var reg 1 4 seen_U $end
$var reg 16 5 x1_0 [15:0] $end
$var reg 16 6 x2_0 [15:0] $end
$var reg 16 7 x3_0 [15:0] $end
$var integer 32 8 cycles [31:0] $end
$var integer 32 9 failed [31:0] $end
$var integer 32 : passed [31:0] $end
$var integer 32 ; total [31:0] $end
$scope function no_x16 $end
$upscope $end
$scope module dut $end
$var wire 1 ( clk $end
$var wire 16 < dbg_alu_result [15:0] $end
$var wire 16 = dbg_instr [15:0] $end
$var wire 16 > dbg_pc [15:0] $end
$var wire 16 ? dbg_x1 [15:0] $end
$var wire 16 @ dbg_x2 [15:0] $end
$var wire 16 A dbg_x3 [15:0] $end
$var wire 1 B flush_IF_ID $end
$var wire 1 C forward_A $end
$var wire 1 D forward_B $end
$var wire 1 , reset $end
$var wire 16 E rf_dbg_x1 [15:0] $end
$var wire 16 F rf_dbg_x2 [15:0] $end
$var wire 16 G rf_dbg_x3 [15:0] $end
$var wire 1 H stall $end
$var wire 1 I zero $end
$var wire 3 J rs2_s [2:0] $end
$var wire 3 K rs2_r [2:0] $end
$var wire 3 L rs2_b [2:0] $end
$var wire 3 M rs2 [2:0] $end
$var wire 3 N rs1_s [2:0] $end
$var wire 3 O rs1_r [2:0] $end
$var wire 3 P rs1_l [2:0] $end
$var wire 3 Q rs1_jr [2:0] $end
$var wire 3 R rs1_i [2:0] $end
$var wire 3 S rs1_b [2:0] $end
$var wire 3 T rs1 [2:0] $end
$var wire 3 U rd_u [2:0] $end
$var wire 3 V rd_r [2:0] $end
$var wire 3 W rd_l [2:0] $end
$var wire 3 X rd_jr [2:0] $end
$var wire 3 Y rd_j [2:0] $end
$var wire 3 Z rd_i [2:0] $end
$var wire 3 [ rd [2:0] $end
$var wire 3 \ opcode [2:0] $end
$var wire 1 ] negative $end
$var wire 16 ^ jalr_target [15:0] $end
$var wire 1 _ jalr_taken $end
$var wire 16 ` jalr_sum [15:0] $end
$var wire 16 a jal_target [15:0] $end
$var wire 1 b jal_taken $end
$var wire 16 c instruction_IF [15:0] $end
$var wire 16 d instruction [15:0] $end
$var wire 16 e imm_j [15:0] $end
$var wire 16 f imm_ext [15:0] $end
$var wire 16 g imm_b [15:0] $end
$var wire 4 h func [3:0] $end
$var wire 16 i branch_target [15:0] $end
$var wire 16 j WD3 [15:0] $end
$var wire 2 k ResultSrc [1:0] $end
$var wire 1 l RegWrite_gated $end
$var wire 1 m RegWrite $end
$var wire 16 n ReadData [15:0] $end
$var wire 16 o RD2_forwarded [15:0] $end
$var wire 16 p RD2 [15:0] $end
$var wire 16 q RD1_forwarded [15:0] $end
$var wire 16 r RD1 [15:0] $end
$var wire 16 s PC_plus2 [15:0] $end
$var wire 16 t PC_next [15:0] $end
$var wire 1 u PCSrc $end
$var wire 16 v PC [15:0] $end
$var wire 1 w MemWrite_gated $end
$var wire 1 x MemWrite $end
$var wire 1 y MemRead_gated $end
$var wire 1 z MemRead $end
$var wire 3 { ImmSrc [2:0] $end
$var wire 16 | ForwardData [15:0] $end
$var wire 16 } ALU_B [15:0] $end
$var wire 1 ~ ALUSrc $end
$var wire 16 !" ALUResult [15:0] $end
$var wire 4 "" ALUControl [3:0] $end
$var reg 16 #" ALUResult_ID_EX [15:0] $end
$var reg 16 $" ALUResult_MEM_WB [15:0] $end
$var reg 1 %" MemRead_ID_EX $end
$var reg 1 &" MemRead_MEM_WB $end
$var reg 1 '" MemWrite_ID_EX $end
$var reg 16 (" PC_IF_ID [15:0] $end
$var reg 16 )" PC_plus2_ID_EX [15:0] $end
$var reg 16 *" PC_plus2_IF_ID [15:0] $end
$var reg 16 +" PC_plus2_MEM_WB [15:0] $end
$var reg 16 ," RD2_ID_EX [15:0] $end
$var reg 16 -" ReadData_MEM_WB [15:0] $end
$var reg 1 ." RegWrite_ID_EX $end
$var reg 1 /" RegWrite_MEM_WB $end
$var reg 2 0" ResultSrc_ID_EX [1:0] $end
$var reg 2 1" ResultSrc_MEM_WB [1:0] $end
$var reg 16 2" instruction_IF_ID [15:0] $end
$var reg 3 3" rd_ID_EX [2:0] $end
$var reg 3 4" rd_MEM_WB [2:0] $end
$scope module ALU_CORE $end
$var wire 16 5" SrcA [15:0] $end
$var wire 1 I zero $end
$var wire 1 ] negative $end
$var wire 16 6" SrcB [15:0] $end
$var wire 4 7" ALU_control [3:0] $end
$var reg 16 8" ALU_result [15:0] $end
$upscope $end
$scope module CU $end
$var wire 4 9" func [3:0] $end
$var wire 1 ] negative $end
$var wire 3 :" opcode [2:0] $end
$var wire 1 I zero $end
$var reg 4 ;" ALUControl [3:0] $end
$var reg 1 ~ ALUSrc $end
$var reg 3 <" ImmSrc [2:0] $end
$var reg 1 z MemRead $end
$var reg 1 x MemWrite $end
$var reg 1 u PCSrc $end
$var reg 1 m RegWrite $end
$var reg 2 =" ResultSrc [1:0] $end
$upscope $end
$scope module DMEM $end
$var wire 1 ( clk $end
$var wire 16 >" mem_access_addr [15:0] $end
$var wire 1 %" mem_read $end
$var wire 16 ?" mem_write_data [15:0] $end
$var wire 1 '" mem_write_en $end
$var wire 16 @" mem_read_data [15:0] $end
$var wire 3 A" addr [2:0] $end
$upscope $end
$scope module IMEM $end
$var wire 1 ( clk $end
$var wire 16 B" word_index [15:0] $end
$var wire 16 C" pc [15:0] $end
$var wire 16 D" instruction [15:0] $end
$var integer 32 E" i [31:0] $end
$upscope $end
$scope module PC_REG $end
$var wire 1 ( clk $end
$var wire 1 F" pc_en $end
$var wire 16 G" pc_next [15:0] $end
$var wire 1 , reset $end
$var reg 16 H" pc [15:0] $end
$upscope $end
$scope module RD_2 $end
$var wire 1 ~ ALUSrc $end
$var wire 16 I" RD2 [15:0] $end
$var wire 16 J" SrcB [15:0] $end
$var wire 16 K" ImmExt [15:0] $end
$upscope $end
$scope module RF $end
$var wire 3 L" A1 [2:0] $end
$var wire 3 M" A2 [2:0] $end
$var wire 3 N" A3 [2:0] $end
$var wire 1 /" RegWrite $end
$var wire 1 ( clk $end
$var wire 16 O" dbg_x1 [15:0] $end
$var wire 16 P" dbg_x2 [15:0] $end
$var wire 16 Q" dbg_x3 [15:0] $end
$var wire 16 R" WD3 [15:0] $end
$var wire 16 S" RD2 [15:0] $end
$var wire 16 T" RD1 [15:0] $end
$var integer 32 U" i [31:0] $end
$upscope $end
$scope module SE $end
$var wire 3 V" ImmSrc [2:0] $end
$var wire 16 W" instr [15:0] $end
$var reg 16 X" ImmExt [15:0] $end
$upscope $end
$scope module WB_MUX $end
$var wire 16 Y" ALUResult [15:0] $end
$var wire 16 Z" MemData [15:0] $end
$var wire 2 [" MemtoReg [1:0] $end
$var wire 16 \" PcPlus2 [15:0] $end
$var wire 16 ]" WD3 [15:0] $end
$upscope $end
$upscope $end
$scope begin instr_change_test $end
$var reg 16 ^" i0 [15:0] $end
$var reg 16 _" i1 [15:0] $end
$upscope $end
$scope task fail $end
$upscope $end
$scope task pass $end
$upscope $end
$scope task wait_cycles $end
$upscope $end
$upscope $end
$enddefinitions $end
#0
$dumpvars
bx _"
bx ^"
b0 ]"
b0 \"
b0 ["
b0 Z"
b0 Y"
b0 X"
b0 W"
b0 V"
b1000 U"
b0 T"
b0 S"
b0 R"
b0 Q"
b0 P"
b0 O"
b0 N"
b0 M"
b0 L"
b0 K"
b0 J"
b0 I"
b0 H"
b10 G"
1F"
b100000000 E"
b0 D"
b0 C"
b0 B"
b0 A"
b0 @"
b0 ?"
b0 >"
b0 ="
b0 <"
b0 ;"
b0 :"
b0 9"
b0 8"
b0 7"
b0 6"
b0 5"
b0 4"
b0 3"
b0 2"
b0 1"
b0 0"
0/"
0."
b0 -"
b0 ,"
b0 +"
b0 *"
b0 )"
b0 ("
0'"
0&"
0%"
b0 $"
b0 #"
b0 ""
b0 !"
0~
b0 }
b0 |
b0 {
0z
0y
0x
0w
b0 v
0u
b10 t
b10 s
b0 r
b0 q
b0 p
b0 o
b0 n
1m
1l
b0 k
b0 j
b0 i
b0 h
b0 g
b0 f
b0 e
b0 d
b0 c
0b
b0 a
b0 `
0_
b0 ^
0]
b0 \
b0 [
b0 Z
b0 Y
b0 X
b0 W
b0 V
b0 U
b0 T
b0 S
b0 R
b0 Q
b0 P
b0 O
b0 N
b0 M
b0 L
b0 K
b0 J
1I
0H
b0 G
b0 F
b0 E
0D
0C
0B
b0 A
b0 @
b0 ?
b0 >
b0 =
b0 <
b0 ;
b0 :
b0 9
b0 8
bx 7
bx 6
bx 5
04
03
02
01
00
0/
0.
0-
1,
bx +
bx *
bx )
0(
b0 '
b0 &
b0 %
b0 $
b0 #
b0 "
b0 !
$end
#5000
1(
#10000
0(
#15000
1(
#20000
0(
#25000
1(
#30000
0(
#35000
1(
#40000
0(
#45000
0,
1(
#50000
0(
#55000
b1 !
b100 t
b100 G"
b100100100000001 &
b100100100000001 =
b100100100000001 c
b100100100000001 D"
b1 B"
b1 8
12
b100 s
b10 %
b10 >
b10 v
b10 C"
b10 H"
b10 *"
1."
1(
#60000
0(
#65000
0I
b10 '
b10 <
b10 !"
b10 8"
b10 }
b10 6"
b10 J"
b10 ^
b10 T
b10 L"
b10 [
b10 `
b10 f
b10 K"
b10 X"
b110 t
b110 G"
b1 {
b1 <"
b1 V"
1~
1m
b10010010000001 &
b10010010000001 =
b10010010000001 c
b10010010000001 D"
b1 \
b1 :"
b10 O
b10 K
b10 V
b10 R
b10 Z
b100 N
b100 P
b1 S
b100 Q
b1001 g
b100100100 e
b10 B"
1.
b10 8
1/"
b10 )"
b100100100000001 d
b100100100000001 2"
b100100100000001 W"
b100 *"
b10100 i
b1001001010 a
b10 ("
b110 s
b100 %
b100 >
b100 v
b100 C"
b100 H"
b10 )
b1 :
b1 ;
1(
#70000
0(
#75000
b0 !
b1000 t
b1000 G"
b1 T
b1 L"
b1 [
b1 '
b1 <
b1 !"
b1 8"
b0 &
b0 =
b0 c
b0 D"
b1 }
b1 6"
b1 J"
b0 ^
b11 B"
b1 O
b1 K
b1 V
b1 R
b1 Z
b10 N
b10 P
b100 S
b100 L
b10 Q
b100 g
b10010010 e
b1 `
b1 f
b1 K"
b1 X"
b1 A"
b11 8
b1000 s
b110 %
b110 >
b110 v
b110 C"
b110 H"
b10010010000001 d
b10010010000001 2"
b10010010000001 W"
b110 *"
b1100 i
b100101000 a
b100 ("
b100 )"
b10 3"
b10 #"
b10 >"
b10 +"
b10 \"
1(
#80000
0(
#85000
1I
b0 '
b0 <
b0 !"
b0 8"
b11 !
b1010 t
b1010 G"
b10 |
b0 T
b0 L"
b0 [
1m
b0 {
b0 <"
b0 V"
0~
b0 }
b0 6"
b0 J"
b11001010011 &
b11001010011 =
b11001010011 c
b11001010011 D"
b10 j
b10 R"
b10 ]"
b0 A"
b0 \
b0 :"
b0 O
b0 K
b0 V
b0 R
b0 Z
b0 N
b0 P
b0 S
b0 L
b0 Q
b0 g
b0 e
b0 `
b0 f
b0 K"
b0 X"
b100 B"
b100 8
b100 +"
b100 \"
b10 4"
b10 N"
b10 $"
b10 Y"
b110 )"
b1 3"
b1 #"
b1 >"
b0 d
b0 2"
b0 W"
b1000 *"
b110 i
b110 a
b110 ("
b1010 s
b1000 %
b1000 >
b1000 v
b1000 C"
b1000 H"
1(
#90000
0(
#95000
b1 q
b1 5"
1C
b10 o
b10 I"
0I
b100 '
b100 <
b100 !"
b100 8"
b1 T
b1 L"
b10 p
b10 S"
b11 }
b11 6"
b11 J"
b100 ^
b0 !
b1100 t
b1100 G"
b10 M
b10 M"
b100 `
b11 f
b11 K"
b11 X"
1w
0l
b0 &
b0 =
b0 c
b0 D"
b10 {
b10 <"
b10 V"
1x
1~
0m
b1 |
b101 B"
b11 \
b11 :"
b1010 h
b1010 9"
b1 K
b100 V
b100 R
b100 Z
b1 N
b10 J
b1 P
b10 W
b110 S
b10 L
b10 U
b10 Y
b1 Q
b10 X
b11001 e
b1 j
b1 R"
b1 ]"
b101 8
13
b10 #
b10 @
b10 F
b10 P"
b1100 s
b1010 %
b1010 >
b1010 v
b1010 C"
b1010 H"
b11001010011 d
b11001010011 2"
b11001010011 W"
b1010 *"
b1000 i
b111010 a
b1000 ("
b1000 )"
b0 3"
b0 #"
b0 >"
b110 +"
b110 \"
b1 4"
b1 N"
b1 $"
b1 Y"
1(
#100000
0(
#105000
1I
b0 q
b0 5"
b0 o
b0 I"
b0 p
b0 S"
1l
0w
b0 '
b0 <
b0 !"
b0 8"
b10 !
b1110 t
b1110 G"
b0 |
b0 T
b0 L"
b0 M
b0 M"
1m
b0 {
b0 <"
b0 V"
0~
0x
b0 }
b0 6"
b0 J"
b0 ^
b11001011010 &
b11001011010 =
b11001011010 c
b11001011010 D"
b0 r
b0 T"
0C
b0 j
b0 R"
b0 ]"
b10 A"
b0 \
b0 :"
b0 h
b0 9"
b0 K
b0 V
b0 R
b0 Z
b0 N
b0 J
b0 P
b0 W
b0 S
b0 L
b0 U
b0 Y
b0 Q
b0 X
b0 e
b0 `
b0 f
b0 K"
b0 X"
b110 B"
b1 $
b1 ?
b1 E
b1 O"
b110 8
b1000 +"
b1000 \"
b0 4"
b0 N"
b0 $"
b0 Y"
b1010 )"
1'"
0."
b10 ,"
b10 ?"
b100 #"
b100 >"
b0 d
b0 2"
b0 W"
b1100 *"
b1010 i
b1010 a
b1010 ("
b1110 s
b1100 %
b1100 >
b1100 v
b1100 C"
b1100 H"
1(
#110000
0(
#115000
b1 q
b1 5"
b1 r
b1 T"
b1 T
b1 L"
b11 [
0I
b100 '
b100 <
b100 !"
b100 8"
b11 }
b11 6"
b11 J"
b100 ^
b0 !
b10000 t
b10000 G"
b100 `
b11 f
b11 K"
b11 X"
1y
b0 &
b0 =
b0 c
b0 D"
b10 {
b10 <"
b10 V"
b1 k
b1 ="
1z
1~
1m
b100 |
b111 B"
b10 \
b10 :"
b1011 h
b1011 9"
b1 K
b100 V
b100 R
b100 Z
b1 N
b11 J
b1 P
b11 W
b110 S
b10 L
b11 U
b11 Y
b1 Q
b11 X
b11001 e
b0 A"
b100 j
b100 R"
b100 ]"
b111 8
11
b10000 s
b1110 %
b1110 >
b1110 v
b1110 C"
b1110 H"
b11001011010 d
b11001011010 2"
b11001011010 W"
b1110 *"
b1100 i
b111110 a
b1100 ("
b1100 )"
0'"
1."
b0 ,"
b0 ?"
b0 #"
b0 >"
b1010 +"
b1010 \"
0/"
b100 $"
b100 Y"
b1100 *
1(
#120000
0(
#125000
1I
b0 q
b0 5"
b0 r
b0 T"
0y
b0 '
b0 <
b0 !"
b0 8"
b1 !
b10010 t
b10010 G"
b0 |
b0 T
b0 L"
b0 [
1m
b0 {
b0 <"
b0 V"
0~
0z
b0 k
b0 ="
b0 }
b0 6"
b0 J"
b0 ^
b110010010000001 &
b110010010000001 =
b110010010000001 c
b110010010000001 D"
b0 j
b0 R"
b0 ]"
b10 n
b10 @"
b10 A"
b0 \
b0 :"
b0 h
b0 9"
b0 K
b0 V
b0 R
b0 Z
b0 N
b0 J
b0 P
b0 W
b0 S
b0 L
b0 U
b0 Y
b0 Q
b0 X
b0 e
b0 `
b0 f
b0 K"
b0 X"
b1000 B"
b1000 8
b1100 +"
b1100 \"
1/"
b0 $"
b0 Y"
b1110 )"
b1 0"
1%"
b11 3"
b100 #"
b100 >"
b0 d
b0 2"
b0 W"
b10000 *"
b1110 i
b1110 a
b1110 ("
b10010 s
b10000 %
b10000 >
b10000 v
b10000 C"
b10000 H"
1(
#130000
0(
#135000
b1 q
b1 5"
0I
b100 '
b100 <
b100 !"
b100 8"
b1 r
b1 T"
b11 }
b11 6"
b11 J"
b100 ^
b100 !
b10100 t
b10100 G"
b1 T
b1 L"
b1 [
b100 `
b11 f
b11 K"
b11 X"
b100000101011100 &
b100000101011100 =
b100000101011100 c
b100000101011100 D"
b1 {
b1 <"
b1 V"
1~
1m
b10 j
b10 R"
b10 ]"
b1001 B"
b1 \
b1 :"
b11 O
b1 K
b1 V
b1 R
b1 Z
b10 N
b10 P
b100 S
b100 L
b10 Q
b1100 g
b110010010 e
b0 n
b0 @"
b0 A"
b10 |
b1001 8
b10100 s
b10010 %
b10010 >
b10010 v
b10010 C"
b10010 H"
b110010010000001 d
b110010010000001 2"
b110010010000001 W"
b10010 *"
b101000 i
b1100110100 a
b10000 ("
b10000 )"
b0 0"
0%"
b0 3"
b0 #"
b0 >"
1&"
b1110 +"
b1110 \"
b1 1"
b1 ["
b11 4"
b11 N"
b10 -"
b10 Z"
b100 $"
b100 Y"
1(
#140000
0(
#145000
b10 o
b10 I"
0I
b10 p
b10 S"
b1 q
b1 5"
b10 M
b10 M"
0B
b1 r
b1 T"
1]
0l
b1 T
b1 L"
b0 [
b1111111111111111 '
b1111111111111111 <
b1111111111111111 !"
b1111111111111111 8"
b0 !
b10110 t
b10110 G"
0u
b1 ""
b1 7"
b1 ;"
0m
b11 {
b11 <"
b11 V"
0~
b10 }
b10 6"
b10 J"
b10000 ^
b0 &
b0 =
b0 c
b0 D"
b0 j
b0 R"
b0 ]"
0D
b0 |
b10 A"
b100 \
b100 :"
b1011 h
b1011 9"
b10 O
b0 K
b10 V
b10 R
b10 Z
b101 N
b11 J
b101 P
b11 W
b1 S
b10 L
b11 U
b11 Y
b101 Q
b11 X
b1000 g
b100000101 e
b10001 `
b10000 f
b10000 K"
b10000 X"
b1010 B"
b10 "
b10 A
b10 G
b10 Q"
1-
b1010 8
0&"
b10000 +"
b10000 \"
b0 1"
b0 ["
b0 4"
b0 N"
b0 -"
b0 Z"
b0 $"
b0 Y"
b10010 )"
b1 3"
b100 #"
b100 >"
b100000101011100 d
b100000101011100 2"
b100000101011100 W"
b10100 *"
b100010 i
b1000011100 a
b10010 ("
b10110 s
b10100 %
b10100 >
b10100 v
b10100 C"
b10100 H"
1(
#150000
0(
#155000
1I
b0 }
b0 6"
b0 J"
b0 o
b0 I"
0]
b11000 t
b11000 G"
b0 r
b0 T"
b0 p
b0 S"
1l
b0 '
b0 <
b0 !"
b0 8"
b0 q
b0 5"
b0 T
b0 L"
b0 M
b0 M"
1m
b0 {
b0 <"
b0 V"
b0 ""
b0 7"
b0 ;"
b0 ^
0C
b100 |
b1011 B"
b0 \
b0 :"
b0 h
b0 9"
b0 O
b0 V
b0 R
b0 Z
b0 N
b0 J
b0 P
b0 W
b0 S
b0 L
b0 U
b0 Y
b0 Q
b0 X
b0 g
b0 e
b0 `
b0 f
b0 K"
b0 X"
b111 A"
b100 j
b100 R"
b100 ]"
b1011 8
b11000 s
b10110 %
b10110 >
b10110 v
b10110 C"
b10110 H"
b0 d
b0 2"
b0 W"
b10110 *"
b10100 i
b10100 a
b10100 ("
b10100 )"
0."
b0 3"
b10 ,"
b10 ?"
b1111111111111111 #"
b1111111111111111 >"
b10010 +"
b10010 \"
b1 4"
b1 N"
b100 $"
b100 Y"
1(
#160000
0(
#165000
1m
0]
b0 ^
1I
b0 '
b0 <
b0 !"
b0 8"
b0 }
b0 6"
b0 J"
b11010 t
b11010 G"
b0 `
b0 q
b0 5"
b0 o
b0 I"
b1111111111111111 |
0C
0D
b1111111111111111 j
b1111111111111111 R"
b1111111111111111 ]"
b0 A"
b1100 B"
b100 $
b100 ?
b100 E
b100 O"
b1100 8
b10100 +"
b10100 \"
0/"
b0 4"
b0 N"
b1111111111111111 $"
b1111111111111111 Y"
b10110 )"
1."
b0 ,"
b0 ?"
b0 #"
b0 >"
b11000 *"
b10110 i
b10110 a
b10110 ("
b11010 s
b11000 %
b11000 >
b11000 v
b11000 C"
b11000 H"
b0 ^"
b10 :
b10 ;
b10110 +
1(
#170000
0(
#175000
b11100 t
b11100 G"
b0 |
b1101 B"
b0 j
b0 R"
b0 ]"
b1101 8
b11100 s
b11010 %
b11010 >
b11010 v
b11010 C"
b11010 H"
b11010 *"
b11000 i
b11000 a
b11000 ("
b11000 )"
b10110 +"
b10110 \"
1/"
b0 $"
b0 Y"
1(
#180000
0(
#185000
b11110 t
b11110 G"
b1110 B"
b1110 8
b11000 +"
b11000 \"
b11010 )"
b11100 *"
b11010 i
b11010 a
b11010 ("
b11110 s
b11100 %
b11100 >
b11100 v
b11100 C"
b11100 H"
1(
#190000
0(
#195000
b100000 t
b100000 G"
b1111 B"
b1111 8
b100000 s
b11110 %
b11110 >
b11110 v
b11110 C"
b11110 H"
b11110 *"
b11100 i
b11100 a
b11100 ("
b11100 )"
b11010 +"
b11010 \"
1(
#200000
0(
#205000
b100010 t
b100010 G"
b10000 B"
b10000 8
b11100 +"
b11100 \"
b11110 )"
b100000 *"
b11110 i
b11110 a
b11110 ("
b100010 s
b100000 %
b100000 >
b100000 v
b100000 C"
b100000 H"
1(
#210000
0(
#215000
b100100 t
b100100 G"
b10001 B"
b10001 8
b100100 s
b100010 %
b100010 >
b100010 v
b100010 C"
b100010 H"
b100010 *"
b100000 i
b100000 a
b100000 ("
b100000 )"
b11110 +"
b11110 \"
1(
#220000
0(
#225000
b100110 t
b100110 G"
b10010 B"
b10010 8
b100000 +"
b100000 \"
b100010 )"
b100100 *"
b100010 i
b100010 a
b100010 ("
b100110 s
b100100 %
b100100 >
b100100 v
b100100 C"
b100100 H"
b10 7
b10 6
b100 5
b1 9
b11 ;
b0 _"
1(
#230000
0(
#235000
b101000 t
b101000 G"
b10011 B"
b10011 8
b101000 s
b100110 %
b100110 >
b100110 v
b100110 C"
b100110 H"
b100110 *"
b100100 i
b100100 a
b100100 ("
b100100 )"
b100010 +"
b100010 \"
1(
#240000
0(
#245000
b101010 t
b101010 G"
b10100 B"
b10100 8
b100100 +"
b100100 \"
b100110 )"
b101000 *"
b100110 i
b100110 a
b100110 ("
b101010 s
b101000 %
b101000 >
b101000 v
b101000 C"
b101000 H"
1(
#250000
0(
#255000
b101100 t
b101100 G"
b10101 B"
b10101 8
b101100 s
b101010 %
b101010 >
b101010 v
b101010 C"
b101010 H"
b101010 *"
b101000 i
b101000 a
b101000 ("
b101000 )"
b100110 +"
b100110 \"
1(
#260000
0(
#265000
b101110 t
b101110 G"
b10110 B"
b10110 8
b101000 +"
b101000 \"
b101010 )"
b101100 *"
b101010 i
b101010 a
b101010 ("
b101110 s
b101100 %
b101100 >
b101100 v
b101100 C"
b101100 H"
1(
#270000
0(
#275000
b111 !
b110000 t
b110000 G"
b10000001001111 &
b10000001001111 =
b10000001001111 c
b10000001001111 D"
b10111 B"
b10111 8
b110000 s
b101110 %
b101110 >
b101110 v
b101110 C"
b101110 H"
b101110 *"
b101100 i
b101100 a
b101100 ("
b101100 )"
b101010 +"
b101010 \"
1(
#280000
0(
#285000
b100 q
b100 5"
b100 r
b100 T"
b1 T
b1 L"
b1 [
0I
b10100 '
b10100 <
b10100 !"
b10100 8"
0l
b10000 }
b10000 6"
b10000 J"
b10100 ^
b10100 `
b10000 f
b10000 K"
b10000 X"
b1 !
b10100 t
b10100 G"
1B
b10 k
b10 ="
b110 {
b110 <"
b110 V"
1~
1u
1m
b10010010000001 &
b10010010000001 =
b10010010000001 c
b10010010000001 D"
1_
b111 \
b111 :"
b1001 h
b1001 9"
b1 O
b1 N
b1 J
b1 P
b1 W
b10 L
b1 U
b1 Y
b1 Q
b1 X
b100 g
b10000001 e
b11000 B"
10
b11000 8
b101100 +"
b101100 \"
b101110 )"
b10000001001111 d
b10000001001111 2"
b10000001001111 W"
b110000 *"
b110110 i
b100110000 a
b101110 ("
b110010 s
b110000 %
b110000 >
b110000 v
b110000 C"
b110000 H"
1(
#290000
0(
#295000
1l
1I
b0 q
b0 5"
0B
b0 !
b0 r
b0 T"
b0 '
b0 <
b0 !"
b0 8"
b0 &
b0 =
b0 c
b0 D"
b10110 t
b10110 G"
b0 T
b0 L"
b0 [
1m
b0 {
b0 <"
b0 V"
0~
b0 k
b0 ="
0u
b0 }
b0 6"
b0 J"
b0 ^
b1010 B"
0_
b0 \
b0 :"
b0 h
b0 9"
b0 O
b0 N
b0 J
b0 P
b0 W
b0 L
b0 U
b0 Y
b0 Q
b0 X
b0 g
b0 e
b0 `
b0 f
b0 K"
b0 X"
b10 A"
b11001 8
b10110 s
b10100 %
b10100 >
b10100 v
b10100 C"
b10100 H"
b0 d
b0 2"
b0 W"
b0 *"
b0 i
b0 a
b0 ("
b110000 )"
b10 0"
0."
b1 3"
b10100 #"
b10100 >"
b101110 +"
b101110 \"
1(
#300000
0(
#305000
b110000 j
b110000 R"
b110000 ]"
b11000 t
b11000 G"
b110000 |
b0 A"
b1011 B"
b11010 8
b110000 +"
b110000 \"
b10 1"
b10 ["
0/"
b1 4"
b1 N"
b10100 $"
b10100 Y"
b0 )"
b0 0"
1."
b0 3"
b0 #"
b0 >"
b10110 *"
b10100 i
b10100 a
b10100 ("
b11000 s
b10110 %
b10110 >
b10110 v
b10110 C"
b10110 H"
1(
#310000
0(
#315000
b11010 t
b11010 G"
b0 |
b1100 B"
b0 j
b0 R"
b0 ]"
b11011 8
b11010 s
b11000 %
b11000 >
b11000 v
b11000 C"
b11000 H"
b11000 *"
b10110 i
b10110 a
b10110 ("
b10110 )"
b0 +"
b0 \"
b0 1"
b0 ["
1/"
b0 4"
b0 N"
b0 $"
b0 Y"
1(
#320000
0(
#325000
b11100 t
b11100 G"
b1101 B"
b11100 8
b10110 +"
b10110 \"
b11000 )"
b11010 *"
b11000 i
b11000 a
b11000 ("
b11100 s
b11010 %
b11010 >
b11010 v
b11010 C"
b11010 H"
1(
#330000
0(
#335000
b11110 t
b11110 G"
b1110 B"
b11101 8
b11110 s
b11100 %
b11100 >
b11100 v
b11100 C"
b11100 H"
b11100 *"
b11010 i
b11010 a
b11010 ("
b11010 )"
b11000 +"
b11000 \"
1(
#340000
0(
#345000
b100000 t
b100000 G"
b1111 B"
b11110 8
b11010 +"
b11010 \"
b11100 )"
b11110 *"
b11100 i
b11100 a
b11100 ("
b100000 s
b11110 %
b11110 >
b11110 v
b11110 C"
b11110 H"
1(
#350000
0(
#355000
b100010 t
b100010 G"
b10000 B"
b11111 8
b100010 s
b100000 %
b100000 >
b100000 v
b100000 C"
b100000 H"
b100000 *"
b11110 i
b11110 a
b11110 ("
b11110 )"
b11100 +"
b11100 \"
1(
#360000
0(
#365000
b100100 t
b100100 G"
b10001 B"
b100000 8
b11110 +"
b11110 \"
b100000 )"
b100010 *"
b100000 i
b100000 a
b100000 ("
b100100 s
b100010 %
b100010 >
b100010 v
b100010 C"
b100010 H"
1(
#370000
0(
#375000
b100110 t
b100110 G"
b10010 B"
b100001 8
b100110 s
b100100 %
b100100 >
b100100 v
b100100 C"
b100100 H"
b100100 *"
b100010 i
b100010 a
b100010 ("
b100010 )"
b100000 +"
b100000 \"
1(
#380000
0(
#385000
b101000 t
b101000 G"
b10011 B"
b100010 8
b100010 +"
b100010 \"
b100100 )"
b100110 *"
b100100 i
b100100 a
b100100 ("
b101000 s
b100110 %
b100110 >
b100110 v
b100110 C"
b100110 H"
1(
#390000
0(
#395000
b101010 t
b101010 G"
b10100 B"
b100011 8
b101010 s
b101000 %
b101000 >
b101000 v
b101000 C"
b101000 H"
b101000 *"
b100110 i
b100110 a
b100110 ("
b100110 )"
b100100 +"
b100100 \"
1(
#400000
0(
#405000
b101100 t
b101100 G"
b10101 B"
b100100 8
b100110 +"
b100110 \"
b101000 )"
b101010 *"
b101000 i
b101000 a
b101000 ("
b101100 s
b101010 %
b101010 >
b101010 v
b101010 C"
b101010 H"
1(
#410000
0(
#415000
b101110 t
b101110 G"
b10110 B"
b100101 8
b101110 s
b101100 %
b101100 >
b101100 v
b101100 C"
b101100 H"
b101100 *"
b101010 i
b101010 a
b101010 ("
b101010 )"
b101000 +"
b101000 \"
1(
#420000
0(
#425000
b111 !
b110000 t
b110000 G"
b10000001001111 &
b10000001001111 =
b10000001001111 c
b10000001001111 D"
b10111 B"
b100110 8
b101010 +"
b101010 \"
b101100 )"
b101110 *"
b101100 i
b101100 a
b101100 ("
b110000 s
b101110 %
b101110 >
b101110 v
b101110 C"
b101110 H"
1(
#430000
0(
#435000
b100 q
b100 5"
b100 r
b100 T"
b1 T
b1 L"
b1 [
0I
b10100 '
b10100 <
b10100 !"
b10100 8"
0l
b10000 }
b10000 6"
b10000 J"
b10100 ^
b1 !
b10100 `
b10000 f
b10000 K"
b10000 X"
b10010010000001 &
b10010010000001 =
b10010010000001 c
b10010010000001 D"
b10100 t
b10100 G"
1B
b10 k
b10 ="
b110 {
b110 <"
b110 V"
1~
1u
1m
b11000 B"
1_
b111 \
b111 :"
b1001 h
b1001 9"
b1 O
b1 N
b1 J
b1 P
b1 W
b10 L
b1 U
b1 Y
b1 Q
b1 X
b100 g
b10000001 e
b100111 8
b110010 s
b110000 %
b110000 >
b110000 v
b110000 C"
b110000 H"
b10000001001111 d
b10000001001111 2"
b10000001001111 W"
b110000 *"
b110110 i
b100110000 a
b101110 ("
b101110 )"
b101100 +"
b101100 \"
1(
#440000
0(
