riscv-16/riscv16_pipeline_tb.vcd
$date
	Mon Mar 16 10:33:34 2026
$end
$version
	Icarus Verilog
$end
$timescale
	1ps
$end
$scope module riscv16_pipeline_tb $end
$var wire 16 ! dbg_x3 [15:0] $end
$var wire 16 " dbg_x2 [15:0] $end
$var wire 16 # dbg_x1 [15:0] $end
$var wire 16 $ dbg_pc [15:0] $end
$var wire 16 % dbg_instr [15:0] $end
$var wire 16 & dbg_alu_result [15:0] $end
$var reg 1 ' clk $end
$var reg 1 ( reset $end
$var integer 32 ) fail_count [31:0] $end
$var integer 32 * pass_count [31:0] $end
$scope function b_instr $end
$var reg 3 + imm_hi [2:0] $end
$var reg 4 , imm_lo [3:0] $end
$var reg 3 - rs1 [2:0] $end
$var reg 3 . rs2 [2:0] $end
$upscope $end
$scope function i_instr $end
$var reg 4 / func [3:0] $end
$var reg 6 0 imm6 [5:0] $end
$var reg 3 1 rd [2:0] $end
$upscope $end
$scope function j_instr $end
$var reg 10 2 imm10 [9:0] $end
$var reg 3 3 rd [2:0] $end
$upscope $end
$scope function l_instr $end
$var reg 7 4 imm7 [6:0] $end
$var reg 3 5 rd [2:0] $end
$var reg 3 6 rs1 [2:0] $end
$upscope $end
$scope function r_instr $end
$var reg 4 7 func [3:0] $end
$var reg 3 8 rd [2:0] $end
$var reg 3 9 rs1 [2:0] $end
$var reg 3 : rs2 [2:0] $end
$upscope $end
$scope function s_instr $end
$var reg 7 ; imm7 [6:0] $end
$var reg 3 < rs1 [2:0] $end
$var reg 3 = rs2 [2:0] $end
$upscope $end
$scope function u_instr $end
$var reg 10 > imm10 [9:0] $end
$var reg 3 ? rd [2:0] $end
$upscope $end
$scope module DUT $end
$var wire 1 ' clk $end
$var wire 16 @ dbg_alu_result [15:0] $end
$var wire 16 A dbg_instr [15:0] $end
$var wire 16 B dbg_pc [15:0] $end
$var wire 16 C dbg_x1 [15:0] $end
$var wire 16 D dbg_x2 [15:0] $end
$var wire 16 E dbg_x3 [15:0] $end
$var wire 1 F flush_ifid $end
$var wire 1 G id_is_jalr $end
$var wire 1 ( reset $end
$var wire 16 H rf_dbg_x1 [15:0] $end
$var wire 16 I rf_dbg_x2 [15:0] $end
$var wire 16 J rf_dbg_x3 [15:0] $end
$var wire 1 K stall $end
$var wire 1 L wb_RegWrite $end
$var wire 3 M wb_rd [2:0] $end
$var wire 16 N wb_WD3 [15:0] $end
$var wire 16 O mem_ReadData [15:0] $end
$var wire 16 P jal_ret_addr [15:0] $end
$var wire 16 Q if_instruction [15:0] $end
$var wire 3 R id_rs2_s [2:0] $end
$var wire 3 S id_rs2_r [2:0] $end
$var wire 3 T id_rs2_b [2:0] $end
$var wire 3 U id_rs2 [2:0] $end
$var wire 3 V id_rs1_s [2:0] $end
$var wire 3 W id_rs1_r [2:0] $end
$var wire 3 X id_rs1_l [2:0] $end
$var wire 3 Y id_rs1_i [2:0] $end
$var wire 3 Z id_rs1_b [2:0] $end
$var wire 3 [ id_rs1 [2:0] $end
$var wire 3 \ id_rd_u [2:0] $end
$var wire 3 ] id_rd_r [2:0] $end
$var wire 3 ^ id_rd_l [2:0] $end
$var wire 3 _ id_rd_j [2:0] $end
$var wire 3 ` id_rd_i [2:0] $end
$var wire 3 a id_rd [2:0] $end
$var wire 3 b id_opcode [2:0] $end
$var wire 1 c id_is_jal $end
$var wire 10 d id_imm_u_raw [9:0] $end
$var wire 16 e id_imm_u [15:0] $end
$var wire 7 f id_imm_s_raw [6:0] $end
$var wire 16 g id_imm_s [15:0] $end
$var wire 7 h id_imm_l_raw [6:0] $end
$var wire 10 i id_imm_j_raw [9:0] $end
$var wire 16 j id_imm_j [15:0] $end
$var wire 6 k id_imm_i_raw [5:0] $end
$var wire 16 l id_imm_i [15:0] $end
$var wire 16 m id_imm_ext [15:0] $end
$var wire 4 n id_imm_b_lo [3:0] $end
$var wire 3 o id_imm_b_hi [2:0] $end
$var wire 16 p id_imm_b [15:0] $end
$var wire 16 q id_imm [15:0] $end
$var wire 4 r id_func [3:0] $end
$var wire 1 s id_ResultSrc $end
$var wire 1 t id_RegWrite $end
$var wire 16 u id_RD2_raw [15:0] $end
$var wire 16 v id_RD1_raw [15:0] $end
$var wire 1 w id_PCSrc_raw $end
$var wire 1 x id_MemWrite $end
$var wire 3 y id_ImmSrc [2:0] $end
$var wire 1 z id_ALUSrc $end
$var wire 4 { id_ALUControl [3:0] $end
$var wire 1 | ex_zero $end
$var wire 16 } ex_jalr_target [15:0] $end
$var wire 16 ~ ex_jalr_sum [15:0] $end
$var wire 16 !" ex_jal_target [15:0] $end
$var wire 16 "" ex_fwd_RD2 [15:0] $end
$var wire 16 #" ex_fwd_RD1 [15:0] $end
$var wire 16 $" ex_branch_target [15:0] $end
$var wire 16 %" ex_ALU_B [15:0] $end
$var wire 16 &" ex_ALUResult [15:0] $end
$var wire 1 '" PC_redirect_en $end
$var wire 16 (" PC_redirect [15:0] $end
$var wire 16 )" PC_plus2 [15:0] $end
$var wire 16 *" PC_next [15:0] $end
$var wire 16 +" PC [15:0] $end
$var reg 4 ," idex_ALUControl [3:0] $end
$var reg 1 -" idex_ALUSrc $end
$var reg 1 ." idex_MemWrite $end
$var reg 16 /" idex_PC [15:0] $end
$var reg 16 0" idex_RD1 [15:0] $end
$var reg 16 1" idex_RD2 [15:0] $end
$var reg 1 2" idex_RegWrite $end
$var reg 1 3" idex_ResultSrc $end
$var reg 4 4" idex_func [3:0] $end
$var reg 16 5" idex_imm [15:0] $end
$var reg 1 6" idex_is_jal $end
$var reg 1 7" idex_is_jalr $end
$var reg 3 8" idex_opcode [2:0] $end
$var reg 3 9" idex_rd [2:0] $end
$var reg 3 :" idex_rs1 [2:0] $end
$var reg 3 ;" idex_rs2 [2:0] $end
$var reg 16 <" ifid_PC [15:0] $end
$var reg 16 =" ifid_instr [15:0] $end
$var reg 16 >" memwb_ALUResult [15:0] $end
$var reg 1 ?" memwb_MemWrite $end
$var reg 16 @" memwb_PC [15:0] $end
$var reg 1 A" memwb_PCSrc $end
$var reg 16 B" memwb_RD2 [15:0] $end
$var reg 1 L memwb_RegWrite $end
$var reg 1 C" memwb_ResultSrc $end
$var reg 16 D" memwb_branch_target [15:0] $end
$var reg 16 E" memwb_instr [15:0] $end
$var reg 1 F" memwb_is_jal $end
$var reg 1 G" memwb_is_jalr $end
$var reg 16 H" memwb_jal_target [15:0] $end
$var reg 16 I" memwb_jalr_target [15:0] $end
$var reg 3 J" memwb_rd [2:0] $end
$scope module ALU_CORE $end
$var wire 4 K" ALU_control [3:0] $end
$var wire 16 L" SrcA [15:0] $end
$var wire 16 M" SrcB [15:0] $end
$var wire 1 | zero $end
$var reg 16 N" ALU_result [15:0] $end
$upscope $end
$scope module CU $end
$var wire 4 O" func [3:0] $end
$var wire 3 P" opcode [2:0] $end
$var wire 1 | zero $end
$var reg 4 Q" ALUControl [3:0] $end
$var reg 1 z ALUSrc $end
$var reg 3 R" ImmSrc [2:0] $end
$var reg 1 x MemWrite $end
$var reg 1 w PCSrc $end
$var reg 1 t RegWrite $end
$var reg 1 s ResultSrc $end
$upscope $end
$scope module DMEM $end
$var wire 1 ' clk $end
$var wire 16 S" mem_access_addr [15:0] $end
$var wire 1 C" mem_read $end
$var wire 16 T" mem_write_data [15:0] $end
$var wire 1 ?" mem_write_en $end
$var wire 16 U" mem_read_data [15:0] $end
$var wire 3 V" addr [2:0] $end
$upscope $end
$scope module IMEM $end
$var wire 1 ' clk $end
$var wire 16 W" word_index [15:0] $end
$var wire 16 X" pc [15:0] $end
$var wire 16 Y" instruction [15:0] $end
$var integer 32 Z" i [31:0] $end
$upscope $end
$scope module PC_REG $end
$var wire 1 ' clk $end
$var wire 1 [" pc_en $end
$var wire 16 \" pc_next [15:0] $end
$var wire 1 ( reset $end
$var reg 16 ]" pc [15:0] $end
$upscope $end
$scope module RF $end
$var wire 3 ^" A1 [2:0] $end
$var wire 3 _" A2 [2:0] $end
$var wire 3 `" A3 [2:0] $end
$var wire 1 L RegWrite $end
$var wire 16 a" WD3 [15:0] $end
$var wire 1 ' clk $end
$var wire 16 b" dbg_x1 [15:0] $end
$var wire 16 c" dbg_x2 [15:0] $end
$var wire 16 d" dbg_x3 [15:0] $end
$var wire 16 e" RD2 [15:0] $end
$var wire 16 f" RD1 [15:0] $end
$var integer 32 g" i [31:0] $end
$upscope $end
$scope module SE $end
$var wire 3 h" ImmSrc [2:0] $end
$var wire 16 i" instr [15:0] $end
$var reg 16 j" ImmExt [15:0] $end
$upscope $end
$upscope $end
$scope task advance $end
$var integer 32 k" i [31:0] $end
$var integer 32 l" n [31:0] $end
$upscope $end
$scope task check $end
$var reg 16 m" expected [15:0] $end
$var reg 16 n" got [15:0] $end
$var reg 256 o" test_name [255:0] $end
$upscope $end
$scope task do_reset $end
$upscope $end
$scope task load_program $end
$upscope $end
$scope task unforce_imem $end
$upscope $end
$upscope $end
$enddefinitions $end
#0
$dumpvars
bx o"
bx n"
bx m"
bx l"
bx k"
b0 j"
b0 i"
b0 h"
b1000 g"
b0 f"
b0 e"
b0 d"
b0 c"
b0 b"
b0 a"
b0 `"
b0 _"
b0 ^"
b0 ]"
b10 \"
1["
b100000000 Z"
b0 Y"
b0 X"
b0 W"
b0 V"
b0 U"
b0 T"
b0 S"
b0 R"
b0 Q"
b0 P"
b0 O"
b0 N"
b0 M"
b0 L"
b0 K"
b0 J"
b0 I"
b0 H"
0G"
0F"
b0 E"
b0 D"
0C"
b0 B"
0A"
b0 @"
0?"
b0 >"
b0 ="
b0 <"
b0 ;"
b0 :"
b0 9"
b0 8"
07"
06"
b0 5"
b0 4"
03"
02"
b0 1"
b0 0"
b0 /"
0."
0-"
b0 ,"
b0 +"
b10 *"
b10 )"
b10 ("
0'"
b0 &"
b0 %"
b0 $"
b0 #"
b0 ""
b0 !"
b0 ~
b0 }
1|
b0 {
0z
b0 y
0x
0w
b0 v
b0 u
1t
0s
b0 r
b0 q
b0 p
b0 o
b0 n
b0 m
b0 l
b0 k
b0 j
b0 i
b0 h
b0 g
b0 f
b0 e
b0 d
0c
b0 b
b0 a
b0 `
b0 _
b0 ^
b0 ]
b0 \
b0 [
b0 Z
b0 Y
b0 X
b0 W
b0 V
b0 U
b0 T
b0 S
b0 R
b0 Q
b10 P
b0 O
b0 N
b0 M
0L
0K
b0 J
b0 I
b0 H
0G
0F
b0 E
b0 D
b0 C
b0 B
b0 A
b0 @
bx ?
bx >
bx =
bx <
bx ;
bx :
bx 9
bx 8
bx 7
bx 6
bx 5
bx 4
bx 3
bx 2
bx 1
bx 0
bx /
bx .
bx -
bx ,
bx +
b0 *
b0 )
1(
0'
b0 &
b0 %
b0 $
b0 #
b0 "
b0 !
$end
#5000
1'
#10000
0'
#15000
1'
#20000
b0 k"
b1 l"
0(
0'
#25000
b100 ("
b100100100000001 Q
b100100100000001 Y"
b1 W"
b100 *"
b100 \"
12"
b100 )"
b10 +"
b10 X"
b10 ]"
b1 k"
1'
#26000
b10 ("
b0 Q
b0 Y"
b0 W"
b10 *"
b10 \"
b10 )"
b0 +"
b0 X"
b0 ]"
02"
1(
b10 *
b0 m"
b0 n"
b110010001100010011001110101111101100001011011000111010101011111011100100110010101110011011101010110110001110100001000000110000101100110011101000110010101110010001000000111001001100101011100110110010101110100 o"
#30000
0'
#35000
1'
#40000
0'
#45000
1'
#50000
b0 k"
b101 l"
0(
0'
#55000
b100 ("
b100100100000001 Q
b100100100000001 Y"
b1 W"
b100 *"
b100 \"
12"
b100 )"
b10 +"
b10 X"
b10 ]"
b1 k"
1'
#60000
0'
#65000
b110 ("
b10 [
b10 ^"
b10 a
b10 m
b10 j"
b10010010000001 Q
b10010010000001 Y"
b10010 q
b1 y
b1 R"
b1 h"
1z
1t
b10010 l
b10 W"
b110 *"
b110 \"
b1 b
b1 P"
b10 W
b10 S
b10 ]
b10010 k
b10 Y
b10 `
b100100 g
b100100 f
b100 V
b100100 h
b100 X
b10 o
b100100 p
b100 n
b100 Z
b100100100000000 e
b100100100 d
b100100100 j
b100100100 i
b110 )"
b100 +"
b100 X"
b100 ]"
b100100100000001 ="
b100100100000001 i"
b10 <"
1L
b10 k"
1'
#70000
0'
#75000
1t
b1 y
b1 R"
b1 h"
1z
b1001 q
b1 [
b1 ^"
b1 a
b1000 ("
0|
b10 &"
b10 N"
b1001 l
b0 Q
b0 Y"
b10 %"
b10 M"
b10 }
b1 W
b1 S
b1 ]
b1001 k
b1 Y
b1 `
b10010 g
b10010 f
b10 V
b10010 h
b10 X
b1 o
b10010 p
b10 n
b10 Z
b10010010000000 e
b10010010 d
b10010010 j
b10010010 i
b1 m
b1 j"
b11 W"
b1000 *"
b1000 \"
b100100100000001 %
b100100100000001 A
b100100100000001 E"
1-"
b1 8"
b10 ~
b10 5"
b10 9"
b10 :"
b110 $"
b110 !"
b10 /"
b10010010000001 ="
b10010010000001 i"
b100 <"
b1000 )"
b110 +"
b110 X"
b110 ]"
b11 k"
1'
#80000
0'
#85000
b1010 ("
b10 N
b10 a"
b11001010011 Q
b11001010011 Y"
b0 [
b0 ^"
b0 a
b0 q
1t
b0 y
b0 R"
b0 h"
0z
b0 l
b1 &"
b1 N"
b100 W"
b1010 *"
b1010 \"
b0 b
b0 P"
b0 W
b0 S
b0 ]
b0 k
b0 Y
b0 `
b0 g
b0 f
b0 V
b0 h
b0 X
b0 o
b0 p
b0 n
b0 Z
b0 e
b0 d
b0 j
b0 i
b0 m
b0 j"
b1 %"
b1 M"
b0 }
b1 V"
b1010 )"
b1000 +"
b1000 X"
b1000 ]"
b0 ="
b0 i"
b110 <"
b1 ~
b1 5"
b1 9"
b1 :"
b110 $"
b110 !"
b100 /"
b10010010000001 %
b10010010000001 A
b10010010000001 E"
b10 I"
b110 H"
b110 D"
b10 M
b10 J"
b10 `"
b10 &
b10 @
b10 >"
b10 S"
b100 P
b10 $
b10 B
b10 @"
b100 k"
1'
#90000
0'
#95000
b1 [
b1 ^"
b10 u
b10 e"
b1 N
b1 a"
b10 U
b10 _"
b11 q
b11 m
b11 j"
b1100 ("
1|
b0 &"
b0 N"
b10 y
b10 R"
b10 h"
1x
1z
0t
b1 l
b0 Q
b0 Y"
b0 V"
b0 %"
b0 M"
b11 b
b11 P"
b1010 r
b1010 O"
b1 S
b100 ]
b1 k
b100 Y
b100 `
b11 g
b11 f
b1 V
b10 R
b11 h
b1 X
b10 ^
b11 p
b11 n
b1 Z
b10 T
b11001000000 e
b11001 d
b10 \
b11001 j
b11001 i
b10 _
b101 W"
b1100 *"
b1100 \"
b10 "
b10 D
b10 I
b10 c"
b0 %
b0 A
b0 E"
b0 I"
b1 M
b1 J"
b1 `"
b1 &
b1 @
b1 >"
b1 S"
b110 P
b100 $
b100 B
b100 @"
0-"
b0 8"
b0 ~
b0 5"
b0 9"
b0 :"
b110 $"
b110 !"
b110 /"
b11001010011 ="
b11001010011 i"
b1000 <"
b1100 )"
b1010 +"
b1010 X"
b1010 ]"
b101 k"
1'
#96000
b10 ("
b0 u
b0 e"
b0 q
1|
b0 &"
b0 N"
b0 %"
b0 M"
b0 N
b0 a"
b0 [
b0 ^"
b0 U
b0 _"
1t
b0 y
b0 R"
b0 h"
0z
0x
b0 l
b0 ~
b0 #"
b0 L"
b0 ""
b0 W"
b10 *"
b10 \"
b0 b
b0 P"
b0 r
b0 O"
b0 S
b0 ]
b0 k
b0 Y
b0 `
b0 g
b0 f
b0 V
b0 R
b0 h
b0 X
b0 ^
b0 p
b0 n
b0 Z
b0 T
b0 e
b0 d
b0 \
b0 j
b0 i
b0 _
b0 m
b0 j"
b10 )"
b0 +"
b0 X"
b0 ]"
b0 ="
b0 i"
b0 <"
02"
b0 $"
b0 !"
b0 /"
0L
b0 H"
b0 D"
b0 M
b0 J"
b0 `"
b0 &
b0 @
b0 >"
b0 S"
b10 P
b0 $
b0 B
b0 @"
1(
b0 n"
b11 )
b1111 m"
b1111000001100110010000001100001011001100111010001100101011100100010000001000001010001000100010001001001001000000011000100110101 o"
#100000
0'
#105000
1'
#110000
0'
#115000
1'
#120000
b0 k"
b111 l"
0(
0'
#125000
b100 ("
b100100100000001 Q
b100100100000001 Y"
b1 W"
b100 *"
b100 \"
12"
b100 )"
b10 +"
b10 X"
b10 ]"
b1 k"
1'
#130000
0'
#135000
b10 v
b10 f"
b110 ("
b10 [
b10 ^"
b10 a
b10 m
b10 j"
b10010010000001 Q
b10010010000001 Y"
b10010 q
b1 y
b1 R"
b1 h"
1z
1t
b10010 l
b10 W"
b110 *"
b110 \"
b1 b
b1 P"
b10 W
b10 S
b10 ]
b10010 k
b10 Y
b10 `
b100100 g
b100100 f
b100 V
b100100 h
b100 X
b10 o
b100100 p
b100 n
b100 Z
b100100100000000 e
b100100100 d
b100100100 j
b100100100 i
b110 )"
b100 +"
b100 X"
b100 ]"
b100100100000001 ="
b100100100000001 i"
b10 <"
1L
b10 k"
1'
#140000
0'
#145000
b0 v
b0 f"
1t
b1 y
b1 R"
b1 h"
1z
b1001 q
b1 [
b1 ^"
b1 a
b1000 ("
0|
b100 &"
b100 N"
b1001 l
b0 Q
b0 Y"
b10 %"
b10 M"
b100 }
b10 #"
b10 L"
b1 W
b1 S
b1 ]
b1001 k
b1 Y
b1 `
b10010 g
b10010 f
b10 V
b10010 h
b10 X
b1 o
b10010 p
b10 n
b10 Z
b10010010000000 e
b10010010 d
b10010010 j
b10010010 i
b1 m
b1 j"
b11 W"
b1000 *"
b1000 \"
b100100100000001 %
b100100100000001 A
b100100100000001 E"
1-"
b1 8"
b100 ~
b10 5"
b10 9"
b10 :"
b10 0"
b110 $"
b110 !"
b10 /"
b10010010000001 ="
b10010010000001 i"
b100 <"
b1000 )"
b110 +"
b110 X"
b110 ]"
b11 k"
1'
#150000
0'
#155000
b1010 ("
b100 N
b100 a"
b11001010011 Q
b11001010011 Y"
b0 [
b0 ^"
b0 a
b0 q
1t
b0 y
b0 R"
b0 h"
0z
b0 l
b1 &"
b1 N"
b100 W"
b1010 *"
b1010 \"
b0 b
b0 P"
b0 W
b0 S
b0 ]
b0 k
b0 Y
b0 `
b0 g
b0 f
b0 V
b0 h
b0 X
b0 o
b0 p
b0 n
b0 Z
b0 e
b0 d
b0 j
b0 i
b0 m
b0 j"
b1 %"
b1 M"
b0 }
b0 #"
b0 L"
b10 V"
b1010 )"
b1000 +"
b1000 X"
b1000 ]"
b0 ="
b0 i"
b110 <"
b1 ~
b1 5"
b1 9"
b1 :"
b0 0"
b110 $"
b110 !"
b100 /"
b10010010000001 %
b10010010000001 A
b10010010000001 E"
b100 I"
b110 H"
b110 D"
b10 M
b10 J"
b10 `"
b100 &
b100 @
b100 >"
b100 S"
b100 P
b10 $
b10 B
b10 @"
b100 k"
1'
#160000
0'
#165000
b1 [
b1 ^"
b100 u
b100 e"
b1 N
b1 a"
b10 U
b10 _"
b11 q
b11 m
b11 j"
b1100 ("
1|
b0 &"
b0 N"
b10 y
b10 R"
b10 h"
1x
1z
0t
b1 l
b0 Q
b0 Y"
b0 V"
b0 %"
b0 M"
b11 b
b11 P"
b1010 r
b1010 O"
b1 S
b100 ]
b1 k
b100 Y
b100 `
b11 g
b11 f
b1 V
b10 R
b11 h
b1 X
b10 ^
b11 p
b11 n
b1 Z
b10 T
b11001000000 e
b11001 d
b10 \
b11001 j
b11001 i
b10 _
b101 W"
b1100 *"
b1100 \"
b100 "
b100 D
b100 I
b100 c"
b0 %
b0 A
b0 E"
b0 I"
b1 M
b1 J"
b1 `"
b1 &
b1 @
b1 >"
b1 S"
b110 P
b100 $
b100 B
b100 @"
0-"
b0 8"
b0 ~
b0 5"
b0 9"
b0 :"
b110 $"
b110 !"
b110 /"
b11001010011 ="
b11001010011 i"
b1000 <"
b1100 )"
b1010 +"
b1010 X"
b1010 ]"
b101 k"
1'
#170000
0'
#175000
b1110 ("
b0 u
b0 e"
b0 q
b0 N
b0 a"
b11001011010 Q
b11001011010 Y"
b0 [
b0 ^"
b0 U
b0 _"
1t
b0 y
b0 R"
b0 h"
0z
0x
b0 l
0|
b11 &"
b11 N"
b0 v
b0 f"
b110 W"
b1110 *"
b1110 \"
b0 b
b0 P"
b0 r
b0 O"
b0 S
b0 ]
b0 k
b0 Y
b0 `
b0 g
b0 f
b0 V
b0 R
b0 h
b0 X
b0 ^
b0 p
b0 n
b0 Z
b0 T
b0 e
b0 d
b0 \
b0 j
b0 i
b0 _
b0 m
b0 j"
b11 %"
b11 M"
b10 }
b100 ""
b1 #
b1 C
b1 H
b1 b"
b1110 )"
b1100 +"
b1100 X"
b1100 ]"
b0 ="
b0 i"
b1010 <"
02"
1-"
1."
b1010 4"
b11 8"
b11 ~
b11 5"
b10 ;"
b1 :"
b100 1"
b1110 $"
b1110 !"
b1000 /"
b11001010011 %
b11001010011 A
b11001010011 E"
b0 M
b0 J"
b0 `"
b0 &
b0 @
b0 >"
b0 S"
b1000 P
b110 $
b110 B
b110 @"
b110 k"
1'
#180000
0'
#185000
b1 v
b1 f"
b1 [
b1 ^"
b11 a
b11 N
b11 a"
b11 m
b11 j"
b10000 ("
1|
b0 &"
b0 N"
b10 y
b10 R"
b10 h"
1s
1z
1t
b1 l
b0 Q
b0 Y"
b1 V"
b0 %"
b0 M"
b0 }
b0 ""
b10 b
b10 P"
b1011 r
b1011 O"
b1 S
b100 ]
b1 k
b100 Y
b100 `
b11 g
b11 f
b1 V
b11 R
b11 h
b1 X
b11 ^
b11 p
b11 n
b1 Z
b11 T
b11001000000 e
b11001 d
b11 \
b11001 j
b11001 i
b11 _
b111 W"
b10000 *"
b10000 \"
b0 %
b0 A
b0 E"
0L
1?"
b10 I"
b1110 H"
b1110 D"
b100 B"
b100 T"
b11 &
b11 @
b11 >"
b11 S"
b1010 P
b1000 $
b1000 B
b1000 @"
12"
0-"
0."
b0 4"
b0 8"
b0 ~
b0 5"
b0 ;"
b0 :"
b0 1"
b1010 $"
b1010 !"
b1010 /"
b11001011010 ="
b11001011010 i"
b1100 <"
b10000 )"
b1110 +"
b1110 X"
b1110 ]"
b111 k"
1'
#186000
b10 ("
b0 v
b0 f"
b0 N
b0 a"
b0 [
b0 ^"
b0 a
1t
b0 y
b0 R"
b0 h"
0z
0s
b0 l
b0 W"
b10 *"
b10 \"
b0 b
b0 P"
b0 r
b0 O"
b0 S
b0 ]
b0 k
b0 Y
b0 `
b0 g
b0 f
b0 V
b0 R
b0 h
b0 X
b0 ^
b0 p
b0 n
b0 Z
b0 T
b0 e
b0 d
b0 \
b0 j
b0 i
b0 _
b0 m
b0 j"
b0 V"
b10 )"
b0 +"
b0 X"
b0 ]"
b0 ="
b0 i"
b0 <"
02"
b0 $"
b0 !"
b0 /"
0?"
b0 I"
b0 H"
b0 D"
b0 B"
b0 T"
b0 &
b0 @
b0 >"
b0 S"
b10 P
b0 $
b0 B
b0 @"
1(
b100 )
b111 m"
b111100000110011001000000011110100100000011110000011000100101011011110000011001000100000001111010010000000110111 o"
#190000
0'
#195000
1'
#200000
0'
#205000
1'
#210000
b0 k"
0(
0'
#215000
b100 ("
b100100100000001 Q
b100100100000001 Y"
b1 W"
b100 *"
b100 \"
12"
b100 )"
b10 +"
b10 X"
b10 ]"
b1 k"
1'
#220000
0'
#225000
b100 v
b100 f"
b110 ("
b10 [
b10 ^"
b10 a
b10 m
b10 j"
b10010010000001 Q
b10010010000001 Y"
b10010 q
b1 y
b1 R"
b1 h"
1z
1t
b10010 l
b10 W"
b110 *"
b110 \"
b1 b
b1 P"
b10 W
b10 S
b10 ]
b10010 k
b10 Y
b10 `
b100100 g
b100100 f
b100 V
b100100 h
b100 X
b10 o
b100100 p
b100 n
b100 Z
b100100100000000 e
b100100100 d
b100100100 j
b100100100 i
b110 )"
b100 +"
b100 X"
b100 ]"
b100100100000001 ="
b100100100000001 i"
b10 <"
1L
b10 k"
1'
#230000
0'
#235000
b1 v
b1 f"
1t
b1 y
b1 R"
b1 h"
1z
b1001 q
b1 [
b1 ^"
b1 a
b1000 ("
0|
b110 &"
b110 N"
b1001 l
b0 Q
b0 Y"
b10 %"
b10 M"
b110 }
b100 #"
b100 L"
b1 W
b1 S
b1 ]
b1001 k
b1 Y
b1 `
b10010 g
b10010 f
b10 V
b10010 h
b10 X
b1 o
b10010 p
b10 n
b10 Z
b10010010000000 e
b10010010 d
b10010010 j
b10010010 i
b1 m
b1 j"
b11 W"
b1000 *"
b1000 \"
b100100100000001 %
b100100100000001 A
b100100100000001 E"
1-"
b1 8"
b110 ~
b10 5"
b10 9"
b10 :"
b100 0"
b110 $"
b110 !"
b10 /"
b10010010000001 ="
b10010010000001 i"
b100 <"
b1000 )"
b110 +"
b110 X"
b110 ]"
b11 k"
1'
#240000
0'
#245000
b1010 ("
b0 v
b0 f"
b110 N
b110 a"
b11001010011 Q
b11001010011 Y"
b0 [
b0 ^"
b0 a
b0 q
1t
b0 y
b0 R"
b0 h"
0z
b0 l
b10 &"
b10 N"
b100 W"
b1010 *"
b1010 \"
b0 b
b0 P"
b0 W
b0 S
b0 ]
b0 k
b0 Y
b0 `
b0 g
b0 f
b0 V
b0 h
b0 X
b0 o
b0 p
b0 n
b0 Z
b0 e
b0 d
b0 j
b0 i
b0 m
b0 j"
b1 %"
b1 M"
b10 }
b1 #"
b1 L"
b11 V"
b1010 )"
b1000 +"
b1000 X"
b1000 ]"
b0 ="
b0 i"
b110 <"
b10 ~
b1 5"
b1 9"
b1 :"
b1 0"
b110 $"
b110 !"
b100 /"
b10010010000001 %
b10010010000001 A
b10010010000001 E"
b110 I"
b110 H"
b110 D"
b10 M
b10 J"
b10 `"
b110 &
b110 @
b110 >"
b110 S"
b100 P
b10 $
b10 B
b10 @"
b100 k"
1'
#250000
0'
#255000
b1 v
b1 f"
b1 [
b1 ^"
b110 u
b110 e"
b10 N
b10 a"
b10 U
b10 _"
b11 q
b11 m
b11 j"
b1100 ("
1|
b0 &"
b0 N"
b10 y
b10 R"
b10 h"
1x
1z
0t
b1 l
b0 Q
b0 Y"
b1 V"
b0 %"
b0 M"
b0 }
b0 #"
b0 L"
b11 b
b11 P"
b1010 r
b1010 O"
b1 S
b100 ]
b1 k
b100 Y
b100 `
b11 g
b11 f
b1 V
b10 R
b11 h
b1 X
b10 ^
b11 p
b11 n
b1 Z
b10 T
b11001000000 e
b11001 d
b10 \
b11001 j
b11001 i
b10 _
b101 W"
b1100 *"
b1100 \"
b110 "
b110 D
b110 I
b110 c"
b0 %
b0 A
b0 E"
b10 I"
b1 M
b1 J"
b1 `"
b10 &
b10 @
b10 >"
b10 S"
b110 P
b100 $
b100 B
b100 @"
0-"
b0 8"
b0 ~
b0 5"
b0 9"
b0 :"
b0 0"
b110 $"
b110 !"
b110 /"
b11001010011 ="
b11001010011 i"
b1000 <"
b1100 )"
b1010 +"
b1010 X"
b1010 ]"
b101 k"
1'
#260000
0'
#265000
b1110 ("
b0 u
b0 e"
b0 q
b0 N
b0 a"
b11001011010 Q
b11001011010 Y"
b0 [
b0 ^"
b0 U
b0 _"
1t
b0 y
b0 R"
b0 h"
0z
0x
b0 l
0|
b100 &"
b100 N"
b0 v
b0 f"
b110 W"
b1110 *"
b1110 \"
b0 b
b0 P"
b0 r
b0 O"
b0 S
b0 ]
b0 k
b0 Y
b0 `
b0 g
b0 f
b0 V
b0 R
b0 h
b0 X
b0 ^
b0 p
b0 n
b0 Z
b0 T
b0 e
b0 d
b0 \
b0 j
b0 i
b0 _
b0 m
b0 j"
b11 %"
b11 M"
b100 }
b110 ""
b1 #"
b1 L"
b0 V"
b10 #
b10 C
b10 H
b10 b"
b1110 )"
b1100 +"
b1100 X"
b1100 ]"
b0 ="
b0 i"
b1010 <"
02"
1-"
1."
b1010 4"
b11 8"
b100 ~
b11 5"
b10 ;"
b1 :"
b110 1"
b1 0"
b1110 $"
b1110 !"
b1000 /"
b11001010011 %
b11001010011 A
b11001010011 E"
b0 I"
b0 M
b0 J"
b0 `"
b0 &
b0 @
b0 >"
b0 S"
b1000 P
b110 $
b110 B
b110 @"
b110 k"
1'
#270000
0'
#275000
b10 v
b10 f"
b1 [
b1 ^"
b11 a
b100 N
b100 a"
b11 m
b11 j"
b10000 ("
1|
b0 &"
b0 N"
b10 y
b10 R"
b10 h"
1s
1z
1t
b1 l
b0 Q
b0 Y"
b10 V"
b0 %"
b0 M"
b0 }
b0 ""
b0 #"
b0 L"
b10 b
b10 P"
b1011 r
b1011 O"
b1 S
b100 ]
b1 k
b100 Y
b100 `
b11 g
b11 f
b1 V
b11 R
b11 h
b1 X
b11 ^
b11 p
b11 n
b1 Z
b11 T
b11001000000 e
b11001 d
b11 \
b11001 j
b11001 i
b11 _
b111 W"
b10000 *"
b10000 \"
b0 %
b0 A
b0 E"
0L
1?"
b100 I"
b1110 H"
b1110 D"
b110 B"
b110 T"
b100 &
b100 @
b100 >"
b100 S"
b1010 P
b1000 $
b1000 B
b1000 @"
12"
0-"
0."
b0 4"
b0 8"
b0 ~
b0 5"
b0 ;"
b0 :"
b0 1"
b0 0"
b1010 $"
b1010 !"
b1010 /"
b11001011010 ="
b11001011010 i"
b1100 <"
b10000 )"
b1110 +"
b1110 X"
b1110 ]"
b111 k"
1'
