riscv-16/riscv16_pipeline_tb.vcd
$date
	Mon Mar 16 14:47:58 2026
$end
$version
	Icarus Verilog
$end
$timescale
	1ps
$end
$scope module riscv16_pipeline_tb $end
$var wire 16 ! dbg_x3 [15:0] $end
$var wire 16 " dbg_x2 [15:0] $end
$var wire 16 # dbg_x1 [15:0] $end
$var wire 16 $ dbg_pc [15:0] $end
$var wire 16 % dbg_instr [15:0] $end
$var wire 16 & dbg_alu_result [15:0] $end
$var reg 1 ' clk $end
$var reg 1 ( reset $end
$var reg 14 ) test_pass [13:0] $end
$var reg 14 * test_seen [13:0] $end
$var integer 32 + fail_count [31:0] $end
$var integer 32 , pass_count [31:0] $end
$scope function b_instr $end
$var reg 5 - imm5 [4:0] $end
$var reg 3 . rs1 [2:0] $end
$var reg 3 / rs2 [2:0] $end
$upscope $end
$scope function i_instr $end
$var reg 4 0 func [3:0] $end
$var reg 6 1 imm6 [5:0] $end
$var reg 3 2 rd [2:0] $end
$upscope $end
$scope function j_instr $end
$var reg 10 3 imm10 [9:0] $end
$var reg 3 4 rd [2:0] $end
$upscope $end
$scope function jr_instr $end
$var reg 7 5 imm7 [6:0] $end
$var reg 3 6 rd [2:0] $end
$var reg 3 7 rs1 [2:0] $end
$upscope $end
$scope function l_instr $end
$var reg 7 8 imm7 [6:0] $end
$var reg 3 9 rd [2:0] $end
$var reg 3 : rs1 [2:0] $end
$upscope $end
$scope function r_instr $end
$var reg 4 ; func [3:0] $end
$var reg 3 < rd [2:0] $end
$var reg 3 = rs1 [2:0] $end
$var reg 3 > rs2 [2:0] $end
$upscope $end
$scope function s_instr $end
$var reg 7 ? imm7 [6:0] $end
$var reg 3 @ rs1 [2:0] $end
$var reg 3 A rs2 [2:0] $end
$upscope $end
$scope function u_instr $end
$var reg 10 B imm10 [9:0] $end
$var reg 3 C rd [2:0] $end
$upscope $end
$scope module DUT $end
$var wire 1 ' clk $end
$var wire 16 D dbg_alu_result [15:0] $end
$var wire 16 E dbg_instr [15:0] $end
$var wire 16 F dbg_pc [15:0] $end
$var wire 16 G dbg_x1 [15:0] $end
$var wire 16 H dbg_x2 [15:0] $end
$var wire 16 I dbg_x3 [15:0] $end
$var wire 1 J flush_ifid $end
$var wire 1 ( reset $end
$var wire 16 K rf_dbg_x1 [15:0] $end
$var wire 16 L rf_dbg_x2 [15:0] $end
$var wire 16 M rf_dbg_x3 [15:0] $end
$var wire 1 N stall $end
$var wire 1 O wb_RegWrite $end
$var wire 3 P wb_rd [2:0] $end
$var wire 16 Q wb_WD3 [15:0] $end
$var wire 16 R memwb_PC_plus2 [15:0] $end
$var wire 16 S mem_ReadData [15:0] $end
$var wire 16 T if_instruction [15:0] $end
$var wire 3 U id_rs2_s [2:0] $end
$var wire 3 V id_rs2_r [2:0] $end
$var wire 3 W id_rs2_b [2:0] $end
$var wire 3 X id_rs2 [2:0] $end
$var wire 3 Y id_rs1_s [2:0] $end
$var wire 3 Z id_rs1_r [2:0] $end
$var wire 3 [ id_rs1_l [2:0] $end
$var wire 3 \ id_rs1_jr [2:0] $end
$var wire 3 ] id_rs1_i [2:0] $end
$var wire 3 ^ id_rs1_b [2:0] $end
$var wire 3 _ id_rs1 [2:0] $end
$var wire 3 ` id_rd_u [2:0] $end
$var wire 3 a id_rd_r [2:0] $end
$var wire 3 b id_rd_l [2:0] $end
$var wire 3 c id_rd_jr [2:0] $end
$var wire 3 d id_rd_j [2:0] $end
$var wire 3 e id_rd_i [2:0] $end
$var wire 3 f id_rd [2:0] $end
$var wire 3 g id_opcode [2:0] $end
$var wire 1 h id_is_jalr $end
$var wire 1 i id_is_jal $end
$var wire 10 j id_imm_u_raw [9:0] $end
$var wire 16 k id_imm_u [15:0] $end
$var wire 7 l id_imm_s_raw [6:0] $end
$var wire 16 m id_imm_s [15:0] $end
$var wire 7 n id_imm_l_raw [6:0] $end
$var wire 7 o id_imm_jr_raw [6:0] $end
$var wire 10 p id_imm_j_raw [9:0] $end
$var wire 16 q id_imm_j [15:0] $end
$var wire 6 r id_imm_i_raw [5:0] $end
$var wire 16 s id_imm_i [15:0] $end
$var wire 16 t id_imm_ext [15:0] $end
$var wire 5 u id_imm_b_raw [4:0] $end
$var wire 16 v id_imm_b [15:0] $end
$var wire 4 w id_func [3:0] $end
$var wire 2 x id_ResultSrc [1:0] $end
$var wire 1 y id_RegWrite $end
$var wire 16 z id_RD2_raw [15:0] $end
$var wire 16 { id_RD1_raw [15:0] $end
$var wire 1 | id_PCSrc $end
$var wire 1 } id_MemWrite $end
$var wire 1 ~ id_MemRead $end
$var wire 3 !" id_ImmSrc [2:0] $end
$var wire 1 "" id_ALUSrc $end
$var wire 4 #" id_ALUControl [3:0] $end
$var wire 1 $" ex_zero $end
$var wire 1 %" ex_negative $end
$var wire 16 &" ex_jalr_target [15:0] $end
$var wire 16 '" ex_jalr_sum [15:0] $end
$var wire 16 (" ex_jal_target [15:0] $end
$var wire 16 )" ex_fwd_RD2 [15:0] $end
$var wire 16 *" ex_fwd_RD1 [15:0] $end
$var wire 16 +" ex_branch_target [15:0] $end
$var wire 16 ," ex_ALU_B [15:0] $end
$var wire 16 -" ex_ALUResult [15:0] $end
$var wire 1 ." PC_redirect_en $end
$var wire 16 /" PC_redirect [15:0] $end
$var wire 16 0" PC_plus2 [15:0] $end
$var wire 16 1" PC_next [15:0] $end
$var wire 16 2" PC [15:0] $end
$var reg 4 3" idex_ALUControl [3:0] $end
$var reg 1 4" idex_ALUSrc $end
$var reg 1 5" idex_MemRead $end
$var reg 1 6" idex_MemWrite $end
$var reg 16 7" idex_PC [15:0] $end
$var reg 16 8" idex_RD1 [15:0] $end
$var reg 16 9" idex_RD2 [15:0] $end
$var reg 1 :" idex_RegWrite $end
$var reg 2 ;" idex_ResultSrc [1:0] $end
$var reg 16 <" idex_imm [15:0] $end
$var reg 1 =" idex_is_jal $end
$var reg 1 >" idex_is_jalr $end
$var reg 3 ?" idex_opcode [2:0] $end
$var reg 3 @" idex_rd [2:0] $end
$var reg 3 A" idex_rs1 [2:0] $end
$var reg 3 B" idex_rs2 [2:0] $end
$var reg 16 C" ifid_PC [15:0] $end
$var reg 16 D" ifid_instr [15:0] $end
$var reg 16 E" memwb_ALUResult [15:0] $end
$var reg 1 F" memwb_MemRead $end
$var reg 1 G" memwb_MemWrite $end
$var reg 16 H" memwb_PC [15:0] $end
$var reg 1 I" memwb_PCSrc $end
$var reg 16 J" memwb_RD2 [15:0] $end
$var reg 1 O memwb_RegWrite $end
$var reg 2 K" memwb_ResultSrc [1:0] $end
$var reg 16 L" memwb_branch_target [15:0] $end
$var reg 16 M" memwb_instr [15:0] $end
$var reg 1 N" memwb_is_jal $end
$var reg 1 O" memwb_is_jalr $end
$var reg 16 P" memwb_jal_target [15:0] $end
$var reg 16 Q" memwb_jalr_target [15:0] $end
$var reg 3 R" memwb_rd [2:0] $end
$scope module ALU_CORE $end
$var wire 4 S" ALU_control [3:0] $end
$var wire 16 T" SrcA [15:0] $end
$var wire 16 U" SrcB [15:0] $end
$var wire 1 $" zero $end
$var wire 1 %" negative $end
$var reg 16 V" ALU_result [15:0] $end
$upscope $end
$scope module CU $end
$var wire 4 W" func [3:0] $end
$var wire 1 %" negative $end
$var wire 3 X" opcode [2:0] $end
$var wire 1 $" zero $end
$var reg 4 Y" ALUControl [3:0] $end
$var reg 1 "" ALUSrc $end
$var reg 3 Z" ImmSrc [2:0] $end
$var reg 1 ~ MemRead $end
$var reg 1 } MemWrite $end
$var reg 1 | PCSrc $end
$var reg 1 y RegWrite $end
$var reg 2 [" ResultSrc [1:0] $end
$upscope $end
$scope module DMEM $end
$var wire 1 ' clk $end
$var wire 16 \" mem_access_addr [15:0] $end
$var wire 1 F" mem_read $end
$var wire 16 ]" mem_write_data [15:0] $end
$var wire 1 G" mem_write_en $end
$var wire 16 ^" mem_read_data [15:0] $end
$var wire 3 _" addr [2:0] $end
$upscope $end
$scope module IMEM $end
$var wire 1 ' clk $end
$var wire 16 `" word_index [15:0] $end
$var wire 16 a" pc [15:0] $end
$var wire 16 b" instruction [15:0] $end
$var integer 32 c" i [31:0] $end
$upscope $end
$scope module PC_REG $end
$var wire 1 ' clk $end
$var wire 1 d" pc_en $end
$var wire 16 e" pc_next [15:0] $end
$var wire 1 ( reset $end
$var reg 16 f" pc [15:0] $end
$upscope $end
$scope module RF $end
$var wire 3 g" A1 [2:0] $end
$var wire 3 h" A2 [2:0] $end
$var wire 3 i" A3 [2:0] $end
$var wire 1 O RegWrite $end
$var wire 1 ' clk $end
$var wire 16 j" dbg_x1 [15:0] $end
$var wire 16 k" dbg_x2 [15:0] $end
$var wire 16 l" dbg_x3 [15:0] $end
$var wire 16 m" WD3 [15:0] $end
$var wire 16 n" RD2 [15:0] $end
$var wire 16 o" RD1 [15:0] $end
$var integer 32 p" i [31:0] $end
$upscope $end
$scope module SE $end
$var wire 3 q" ImmSrc [2:0] $end
$var wire 16 r" instr [15:0] $end
$var reg 16 s" ImmExt [15:0] $end
$upscope $end
$scope module WB_MUX $end
$var wire 16 t" ALUResult [15:0] $end
$var wire 16 u" MemData [15:0] $end
$var wire 2 v" MemtoReg [1:0] $end
$var wire 16 w" PcPlus2 [15:0] $end
$var wire 16 x" WD3 [15:0] $end
$upscope $end
$upscope $end
$scope begin summary_block $end
$var integer 32 y" i [31:0] $end
$upscope $end
$scope task advance $end
$var integer 32 z" k [31:0] $end
$var integer 32 {" n [31:0] $end
$upscope $end
$scope task begin_test $end
$var integer 32 |" tidx [31:0] $end
$upscope $end
$scope task check $end
$var reg 16 }" exp [15:0] $end
$var reg 16 ~" got [15:0] $end
$var reg 240 !# name [239:0] $end
$var integer 32 "# tidx [31:0] $end
$upscope $end
$scope task do_reset $end
$upscope $end
$scope task load_program $end
$var reg 16 ## i0 [15:0] $end
$var reg 16 $# i1 [15:0] $end
$var reg 16 %# i10 [15:0] $end
$var reg 16 &# i11 [15:0] $end
$var reg 16 '# i12 [15:0] $end
$var reg 16 (# i13 [15:0] $end
$var reg 16 )# i14 [15:0] $end
$var reg 16 *# i15 [15:0] $end
$var reg 16 +# i2 [15:0] $end
$var reg 16 ,# i3 [15:0] $end
$var reg 16 -# i4 [15:0] $end
$var reg 16 .# i5 [15:0] $end
$var reg 16 /# i6 [15:0] $end
$var reg 16 0# i7 [15:0] $end
$var reg 16 1# i8 [15:0] $end
$var reg 16 2# i9 [15:0] $end
$var integer 32 3# j [31:0] $end
$upscope $end
$upscope $end
$enddefinitions $end
#0
$dumpvars
bx 3#
bx 2#
bx 1#
bx 0#
bx /#
bx .#
bx -#
bx ,#
bx +#
bx *#
bx )#
bx (#
bx '#
bx &#
bx %#
bx $#
bx ##
bx "#
bx !#
bx ~"
bx }"
bx |"
bx {"
bx z"
bx y"
b0 x"
b10 w"
b0 v"
b0 u"
b0 t"
b0 s"
b0 r"
b0 q"
b1000 p"
b0 o"
b0 n"
b0 m"
b0 l"
b0 k"
b0 j"
b0 i"
b0 h"
b0 g"
b0 f"
b10 e"
1d"
b100000000 c"
b0 b"
b0 a"
b0 `"
b0 _"
b0 ^"
b0 ]"
b0 \"
b0 ["
b0 Z"
b0 Y"
b0 X"
b0 W"
b0 V"
b0 U"
b0 T"
b0 S"
b0 R"
b0 Q"
b0 P"
0O"
0N"
b0 M"
b0 L"
b0 K"
b0 J"
0I"
b0 H"
0G"
0F"
b0 E"
b0 D"
b0 C"
b0 B"
b0 A"
b0 @"
b0 ?"
0>"
0="
b0 <"
b0 ;"
0:"
b0 9"
b0 8"
b0 7"
06"
05"
04"
b0 3"
b0 2"
b10 1"
b10 0"
b10 /"
0."
b0 -"
b0 ,"
b0 +"
b0 *"
b0 )"
b0 ("
b0 '"
b0 &"
0%"
1$"
b0 #"
0""
b0 !"
0~
0}
0|
b0 {
b0 z
1y
b0 x
b0 w
b0 v
b0 u
b0 t
b0 s
b0 r
b0 q
b0 p
b0 o
b0 n
b0 m
b0 l
b0 k
b0 j
0i
0h
b0 g
b0 f
b0 e
b0 d
b0 c
b0 b
b0 a
b0 `
b0 _
b0 ^
b0 ]
b0 \
b0 [
b0 Z
b0 Y
b0 X
b0 W
b0 V
b0 U
b0 T
b0 S
b10 R
b0 Q
b0 P
0O
0N
b0 M
b0 L
b0 K
0J
b0 I
b0 H
b0 G
b0 F
b0 E
b0 D
bx C
bx B
bx A
bx @
bx ?
bx >
bx =
bx <
bx ;
bx :
bx 9
bx 8
bx 7
bx 6
bx 5
bx 4
bx 3
bx 2
bx 1
bx 0
bx /
bx .
bx -
b0 ,
b0 +
b0 *
b11111111111110 )
1(
0'
b0 &
b0 %
b0 $
b0 #
b0 "
b0 !
$end
#5000
1'
#10000
0'
#15000
1'
#20000
b0 z"
b1 {"
b1 |"
0(
0'
#25000
b100 /"
b100100100000001 T
b100100100000001 b"
b1 `"
b100 1"
b100 e"
1:"
b100 0"
b10 2"
b10 a"
b10 f"
b1 z"
1'
#26000
b10 /"
b0 `"
b10 1"
b10 e"
b10 0"
b0 2"
b0 a"
b0 f"
0:"
b1010010000001 T
b1010010000001 b"
1(
b100000000 3#
b0 *#
b0 )#
b0 (#
b0 '#
b0 &#
b0 %#
b0 2#
b0 1#
b0 0#
b0 /#
b0 .#
b0 -#
b0 ,#
b11110110000001 +#
b10100100000001 $#
b1010010000001 ##
b1111 1
b11 2
b0 0
b10 |"
b10 ,
b10 *
b0 }"
b0 ~"
b1100001011011000111010101011111011100100110010101110011011101010110110001110100001000000110000101100110011101000110010101110010001000000111001001100101011100110110010101110100 !#
b1 "#
#30000
0'
#35000
1'
#40000
0'
#45000
1'
#50000
b0 z"
b110 {"
0(
0'
#55000
b1 f
b100 /"
b1 _
b1 g"
b1 !"
b1 Z"
b1 q"
1""
1y
b1111111111000101 s
b10100100000001 T
b10100100000001 b"
b1 g
b1 X"
b101 V
b1 a
b101 r
b1 ]
b1 e
b1010 m
b1010 l
b10 Y
b1010 n
b10 [
b10 v
b10 u
b100 ^
b100 W
b1010010000000 k
b1010010 j
b1010010 q
b1010010 p
b1010 o
b100 \
b1 `"
b100 1"
b100 e"
1:"
b1010010000001 D"
b1010010000001 r"
b100 0"
b10 2"
b10 a"
b10 f"
b1 z"
1'
#60000
0'
#65000
b110 /"
b10 _
b10 g"
b10 f
b11110110000001 T
b11110110000001 b"
b1010 s
b10 `"
b110 1"
b110 e"
b1 Z
b10 V
b10 a
b1010 r
b10 ]
b10 e
b10100 m
b10100 l
b100 Y
b10100 n
b100 [
b101 v
b101 u
b1 ^
b0 W
b10100100000000 k
b10100100 j
b10100100 q
b10100100 p
b10100 o
b0 \
b1 t
b1 s"
b110 0"
b100 2"
b100 a"
b100 f"
b10100100000001 D"
b10100100000001 r"
b10 C"
14"
b1 ?"
b1 @"
b1 A"
b1010010000001 %
b1010010000001 E
b1010010000001 M"
1O
b10 z"
1'
#70000
0'
#75000
1y
b1 !"
b1 Z"
b1 q"
1""
b11 _
b11 g"
b11 f
b1000 /"
0$"
b1 -"
b1 V"
b1111111111001111 s
b0 T
b0 b"
b1 ,"
b1 U"
b111 V
b11 a
b1111 r
b11 ]
b11 e
b11110 m
b11110 l
b110 Y
b11110 n
b110 [
b111 v
b111 u
b101 ^
b100 W
b11110110000000 k
b11110110 j
b11110110 q
b11110110 p
b11110 o
b100 \
b11 `"
b1000 1"
b1000 e"
b10100100000001 %
b10100100000001 E
b10100100000001 M"
b1 P
b1 R"
b1 i"
b1 '"
b1 <"
b10 @"
b10 A"
b100 +"
b100 ("
b10 7"
b11110110000001 D"
b11110110000001 r"
b100 C"
b1000 0"
b110 2"
b110 a"
b110 f"
b11 z"
1'
#80000
0'
#85000
b1010 /"
b0 _
b0 g"
b0 f
1y
b0 !"
b0 Z"
b0 q"
0""
b0 s
b100 `"
b1010 1"
b1010 e"
b0 g
b0 X"
b0 Z
b0 V
b0 a
b0 r
b0 ]
b0 e
b0 m
b0 l
b0 Y
b0 n
b0 [
b0 v
b0 u
b0 ^
b0 W
b0 k
b0 j
b0 q
b0 p
b0 o
b0 \
b0 t
b0 s"
b1 Q
b1 m"
b1 x"
b1010 0"
b1000 2"
b1000 a"
b1000 f"
b0 D"
b0 r"
b110 C"
b11 @"
b11 A"
b110 +"
b110 ("
b100 7"
b11110110000001 %
b11110110000001 E
b11110110000001 M"
b100 P"
b100 L"
b10 P
b10 R"
b10 i"
b1 &
b1 D
b1 E"
b1 \"
b1 t"
b100 R
b100 w"
b10 $
b10 F
b10 H"
b100 z"
1'
#90000
0'
#95000
1y
b1100 /"
1$"
b0 -"
b0 V"
b0 ,"
b0 U"
b101 `"
b1100 1"
b1100 e"
b1 "
b1 H
b1 L
b1 k"
b0 %
b0 E
b0 M"
b110 P"
b110 L"
b11 P
b11 R"
b11 i"
b110 R
b110 w"
b100 $
b100 F
b100 H"
04"
b0 ?"
b0 '"
b0 <"
b0 @"
b0 A"
b110 +"
b110 ("
b110 7"
b1000 C"
b1100 0"
b1010 2"
b1010 a"
b1010 f"
b101 z"
1'
#100000
0'
#105000
b1110 /"
b110 `"
b1110 1"
b1110 e"
b0 Q
b0 m"
b0 x"
b1 !
b1 I
b1 M
b1 l"
b1110 0"
b1100 2"
b1100 a"
b1100 f"
b1010 C"
b1000 +"
b1000 ("
b1000 7"
b0 P
b0 R"
b0 i"
b0 &
b0 D
b0 E"
b0 \"
b0 t"
b1000 R
b1000 w"
b110 $
b110 F
b110 H"
b110 z"
1'
#106000
b10 /"
b110010000001 T
b110010000001 b"
b0 `"
b10 1"
b10 e"
0O
b0 P"
b0 L"
b10 R
b10 w"
b0 $
b0 F
b0 H"
0:"
b0 +"
b0 ("
b0 7"
b0 C"
b10 0"
b0 2"
b0 a"
b0 f"
1(
b100000000 3#
b10100110000000 ,#
b1 =
b10 >
b11 <
b0 ;
b0 +#
b1000100000001 $#
b110010000001 ##
b100 1
b10 2
b11 |"
b1 ~"
b11111111111010 )
b11 +
b110 *
b1111 }"
b11110000011001100111101001100010011010100100000001010000100000101000100010001000100100100101001 !#
b10 "#
#110000
0'
#115000
1'
#120000
0'
#125000
1'
#130000
b0 z"
b1000 {"
0(
0'
#135000
b100 /"
b1 f
b1000100000001 T
b1000100000001 b"
b1 _
b1 g"
b1 !"
b1 Z"
b1 q"
1""
1y
b11 s
b1 `"
b100 1"
b100 e"
b1 g
b1 X"
b11 V
b1 a
b11 r
b1 ]
b1 e
b110 m
b110 l
b10 Y
b110 n
b10 [
b1 v
b1 u
b100 ^
b100 W
b110010000000 k
b110010 j
b110010 q
b110010 p
b110 o
b100 \
b100 0"
b10 2"
b10 a"
b10 f"
b110010000001 D"
b110010000001 r"
1:"
b1 z"
1'
#140000
0'
#145000
b1 {
b1 o"
b10 _
b10 g"
b10 f
b110 /"
b1111111111000100 s
b0 T
b0 b"
b100 V
b10 a
b100 r
b10 ]
b10 e
b1000 m
b1000 l
b100 Y
b1000 n
b100 [
b10 v
b10 u
b1 ^
b0 W
b1000100000000 k
b1000100 j
b1000100 q
b1000100 p
b1000 o
b0 \
b10 `"
b110 1"
b110 e"
b110010000001 %
b110010000001 E
b110010000001 M"
1O
14"
b1 ?"
b1 @"
b1 A"
b1000100000001 D"
b1000100000001 r"
b10 C"
b110 0"
b100 2"
b100 a"
b100 f"
b10 z"
1'
#150000
0'
#155000
b1000 /"
b0 {
b0 o"
b10100110000000 T
b10100110000000 b"
b0 _
b0 g"
b0 f
1y
b0 !"
b0 Z"
b0 q"
0""
b0 s
0$"
b1 -"
b1 V"
b11 `"
b1000 1"
b1000 e"
b0 g
b0 X"
b0 V
b0 a
b0 r
b0 ]
b0 e
b0 m
b0 l
b0 Y
b0 n
b0 [
b0 v
b0 u
b0 ^
b0 k
b0 j
b0 q
b0 p
b0 o
b1 '"
b1 *"
b1 T"
b1000 0"
b110 2"
b110 a"
b110 f"
b0 D"
b0 r"
b100 C"
b10 @"
b10 A"
b1 8"
b10 +"
b10 ("
b10 7"
b1000100000001 %
b1000100000001 E
b1000100000001 M"
b1 P
b1 R"
b1 i"
b11 z"
1'
#160000
0'
#165000
1y
b1 z
b1 n"
b1010 /"
1$"
b0 -"
b0 V"
b1 _
b1 g"
b10 X
b10 h"
b11 f
b1010 s
b0 T
b0 b"
b1 Q
b1 m"
b1 x"
b0 '"
b0 *"
b0 T"
b1 Z
b10 V
b11 a
b1010 r
b11 ]
b11 e
b10100 m
b10100 l
b110 Y
b10100 n
b110 [
b101 v
b101 u
b1 ^
b100 W
b10100110000000 k
b10100110 j
b10100110 q
b10100110 p
b10100 o
b100 \
b100 `"
b1010 1"
b1010 e"
b0 %
b0 E
b0 M"
b10 P"
b10 L"
b10 P
b10 R"
b10 i"
b1 &
b1 D
b1 E"
b1 \"
b1 t"
b100 R
b100 w"
b10 $
b10 F
b10 H"
04"
b0 ?"
b0 @"
b0 A"
b0 8"
b100 +"
b100 ("
b100 7"
b10100110000000 D"
b10100110000000 r"
b110 C"
b1010 0"
b1000 2"
b1000 a"
b1000 f"
b100 z"
1'
#170000
0'
#175000
1y
b1100 /"
b0 z
b0 n"
0$"
b1 -"
b1 V"
b0 _
b0 g"
b0 X
b0 h"
b0 f
b0 s
b1 ,"
b1 U"
b101 `"
b1100 1"
b1100 e"
b0 Z
b0 V
b0 a
b0 r
b0 ]
b0 e
b0 m
b0 l
b0 Y
b0 n
b0 [
b0 v
b0 u
b0 ^
b0 W
b0 k
b0 j
b0 q
b0 p
b0 o
b0 \
b1 )"
b0 Q
b0 m"
b0 x"
b1100 0"
b1010 2"
b1010 a"
b1010 f"
b0 D"
b0 r"
b1000 C"
b11 @"
b10 B"
b1 A"
b1 9"
b110 +"
b110 ("
b110 7"
b10100110000000 %
b10100110000000 E
b10100110000000 M"
b100 P"
b100 L"
b0 P
b0 R"
b0 i"
b0 &
b0 D
b0 E"
b0 \"
b0 t"
b110 R
b110 w"
b100 $
b100 F
b100 H"
b101 z"
1'
#180000
0'
#185000
1y
1$"
b0 -"
b0 V"
b1110 /"
b0 ,"
b0 U"
b1 Q
b1 m"
b1 x"
b0 )"
b110 `"
b1110 1"
b1110 e"
b0 %
b0 E
b0 M"
b110 P"
b110 L"
b11 P
b11 R"
b11 i"
b1 J"
b1 ]"
b1 &
b1 D
b1 E"
b1 \"
b1 t"
b1000 R
b1000 w"
b110 $
b110 F
b110 H"
b0 @"
b0 B"
b0 A"
b0 9"
b1000 +"
b1000 ("
b1000 7"
b1010 C"
b1110 0"
b1100 2"
b1100 a"
b1100 f"
b110 z"
1'
#190000
0'
#195000
b10000 /"
b111 `"
b10000 1"
b10000 e"
b0 Q
b0 m"
b0 x"
b10000 0"
b1110 2"
b1110 a"
b1110 f"
b1100 C"
b1010 +"
b1010 ("
b1010 7"
b1000 P"
b1000 L"
b0 P
b0 R"
b0 i"
b0 J"
b0 ]"
b0 &
b0 D
b0 E"
b0 \"
b0 t"
b1010 R
b1010 w"
b1000 $
b1000 F
b1000 H"
b111 z"
1'
#200000
0'
#205000
b10010 /"
b1000 `"
b10010 1"
b10010 e"
b1010 P"
b1010 L"
b1100 R
b1100 w"
b1010 $
b1010 F
b1010 H"
b1100 +"
b1100 ("
b1100 7"
b1110 C"
b10010 0"
b10000 2"
b10000 a"
b10000 f"
b1000 z"
1'
#206000
b10 /"
b10100010000001 T
b10100010000001 b"
b0 `"
b10 1"
b10 e"
b10 0"
b0 2"
b0 a"
b0 f"
b0 C"
0:"
b0 +"
b0 ("
b0 7"
0O
b0 P"
b0 L"
b10 R
b10 w"
b0 $
b0 F
b0 H"
1(
b100000000 3#
b10100110001000 ,#
b1 ;
b110100000001 $#
b10100010000001 ##
b11 1
b10 2
b100 |"
b11111111110010 )
b100 +
b1110 *
b111 }"
b1111000001100110011110100110111001000000010100001000001010001000100010000101001 !#
b11 "#
#210000
0'
#215000
1'
#220000
0'
#225000
1'
#230000
b0 z"
0(
0'
#235000
b1 _
b1 g"
b1 f
b1 t
b1 s"
b100 /"
b1 !"
b1 Z"
b1 q"
1""
1y
b1010 s
b110100000001 T
b110100000001 b"
b1 g
b1 X"
b1 Z
b10 V
b1 a
b1010 r
b1 ]
b1 e
b10100 m
b10100 l
b10 Y
b10100 n
b10 [
b101 v
b101 u
b100 W
b10100010000000 k
b10100010 j
b10100010 q
b10100010 p
b10100 o
b100 \
b1 `"
b100 1"
b100 e"
1:"
b10100010000001 D"
b10100010000001 r"
b100 0"
b10 2"
b10 a"
b10 f"
b1 z"
1'
#240000
0'
#245000
b1 {
b1 o"
b110 /"
b10 _
b10 g"
b10 f
1y
b1 !"
b1 Z"
b1 q"
1""
b0 T
b0 b"
b11 s
0$"
b1 -"
b1 V"
b10 `"
b110 1"
b110 e"
b0 Z
b11 V
b10 a
b11 r
b10 ]
b10 e
b110 m
b110 l
b100 Y
b110 n
b100 [
b1 v
b1 u
b101 ^
b0 W
b110100000000 k
b110100 j
b110100 q
b110100 p
b110 o
b0 \
b0 t
b0 s"
b1 ,"
b1 U"
b10 +"
b10 ("
b110 0"
b100 2"
b100 a"
b100 f"
b110100000001 D"
b110100000001 r"
b10 C"
14"
b1 ?"
b1 '"
b1 <"
b1 @"
b1 A"
b10100010000001 %
b10100010000001 E
b10100010000001 M"
1O
b10 z"
1'
#250000
0'
#255000
b0 {
b0 o"
b1000 /"
b0 _
b0 g"
b0 f
1y
b0 !"
b0 Z"
b0 q"
0""
b0 s
b10100110001000 T
b10100110001000 b"
b1 Q
b1 m"
b1 x"
b0 ,"
b0 U"
b1 *"
b1 T"
b0 g
b0 X"
b0 V
b0 a
b0 r
b0 ]
b0 e
b0 m
b0 l
b0 Y
b0 n
b0 [
b0 v
b0 u
b0 ^
b0 k
b0 j
b0 q
b0 p
b0 o
b11 `"
b1000 1"
b1000 e"
b110100000001 %
b110100000001 E
b110100000001 M"
b10 P"
b10 L"
b1 P
b1 R"
b1 i"
b1 &
b1 D
b1 E"
b1 \"
b1 t"
b1 '"
b0 <"
b10 @"
b10 A"
b1 8"
b10 +"
b10 ("
b10 7"
b0 D"
b0 r"
b100 C"
b1000 0"
b110 2"
b110 a"
b110 f"
b11 z"
1'
#260000
0'
#265000
b1010 /"
b1 {
b1 o"
b1 z
b1 n"
b0 T
b0 b"
b1 #"
b1 Y"
1y
b1 _
b1 g"
b10 X
b10 h"
b11 f
b1010 s
1$"
b0 -"
b0 V"
b100 `"
b1010 1"
b1010 e"
b1 w
b1 W"
b1 Z
b10 V
b11 a
b1010 r
b11 ]
b11 e
b10100 m
b10100 l
b110 Y
b1 U
b10100 n
b110 [
b1 b
b101 v
b101 u
b1 ^
b100 W
b10100110000000 k
b10100110 j
b1 `
b10100110 q
b10100110 p
b1 d
b10100 o
b100 \
b1 c
b0 '"
b0 *"
b0 T"
b1 #
b1 G
b1 K
b1 j"
b1010 0"
b1000 2"
b1000 a"
b1000 f"
b10100110001000 D"
b10100110001000 r"
b110 C"
04"
b0 ?"
b0 @"
b0 A"
b0 8"
b100 +"
b100 ("
b100 7"
b0 %
b0 E
b0 M"
b10 P
b10 R"
b10 i"
b100 R
b100 w"
b10 $
b10 F
b10 H"
b100 z"
1'
#270000
0'
#275000
b0 {
b0 o"
b0 z
b0 n"
b1100 /"
b1 ,"
b1 U"
1y
b0 #"
b0 Y"
b0 _
b0 g"
b0 X
b0 h"
b0 f
b0 s
b0 Q
b0 m"
b0 x"
1$"
b0 -"
b0 V"
b1 )"
b1 '"
b1 *"
b1 T"
b0 w
b0 W"
b0 Z
b0 V
b0 a
b0 r
b0 ]
b0 e
b0 m
b0 l
b0 Y
b0 U
b0 n
b0 [
b0 b
b0 v
b0 u
b0 ^
b0 W
b0 k
b0 j
b0 `
b0 q
b0 p
b0 d
b0 o
b0 \
b0 c
b101 `"
b1100 1"
b1100 e"
b10100110001000 %
b10100110001000 E
b10100110001000 M"
b100 P"
b100 L"
b0 P
b0 R"
b0 i"
b0 &
b0 D
b0 E"
b0 \"
b0 t"
b110 R
b110 w"
b100 $
b100 F
b100 H"
b1 3"
b1 S"
b11 @"
b10 B"
b1 A"
b1 9"
b1 8"
b110 +"
b110 ("
b110 7"
b0 D"
b0 r"
b1000 C"
b1100 0"
b1010 2"
b1010 a"
b1010 f"
b101 z"
1'
#280000
0'
#285000
b1110 /"
1y
b0 ,"
b0 U"
b110 `"
b1110 1"
b1110 e"
1$"
b0 -"
b0 V"
b0 )"
b0 '"
b0 *"
b0 T"
b1110 0"
b1100 2"
b1100 a"
b1100 f"
b1010 C"
b0 3"
b0 S"
b0 @"
b0 B"
b0 A"
b0 9"
b0 8"
b1000 +"
b1000 ("
b1000 7"
b0 %
b0 E
b0 M"
b110 P"
b110 L"
b11 P
b11 R"
b11 i"
b1 J"
b1 ]"
b1000 R
b1000 w"
b110 $
b110 F
b110 H"
b110 z"
1'
#290000
0'
#295000
b10000 /"
b111 `"
b10000 1"
b10000 e"
b0 !
b0 I
b0 M
b0 l"
b1000 P"
b1000 L"
b0 P
b0 R"
b0 i"
b0 J"
b0 ]"
b1010 R
b1010 w"
b1000 $
b1000 F
b1000 H"
b1010 +"
b1010 ("
b1010 7"
b1100 C"
b10000 0"
b1110 2"
b1110 a"
b1110 f"
b111 z"
1'
#300000
0'
#305000
b10010 /"
b1000 `"
b10010 1"
b10010 e"
b10010 0"
b10000 2"
b10000 a"
b10000 f"
b1110 C"
b1100 +"
b1100 ("
b1100 7"
b1010 P"
b1010 L"
b1100 R
b1100 w"
b1010 $
b1010 F
b1010 H"
b1000 z"
1'
