riscv-16/riscv16_pipeline_tb.vcd
$date
	Mon Mar 23 08:50:16 2026
$end
$version
	Icarus Verilog
$end
$timescale
	1ps
$end
$scope module riscv16_top_tb $end
$var wire 16 ! dbg_x3 [15:0] $end
$var wire 16 " dbg_x2 [15:0] $end
$var wire 16 # dbg_x1 [15:0] $end
$var wire 16 $ dbg_pc [15:0] $end
$var wire 16 % dbg_instr [15:0] $end
$var wire 16 & dbg_alu_result [15:0] $end
$var reg 1 ' clk $end
$var reg 1 ( reset $end
$var integer 32 ) cycle_count [31:0] $end
$var integer 32 * errors [31:0] $end
$var integer 32 + test_num [31:0] $end
$scope function decode_opcode $end
$var reg 3 , opcode [2:0] $end
$upscope $end
$scope module DUT $end
$var wire 1 ' clk $end
$var wire 16 - dbg_alu_result [15:0] $end
$var wire 16 . dbg_instr [15:0] $end
$var wire 16 / dbg_pc [15:0] $end
$var wire 16 0 dbg_x1 [15:0] $end
$var wire 16 1 dbg_x2 [15:0] $end
$var wire 16 2 dbg_x3 [15:0] $end
$var wire 1 3 flush_IF_ID $end
$var wire 1 4 forward_A $end
$var wire 1 5 forward_B $end
$var wire 1 ( reset $end
$var wire 16 6 rf_dbg_x1 [15:0] $end
$var wire 16 7 rf_dbg_x2 [15:0] $end
$var wire 16 8 rf_dbg_x3 [15:0] $end
$var wire 1 9 stall $end
$var wire 1 : zero $end
$var wire 3 ; rs2_s [2:0] $end
$var wire 3 < rs2_r [2:0] $end
$var wire 3 = rs2_b [2:0] $end
$var wire 3 > rs2 [2:0] $end
$var wire 3 ? rs1_s [2:0] $end
$var wire 3 @ rs1_r [2:0] $end
$var wire 3 A rs1_l [2:0] $end
$var wire 3 B rs1_jr [2:0] $end
$var wire 3 C rs1_i [2:0] $end
$var wire 3 D rs1_b [2:0] $end
$var wire 3 E rs1 [2:0] $end
$var wire 3 F rd_u [2:0] $end
$var wire 3 G rd_r [2:0] $end
$var wire 3 H rd_l [2:0] $end
$var wire 3 I rd_jr [2:0] $end
$var wire 3 J rd_j [2:0] $end
$var wire 3 K rd_i [2:0] $end
$var wire 3 L rd [2:0] $end
$var wire 3 M opcode [2:0] $end
$var wire 1 N negative $end
$var wire 16 O jalr_target [15:0] $end
$var wire 1 P jalr_taken $end
$var wire 16 Q jalr_sum [15:0] $end
$var wire 16 R jal_target [15:0] $end
$var wire 1 S jal_taken $end
$var wire 16 T instruction_IF [15:0] $end
$var wire 16 U instruction [15:0] $end
$var wire 16 V imm_j [15:0] $end
$var wire 16 W imm_ext [15:0] $end
$var wire 16 X imm_b [15:0] $end
$var wire 4 Y func [3:0] $end
$var wire 16 Z branch_target [15:0] $end
$var wire 16 [ WD3 [15:0] $end
$var wire 2 \ ResultSrc [1:0] $end
$var wire 1 ] RegWrite_gated $end
$var wire 1 ^ RegWrite $end
$var wire 16 _ ReadData [15:0] $end
$var wire 16 ` RD2_forwarded [15:0] $end
$var wire 16 a RD2 [15:0] $end
$var wire 16 b RD1_forwarded [15:0] $end
$var wire 16 c RD1 [15:0] $end
$var wire 16 d PC_plus2 [15:0] $end
$var wire 16 e PC_next [15:0] $end
$var wire 1 f PCSrc $end
$var wire 16 g PC [15:0] $end
$var wire 1 h MemWrite_gated $end
$var wire 1 i MemWrite $end
$var wire 1 j MemRead_gated $end
$var wire 1 k MemRead $end
$var wire 3 l ImmSrc [2:0] $end
$var wire 16 m ForwardData [15:0] $end
$var wire 16 n ALU_B [15:0] $end
$var wire 1 o ALUSrc $end
$var wire 16 p ALUResult [15:0] $end
$var wire 4 q ALUControl [3:0] $end
$var reg 16 r ALUResult_ID_EX [15:0] $end
$var reg 16 s ALUResult_MEM_WB [15:0] $end
$var reg 1 t MemRead_ID_EX $end
$var reg 1 u MemRead_MEM_WB $end
$var reg 1 v MemWrite_ID_EX $end
$var reg 16 w PC_IF_ID [15:0] $end
$var reg 16 x PC_plus2_ID_EX [15:0] $end
$var reg 16 y PC_plus2_IF_ID [15:0] $end
$var reg 16 z PC_plus2_MEM_WB [15:0] $end
$var reg 16 { RD2_ID_EX [15:0] $end
$var reg 16 | ReadData_MEM_WB [15:0] $end
$var reg 1 } RegWrite_ID_EX $end
$var reg 1 ~ RegWrite_MEM_WB $end
$var reg 2 !" ResultSrc_ID_EX [1:0] $end
$var reg 2 "" ResultSrc_MEM_WB [1:0] $end
$var reg 16 #" instruction_IF_ID [15:0] $end
$var reg 3 $" rd_ID_EX [2:0] $end
$var reg 3 %" rd_MEM_WB [2:0] $end
$scope module ALU_CORE $end
$var wire 16 &" SrcA [15:0] $end
$var wire 1 : zero $end
$var wire 1 N negative $end
$var wire 16 '" SrcB [15:0] $end
$var wire 4 (" ALU_control [3:0] $end
$var reg 16 )" ALU_result [15:0] $end
$upscope $end
$scope module CU $end
$var wire 4 *" func [3:0] $end
$var wire 1 N negative $end
$var wire 3 +" opcode [2:0] $end
$var wire 1 : zero $end
$var reg 4 ," ALUControl [3:0] $end
$var reg 1 o ALUSrc $end
$var reg 3 -" ImmSrc [2:0] $end
$var reg 1 k MemRead $end
$var reg 1 i MemWrite $end
$var reg 1 f PCSrc $end
$var reg 1 ^ RegWrite $end
$var reg 2 ." ResultSrc [1:0] $end
$upscope $end
$scope module DMEM $end
$var wire 1 ' clk $end
$var wire 16 /" mem_access_addr [15:0] $end
$var wire 1 t mem_read $end
$var wire 16 0" mem_write_data [15:0] $end
$var wire 1 v mem_write_en $end
$var wire 16 1" mem_read_data [15:0] $end
$var wire 3 2" addr [2:0] $end
$upscope $end
$scope module IMEM $end
$var wire 1 ' clk $end
$var wire 16 3" word_index [15:0] $end
$var wire 16 4" pc [15:0] $end
$var wire 16 5" instruction [15:0] $end
$var integer 32 6" i [31:0] $end
$upscope $end
$scope module PC_REG $end
$var wire 1 ' clk $end
$var wire 1 7" pc_en $end
$var wire 16 8" pc_next [15:0] $end
$var wire 1 ( reset $end
$var reg 16 9" pc [15:0] $end
$upscope $end
$scope module RD_2 $end
$var wire 1 o ALUSrc $end
$var wire 16 :" RD2 [15:0] $end
$var wire 16 ;" SrcB [15:0] $end
$var wire 16 <" ImmExt [15:0] $end
$upscope $end
$scope module RF $end
$var wire 3 =" A1 [2:0] $end
$var wire 3 >" A2 [2:0] $end
$var wire 3 ?" A3 [2:0] $end
$var wire 1 ~ RegWrite $end
$var wire 1 ' clk $end
$var wire 16 @" dbg_x1 [15:0] $end
$var wire 16 A" dbg_x2 [15:0] $end
$var wire 16 B" dbg_x3 [15:0] $end
$var wire 16 C" WD3 [15:0] $end
$var wire 16 D" RD2 [15:0] $end
$var wire 16 E" RD1 [15:0] $end
$var integer 32 F" i [31:0] $end
$upscope $end
$scope module SE $end
$var wire 3 G" ImmSrc [2:0] $end
$var wire 16 H" instr [15:0] $end
$var reg 16 I" ImmExt [15:0] $end
$upscope $end
$scope module WB_MUX $end
$var wire 16 J" ALUResult [15:0] $end
$var wire 16 K" MemData [15:0] $end
$var wire 2 L" MemtoReg [1:0] $end
$var wire 16 M" PcPlus2 [15:0] $end
$var wire 16 N" WD3 [15:0] $end
$upscope $end
$upscope $end
$scope task display_state $end
$upscope $end
$upscope $end
$enddefinitions $end
#0
$dumpvars
b0 N"
b0 M"
b0 L"
b0 K"
b0 J"
b0 I"
b0 H"
b0 G"
b1000 F"
b0 E"
b0 D"
b0 C"
b0 B"
b0 A"
b0 @"
b0 ?"
b0 >"
b0 ="
b0 <"
b0 ;"
b0 :"
b0 9"
b10 8"
17"
b100000000 6"
b0 5"
b0 4"
b0 3"
b0 2"
b0 1"
b0 0"
b0 /"
b0 ."
b0 -"
b0 ,"
b0 +"
b0 *"
b0 )"
b0 ("
b0 '"
b0 &"
b0 %"
b0 $"
b0 #"
b0 ""
b0 !"
0~
0}
b0 |
b0 {
b0 z
b0 y
b0 x
b0 w
0v
0u
0t
b0 s
b0 r
b0 q
b0 p
0o
b0 n
b0 m
b0 l
0k
0j
0i
0h
b0 g
0f
b10 e
b10 d
b0 c
b0 b
b0 a
b0 `
b0 _
1^
1]
b0 \
b0 [
b0 Z
b0 Y
b0 X
b0 W
b0 V
b0 U
b0 T
0S
b0 R
b0 Q
0P
b0 O
0N
b0 M
b0 L
b0 K
b0 J
b0 I
b0 H
b0 G
b0 F
b0 E
b0 D
b0 C
b0 B
b0 A
b0 @
b0 ?
b0 >
b0 =
b0 <
b0 ;
1:
09
b0 8
b0 7
b0 6
05
04
03
b0 2
b0 1
b0 0
b0 /
b0 .
b0 -
bx ,
b0 +
b0 *
b0 )
1(
0'
b0 &
b0 %
b0 $
b0 #
b0 "
b0 !
$end
#5000
1'
#10000
0'
#15000
1'
#20000
0'
#25000
1'
#30000
0'
#35000
1'
#40000
0'
#45000
1'
#50000
0'
0(
#55000
b100 e
b100 8"
b100100100000001 %
b100100100000001 .
b100100100000001 T
b100100100000001 5"
b1 3"
b100 d
b10 $
b10 /
b10 g
b10 4"
b10 9"
b10 y
1}
b1 )
1'
#60000
0'
b1 +
#65000
0:
b10 &
b10 -
b10 p
b10 )"
b10 n
b10 '"
b10 ;"
b10 O
b10 E
b10 ="
b10 L
b10 Q
b10 W
b10 <"
b10 I"
b110 e
b110 8"
b1 l
b1 -"
b1 G"
1o
1^
b10010010000001 %
b10010010000001 .
b10010010000001 T
b10010010000001 5"
b1 M
b1 +"
b10 @
b10 <
b10 G
b10 C
b10 K
b100 ?
b100 A
b1 D
b100 B
b1001 X
b100100100 V
b10 3"
b10 )
1~
b10 x
b100100100000001 U
b100100100000001 #"
b100100100000001 H"
b100 y
b10100 Z
b1001001010 R
b10 w
b110 d
b100 $
b100 /
b100 g
b100 4"
b100 9"
1'
#70000
0'
#75000
b1000 e
b1000 8"
b1 E
b1 ="
b1 L
b1 &
b1 -
b1 p
b1 )"
b0 %
b0 .
b0 T
b0 5"
b1 n
b1 '"
b1 ;"
b0 O
b11 3"
b1 @
b1 <
b1 G
b1 C
b1 K
b10 ?
b10 A
b100 D
b100 =
b10 B
b100 X
b10010010 V
b1 Q
b1 W
b1 <"
b1 I"
b1 2"
b1000 d
b110 $
b110 /
b110 g
b110 4"
b110 9"
b10010010000001 U
b10010010000001 #"
b10010010000001 H"
b110 y
b1100 Z
b100101000 R
b100 w
b100 x
b10 $"
b10 r
b10 /"
b10 z
b10 M"
b11 )
1'
#80000
0'
#85000
1:
b0 &
b0 -
b0 p
b0 )"
b1010 e
b1010 8"
b10 m
b0 E
b0 ="
b0 L
1^
b0 l
b0 -"
b0 G"
0o
b0 n
b0 '"
b0 ;"
b11001010011 %
b11001010011 .
b11001010011 T
b11001010011 5"
b10 [
b10 C"
b10 N"
b0 2"
b0 M
b0 +"
b0 @
b0 <
b0 G
b0 C
b0 K
b0 ?
b0 A
b0 D
b0 =
b0 B
b0 X
b0 V
b0 Q
b0 W
b0 <"
b0 I"
b100 3"
b100 )
b100 z
b100 M"
b10 %"
b10 ?"
b10 s
b10 J"
b110 x
b1 $"
b1 r
b1 /"
b0 U
b0 #"
b0 H"
b1000 y
b110 Z
b110 R
b110 w
b1010 d
b1000 $
b1000 /
b1000 g
b1000 4"
b1000 9"
1'
#90000
0'
#95000
b1 b
b1 &"
14
b10 `
b10 :"
0:
b100 &
b100 -
b100 p
b100 )"
b1 E
b1 ="
b10 a
b10 D"
b11 n
b11 '"
b11 ;"
b100 O
b1100 e
b1100 8"
b10 >
b10 >"
b100 Q
b11 W
b11 <"
b11 I"
1h
0]
b0 %
b0 .
b0 T
b0 5"
b10 l
b10 -"
b10 G"
1i
1o
0^
b1 m
b101 3"
b11 M
b11 +"
b1010 Y
b1010 *"
b1 <
b100 G
b100 C
b100 K
b1 ?
b10 ;
b1 A
b10 H
b110 D
b10 =
b10 F
b10 J
b1 B
b10 I
b11001 V
b1 [
b1 C"
b1 N"
b10 "
b10 1
b10 7
b10 A"
b1100 d
b1010 $
b1010 /
b1010 g
b1010 4"
b1010 9"
b11001010011 U
b11001010011 #"
b11001010011 H"
b1010 y
b1000 Z
b111010 R
b1000 w
b1000 x
b0 $"
b0 r
b0 /"
b110 z
b110 M"
b1 %"
b1 ?"
b1 s
b1 J"
b101 )
1'
#100000
0'
#105000
1:
b0 b
b0 &"
b0 `
b0 :"
b0 a
b0 D"
1]
0h
b0 &
b0 -
b0 p
b0 )"
b1110 e
b1110 8"
b0 m
b0 E
b0 ="
b0 >
b0 >"
1^
b0 l
b0 -"
b0 G"
0o
0i
b0 n
b0 '"
b0 ;"
b0 O
b11001011010 %
b11001011010 .
b11001011010 T
b11001011010 5"
b0 c
b0 E"
04
b0 [
b0 C"
b0 N"
b10 2"
b0 M
b0 +"
b0 Y
b0 *"
b0 <
b0 G
b0 C
b0 K
b0 ?
b0 ;
b0 A
b0 H
b0 D
b0 =
b0 F
b0 J
b0 B
b0 I
b0 V
b0 Q
b0 W
b0 <"
b0 I"
b110 3"
b1 #
b1 0
b1 6
b1 @"
b110 )
b1000 z
b1000 M"
b0 %"
b0 ?"
b0 s
b0 J"
b1010 x
1v
0}
b10 {
b10 0"
b100 r
b100 /"
b0 U
b0 #"
b0 H"
b1100 y
b1010 Z
b1010 R
b1010 w
b1110 d
b1100 $
b1100 /
b1100 g
b1100 4"
b1100 9"
1'
#110000
0'
#115000
b1 b
b1 &"
b1 c
b1 E"
b1 E
b1 ="
b11 L
0:
b100 &
b100 -
b100 p
b100 )"
b11 n
b11 '"
b11 ;"
b100 O
b10000 e
b10000 8"
b100 Q
b11 W
b11 <"
b11 I"
1j
b0 %
b0 .
b0 T
b0 5"
b10 l
b10 -"
b10 G"
b1 \
b1 ."
1k
1o
1^
b100 m
b111 3"
b10 M
b10 +"
b1011 Y
b1011 *"
b1 <
b100 G
b100 C
b100 K
b1 ?
b11 ;
b1 A
b11 H
b110 D
b10 =
b11 F
b11 J
b1 B
b11 I
b11001 V
b0 2"
b100 [
b100 C"
b100 N"
b10000 d
b1110 $
b1110 /
b1110 g
b1110 4"
b1110 9"
b11001011010 U
b11001011010 #"
b11001011010 H"
b1110 y
b1100 Z
b111110 R
b1100 w
b1100 x
0v
1}
b0 {
b0 0"
b0 r
b0 /"
b1010 z
b1010 M"
0~
b100 s
b100 J"
b111 )
1'
#120000
0'
#125000
1:
b0 b
b0 &"
b0 c
b0 E"
0j
b0 &
b0 -
b0 p
b0 )"
b10010 e
b10010 8"
b0 m
b0 E
b0 ="
b0 L
1^
b0 l
b0 -"
b0 G"
0o
0k
b0 \
b0 ."
b0 n
b0 '"
b0 ;"
b0 O
b110010010000001 %
b110010010000001 .
b110010010000001 T
b110010010000001 5"
b0 [
b0 C"
b0 N"
b10 _
b10 1"
b10 2"
b0 M
b0 +"
b0 Y
b0 *"
b0 <
b0 G
b0 C
b0 K
b0 ?
b0 ;
b0 A
b0 H
b0 D
b0 =
b0 F
b0 J
b0 B
b0 I
b0 V
b0 Q
b0 W
b0 <"
b0 I"
b1000 3"
b1000 )
b1100 z
b1100 M"
1~
b0 s
b0 J"
b1110 x
b1 !"
1t
b11 $"
b100 r
b100 /"
b0 U
b0 #"
b0 H"
b10000 y
b1110 Z
b1110 R
b1110 w
b10010 d
b10000 $
b10000 /
b10000 g
b10000 4"
b10000 9"
1'
#130000
0'
#135000
b1 b
b1 &"
0:
b100 &
b100 -
b100 p
b100 )"
b1 c
b1 E"
b11 n
b11 '"
b11 ;"
b100 O
b10100 e
b10100 8"
b1 E
b1 ="
b1 L
b100 Q
b11 W
b11 <"
b11 I"
b100000101011100 %
b100000101011100 .
b100000101011100 T
b100000101011100 5"
b1 l
b1 -"
b1 G"
1o
1^
b10 [
b10 C"
b10 N"
b1001 3"
b1 M
b1 +"
b11 @
b1 <
b1 G
b1 C
b1 K
b10 ?
b10 A
b100 D
b100 =
b10 B
b1100 X
b110010010 V
b0 _
b0 1"
b0 2"
b10 m
b10100 d
b10010 $
b10010 /
b10010 g
b10010 4"
b10010 9"
b110010010000001 U
b110010010000001 #"
b110010010000001 H"
b10010 y
b101000 Z
b1100110100 R
b10000 w
b10000 x
b0 !"
0t
b0 $"
b0 r
b0 /"
1u
b1110 z
b1110 M"
b1 ""
b1 L"
b11 %"
b11 ?"
b10 |
b10 K"
b100 s
b100 J"
b1001 )
1'
#140000
0'
#145000
b10 `
b10 :"
0:
b10 a
b10 D"
b1 b
b1 &"
b10 >
b10 >"
03
b1 c
b1 E"
1N
0]
b1 E
b1 ="
b0 L
b1111111111111111 &
b1111111111111111 -
b1111111111111111 p
b1111111111111111 )"
b10110 e
b10110 8"
0f
b1 q
b1 ("
b1 ,"
0^
b11 l
b11 -"
b11 G"
0o
b10 n
b10 '"
b10 ;"
b10000 O
b0 %
b0 .
b0 T
b0 5"
b0 [
b0 C"
b0 N"
05
b0 m
b10 2"
b100 M
b100 +"
b1011 Y
b1011 *"
b10 @
b0 <
b10 G
b10 C
b10 K
b101 ?
b11 ;
b101 A
b11 H
b1 D
b10 =
b11 F
b11 J
b101 B
b11 I
b1000 X
b100000101 V
b10001 Q
b10000 W
b10000 <"
b10000 I"
b1010 3"
b10 !
b10 2
b10 8
b10 B"
b1010 )
0u
b10000 z
b10000 M"
b0 ""
b0 L"
b0 %"
b0 ?"
b0 |
b0 K"
b0 s
b0 J"
b10010 x
b1 $"
b100 r
b100 /"
b100000101011100 U
b100000101011100 #"
b100000101011100 H"
b10100 y
b100010 Z
b1000011100 R
b10010 w
b10110 d
b10100 $
b10100 /
b10100 g
b10100 4"
b10100 9"
1'
#150000
0'
#155000
1:
b0 n
b0 '"
b0 ;"
b0 `
b0 :"
0N
b11000 e
b11000 8"
b0 c
b0 E"
b0 a
b0 D"
1]
b0 &
b0 -
b0 p
b0 )"
b0 b
b0 &"
b0 E
b0 ="
b0 >
b0 >"
1^
b0 l
b0 -"
b0 G"
b0 q
b0 ("
b0 ,"
b0 O
04
b100 m
b1011 3"
b0 M
b0 +"
b0 Y
b0 *"
b0 @
b0 G
b0 C
b0 K
b0 ?
b0 ;
b0 A
b0 H
b0 D
b0 =
b0 F
b0 J
b0 B
b0 I
b0 X
b0 V
b0 Q
b0 W
b0 <"
b0 I"
b111 2"
b100 [
b100 C"
b100 N"
b11000 d
b10110 $
b10110 /
b10110 g
b10110 4"
b10110 9"
b0 U
b0 #"
b0 H"
b10110 y
b10100 Z
b10100 R
b10100 w
b10100 x
0}
b0 $"
b10 {
b10 0"
b1111111111111111 r
b1111111111111111 /"
b10010 z
b10010 M"
b1 %"
b1 ?"
b100 s
b100 J"
b1011 )
b10 +
1'
#160000
0'
#165000
1^
0N
b0 O
1:
b0 &
b0 -
b0 p
b0 )"
b0 n
b0 '"
b0 ;"
b11010 e
b11010 8"
b0 Q
b0 b
b0 &"
b0 `
b0 :"
b1111111111111111 m
04
05
b1111111111111111 [
b1111111111111111 C"
b1111111111111111 N"
b0 2"
b1100 3"
b100 #
b100 0
b100 6
b100 @"
b1100 )
b10100 z
b10100 M"
0~
b0 %"
b0 ?"
b1111111111111111 s
b1111111111111111 J"
b10110 x
1}
b0 {
b0 0"
b0 r
b0 /"
b11000 y
b10110 Z
b10110 R
b10110 w
b11010 d
b11000 $
b11000 /
b11000 g
b11000 4"
b11000 9"
1'
#170000
0'
#175000
b11100 e
b11100 8"
b0 m
b1101 3"
b0 [
b0 C"
b0 N"
b11100 d
b11010 $
b11010 /
b11010 g
b11010 4"
b11010 9"
b11010 y
b11000 Z
b11000 R
b11000 w
b11000 x
b10110 z
b10110 M"
1~
b0 s
b0 J"
b1101 )
1'
#180000
0'
#185000
b11110 e
b11110 8"
b1110 3"
b1110 )
b11000 z
b11000 M"
b11010 x
b11100 y
b11010 Z
b11010 R
b11010 w
b11110 d
b11100 $
b11100 /
b11100 g
b11100 4"
b11100 9"
1'
#190000
0'
#195000
b100000 e
b100000 8"
b1111 3"
b100000 d
b11110 $
b11110 /
b11110 g
b11110 4"
b11110 9"
b11110 y
b11100 Z
b11100 R
b11100 w
b11100 x
b11010 z
b11010 M"
b1111 )
1'
#200000
0'
#205000
b100010 e
b100010 8"
b10000 3"
b10000 )
b11100 z
b11100 M"
b11110 x
b100000 y
b11110 Z
b11110 R
b11110 w
b100010 d
b100000 $
b100000 /
b100000 g
b100000 4"
b100000 9"
1'
#210000
0'
#215000
b100100 e
b100100 8"
b10001 3"
b100100 d
b100010 $
b100010 /
b100010 g
b100010 4"
b100010 9"
b100010 y
b100000 Z
b100000 R
b100000 w
b100000 x
b11110 z
b11110 M"
b10001 )
1'
#220000
0'
#225000
b100110 e
b100110 8"
b10010 3"
b10010 )
b100000 z
b100000 M"
b100010 x
b100100 y
b100010 Z
b100010 R
b100010 w
b100110 d
b100100 $
b100100 /
b100100 g
b100100 4"
b100100 9"
1'
#230000
0'
#235000
b101000 e
b101000 8"
b10011 3"
b101000 d
b100110 $
b100110 /
b100110 g
b100110 4"
b100110 9"
b100110 y
b100100 Z
b100100 R
b100100 w
b100100 x
b100010 z
b100010 M"
b10011 )
1'
#240000
0'
#245000
b101010 e
b101010 8"
b10100 3"
b10100 )
b100100 z
b100100 M"
b100110 x
b101000 y
b100110 Z
b100110 R
b100110 w
b101010 d
b101000 $
b101000 /
b101000 g
b101000 4"
b101000 9"
1'
#250000
0'
#255000
b101100 e
b101100 8"
b10101 3"
b101100 d
b101010 $
b101010 /
b101010 g
b101010 4"
b101010 9"
b101010 y
b101000 Z
b101000 R
b101000 w
b101000 x
b100110 z
b100110 M"
b10101 )
1'
#260000
0'
#265000
b101110 e
b101110 8"
b10110 3"
b10110 )
b101000 z
b101000 M"
b101010 x
b101100 y
b101010 Z
b101010 R
b101010 w
b101110 d
b101100 $
b101100 /
b101100 g
b101100 4"
b101100 9"
1'
#270000
0'
#275000
b110000 e
b110000 8"
b10000001001111 %
b10000001001111 .
b10000001001111 T
b10000001001111 5"
b10111 3"
b110000 d
b101110 $
b101110 /
b101110 g
b101110 4"
b101110 9"
b101110 y
b101100 Z
b101100 R
b101100 w
b101100 x
b101010 z
b101010 M"
b10111 )
1'
#280000
0'
#285000
b100 b
b100 &"
b100 c
b100 E"
b1 E
b1 ="
b1 L
0:
b10100 &
b10100 -
b10100 p
b10100 )"
0]
b10000 n
b10000 '"
b10000 ;"
b10100 O
b10100 Q
b10000 W
b10000 <"
b10000 I"
b10100 e
b10100 8"
13
b10 \
b10 ."
b110 l
b110 -"
b110 G"
1o
1f
1^
b10010010000001 %
b10010010000001 .
b10010010000001 T
b10010010000001 5"
1P
b111 M
b111 +"
b1001 Y
b1001 *"
b1 @
b1 ?
b1 ;
b1 A
b1 H
b10 =
b1 F
b1 J
b1 B
b1 I
b100 X
b10000001 V
b11000 3"
b11000 )
b101100 z
b101100 M"
b101110 x
b10000001001111 U
b10000001001111 #"
b10000001001111 H"
b110000 y
b110110 Z
b100110000 R
b101110 w
b110010 d
b110000 $
b110000 /
b110000 g
b110000 4"
b110000 9"
1'
#290000
0'
#295000
1]
1:
b0 b
b0 &"
03
b0 c
b0 E"
b0 &
b0 -
b0 p
b0 )"
b0 %
b0 .
b0 T
b0 5"
b10110 e
b10110 8"
b0 E
b0 ="
b0 L
1^
b0 l
b0 -"
b0 G"
0o
b0 \
b0 ."
0f
b0 n
b0 '"
b0 ;"
b0 O
b1010 3"
0P
b0 M
b0 +"
b0 Y
b0 *"
b0 @
b0 ?
b0 ;
b0 A
b0 H
b0 =
b0 F
b0 J
b0 B
b0 I
b0 X
b0 V
b0 Q
b0 W
b0 <"
b0 I"
b10 2"
b10110 d
b10100 $
b10100 /
b10100 g
b10100 4"
b10100 9"
b0 U
b0 #"
b0 H"
b0 y
b0 Z
b0 R
b0 w
b110000 x
b10 !"
0}
b1 $"
b10100 r
b10100 /"
b101110 z
b101110 M"
b11001 )
1'
#300000
0'
#305000
b110000 [
b110000 C"
b110000 N"
b11000 e
b11000 8"
b110000 m
b0 2"
b1011 3"
b11010 )
b110000 z
b110000 M"
b10 ""
b10 L"
0~
b1 %"
b1 ?"
b10100 s
b10100 J"
b0 x
b0 !"
1}
b0 $"
b0 r
b0 /"
b10110 y
b10100 Z
b10100 R
b10100 w
b11000 d
b10110 $
b10110 /
b10110 g
b10110 4"
b10110 9"
1'
#310000
0'
#315000
b11010 e
b11010 8"
b0 m
b1100 3"
b0 [
b0 C"
b0 N"
b11010 d
b11000 $
b11000 /
b11000 g
b11000 4"
b11000 9"
b11000 y
b10110 Z
b10110 R
b10110 w
b10110 x
b0 z
b0 M"
b0 ""
b0 L"
1~
b0 %"
b0 ?"
b0 s
b0 J"
b11011 )
1'
#320000
0'
#325000
b11100 e
b11100 8"
b1101 3"
b11100 )
b10110 z
b10110 M"
b11000 x
b11010 y
b11000 Z
b11000 R
b11000 w
b11100 d
b11010 $
b11010 /
b11010 g
b11010 4"
b11010 9"
1'
#330000
0'
#335000
b11110 e
b11110 8"
b1110 3"
b11110 d
b11100 $
b11100 /
b11100 g
b11100 4"
b11100 9"
b11100 y
b11010 Z
b11010 R
b11010 w
b11010 x
b11000 z
b11000 M"
b11101 )
1'
#340000
0'
#345000
b100000 e
b100000 8"
b1111 3"
b11110 )
b11010 z
b11010 M"
b11100 x
b11110 y
b11100 Z
b11100 R
b11100 w
b100000 d
b11110 $
b11110 /
b11110 g
b11110 4"
b11110 9"
1'
#350000
0'
#355000
b100010 e
b100010 8"
b10000 3"
b100010 d
b100000 $
b100000 /
b100000 g
b100000 4"
b100000 9"
b100000 y
b11110 Z
b11110 R
b11110 w
b11110 x
b11100 z
b11100 M"
b11111 )
b11 +
1'
#360000
0'
#365000
b100100 e
b100100 8"
b10001 3"
b100000 )
b11110 z
b11110 M"
b100000 x
b100010 y
b100000 Z
b100000 R
b100000 w
b100100 d
b100010 $
b100010 /
b100010 g
b100010 4"
b100010 9"
1'
#370000
0'
#375000
b100110 e
b100110 8"
b10010 3"
b100110 d
b100100 $
b100100 /
b100100 g
b100100 4"
b100100 9"
b100100 y
b100010 Z
b100010 R
b100010 w
b100010 x
b100000 z
b100000 M"
b100001 )
1'
#380000
0'
#385000
b101000 e
b101000 8"
b10011 3"
b100010 )
b100010 z
b100010 M"
b100100 x
b100110 y
b100100 Z
b100100 R
b100100 w
b101000 d
b100110 $
b100110 /
b100110 g
b100110 4"
b100110 9"
1'
#390000
0'
#395000
b101010 e
b101010 8"
b10100 3"
b101010 d
b101000 $
b101000 /
b101000 g
b101000 4"
b101000 9"
b101000 y
b100110 Z
b100110 R
b100110 w
b100110 x
b100100 z
b100100 M"
b100011 )
1'
#400000
0'
#405000
b101100 e
b101100 8"
b10101 3"
b100100 )
b100110 z
b100110 M"
b101000 x
b101010 y
b101000 Z
b101000 R
b101000 w
b101100 d
b101010 $
b101010 /
b101010 g
b101010 4"
b101010 9"
1'
#410000
0'
#415000
b101110 e
b101110 8"
b10110 3"
b101110 d
b101100 $
b101100 /
b101100 g
b101100 4"
b101100 9"
b101100 y
b101010 Z
b101010 R
b101010 w
b101010 x
b101000 z
b101000 M"
b100101 )
1'
#420000
0'
#425000
b110000 e
b110000 8"
b10000001001111 %
b10000001001111 .
b10000001001111 T
b10000001001111 5"
b10111 3"
b100110 )
b101010 z
b101010 M"
b101100 x
b101110 y
b101100 Z
b101100 R
b101100 w
b110000 d
b101110 $
b101110 /
b101110 g
b101110 4"
b101110 9"
1'
#430000
0'
#435000
b100 b
b100 &"
b100 c
b100 E"
b1 E
b1 ="
b1 L
0:
b10100 &
b10100 -
b10100 p
b10100 )"
0]
b10000 n
b10000 '"
b10000 ;"
b10100 O
b10100 Q
b10000 W
b10000 <"
b10000 I"
b10010010000001 %
b10010010000001 .
b10010010000001 T
b10010010000001 5"
b10100 e
b10100 8"
13
b10 \
b10 ."
b110 l
b110 -"
b110 G"
1o
1f
1^
b11000 3"
1P
b111 M
b111 +"
b1001 Y
b1001 *"
b1 @
b1 ?
b1 ;
b1 A
b1 H
b10 =
b1 F
b1 J
b1 B
b1 I
b100 X
b10000001 V
b110010 d
b110000 $
b110000 /
b110000 g
b110000 4"
b110000 9"
b10000001001111 U
b10000001001111 #"
b10000001001111 H"
b110000 y
b110110 Z
b100110000 R
b101110 w
b101110 x
b101100 z
b101100 M"
b100111 )
1'
#440000
0'
#445000
1]
1:
b0 b
b0 &"
03
b0 c
b0 E"
b0 &
b0 -
b0 p
b0 )"
b10110 e
b10110 8"
b0 E
b0 ="
b0 L
1^
b0 l
b0 -"
b0 G"
0o
b0 \
b0 ."
0f
b0 n
b0 '"
b0 ;"
b0 O
b0 %
b0 .
b0 T
b0 5"
b10 2"
0P
b0 M
b0 +"
b0 Y
b0 *"
b0 @
b0 ?
b0 ;
b0 A
b0 H
b0 =
b0 F
b0 J
b0 B
b0 I
b0 X
b0 V
b0 Q
b0 W
b0 <"
b0 I"
b1010 3"
b101000 )
b101110 z
b101110 M"
b110000 x
b10 !"
0}
b1 $"
b10100 r
b10100 /"
b0 U
b0 #"
b0 H"
b0 y
b0 Z
b0 R
b0 w
b10110 d
b10100 $
b10100 /
b10100 g
b10100 4"
b10100 9"
1'
#450000
0'
#455000
b11000 e
b11000 8"
b110000 [
b110000 C"
b110000 N"
b110000 m
b1011 3"
b0 2"
b11000 d
b10110 $
b10110 /
b10110 g
b10110 4"
b10110 9"
b10110 y
b10100 Z
b10100 R
b10100 w
b0 x
b0 !"
1}
b0 $"
b0 r
b0 /"
b110000 z
b110000 M"
b10 ""
b10 L"
0~
b1 %"
b1 ?"
b10100 s
b10100 J"
b101001 )
1'
#460000
0'
#465000
b11010 e
b11010 8"
b0 m
b0 [
b0 C"
b0 N"
b1100 3"
b101010 )
b0 z
b0 M"
b0 ""
b0 L"
1~
b0 %"
b0 ?"
b0 s
b0 J"
b10110 x
b11000 y
b10110 Z
b10110 R
b10110 w
b11010 d
b11000 $
b11000 /
b11000 g
b11000 4"
b11000 9"
1'
#470000
0'
