riscv-16/tt_um_riscv16_tb.vcd
$date
	Mon Mar 16 08:46:33 2026
$end
$version
	Icarus Verilog
$end
$timescale
	1ps
$end
$scope module tt_um_riscv16_tb $end
$var wire 8 ! uio_oe [7:0] $end
$var wire 8 " uo_out [7:0] $end
$var wire 8 # uio_out [7:0] $end
$var reg 1 $ clk $end
$var reg 1 % ena $end
$var reg 1 & rst_n $end
$var reg 8 ' ui_in [7:0] $end
$var reg 8 ( uio_in [7:0] $end
$scope module DUT $end
$var wire 1 $ clk $end
$var wire 1 % ena $end
$var wire 1 ) reset $end
$var wire 1 & rst_n $end
$var wire 8 * ui_in [7:0] $end
$var wire 8 + uio_in [7:0] $end
$var wire 8 , uio_oe [7:0] $end
$var wire 8 - uo_out [7:0] $end
$var wire 8 . uio_out [7:0] $end
$var wire 16 / dbg_x3 [15:0] $end
$var wire 16 0 dbg_x2 [15:0] $end
$var wire 16 1 dbg_x1 [15:0] $end
$var wire 16 2 dbg_pc [15:0] $end
$var wire 16 3 dbg_instr [15:0] $end
$var wire 16 4 dbg_alu_result [15:0] $end
$var wire 1 5 _unused $end
$var reg 16 6 dbg_word [15:0] $end
$scope module CPU $end
$var wire 1 $ clk $end
$var wire 16 7 dbg_alu_result [15:0] $end
$var wire 16 8 dbg_instr [15:0] $end
$var wire 16 9 dbg_pc [15:0] $end
$var wire 16 : dbg_x1 [15:0] $end
$var wire 16 ; dbg_x2 [15:0] $end
$var wire 16 < dbg_x3 [15:0] $end
$var wire 1 = jalr_taken $end
$var wire 1 ) reset $end
$var wire 16 > rf_dbg_x1 [15:0] $end
$var wire 16 ? rf_dbg_x2 [15:0] $end
$var wire 16 @ rf_dbg_x3 [15:0] $end
$var wire 1 A zero $end
$var wire 3 B rs2_s [2:0] $end
$var wire 3 C rs2_r [2:0] $end
$var wire 3 D rs2_b [2:0] $end
$var wire 3 E rs2 [2:0] $end
$var wire 3 F rs1_s [2:0] $end
$var wire 3 G rs1_r [2:0] $end
$var wire 3 H rs1_l [2:0] $end
$var wire 3 I rs1_i [2:0] $end
$var wire 3 J rs1_b [2:0] $end
$var wire 3 K rs1 [2:0] $end
$var wire 3 L rd_u [2:0] $end
$var wire 3 M rd_r [2:0] $end
$var wire 3 N rd_l [2:0] $end
$var wire 3 O rd_j [2:0] $end
$var wire 3 P rd_i [2:0] $end
$var wire 3 Q rd [2:0] $end
$var wire 3 R opcode [2:0] $end
$var wire 16 S jalr_target [15:0] $end
$var wire 16 T jalr_sum [15:0] $end
$var wire 16 U jal_target [15:0] $end
$var wire 1 V jal_taken $end
$var wire 16 W instruction [15:0] $end
$var wire 10 X imm_u_raw [9:0] $end
$var wire 16 Y imm_u [15:0] $end
$var wire 7 Z imm_s_raw [6:0] $end
$var wire 16 [ imm_s [15:0] $end
$var wire 7 \ imm_l_raw [6:0] $end
$var wire 10 ] imm_j_raw [9:0] $end
$var wire 16 ^ imm_j [15:0] $end
$var wire 6 _ imm_i_raw [5:0] $end
$var wire 16 ` imm_i [15:0] $end
$var wire 16 a imm_ext [15:0] $end
$var wire 4 b imm_b_lo [3:0] $end
$var wire 3 c imm_b_hi [2:0] $end
$var wire 16 d imm_b [15:0] $end
$var wire 16 e imm [15:0] $end
$var wire 4 f func [3:0] $end
$var wire 16 g branch_target [15:0] $end
$var wire 7 h branch_imm_raw [6:0] $end
$var wire 16 i WD3 [15:0] $end
$var wire 1 j ResultSrc $end
$var wire 1 k RegWrite $end
$var wire 16 l ReadData [15:0] $end
$var wire 16 m RD2 [15:0] $end
$var wire 16 n RD1 [15:0] $end
$var wire 16 o PC_target [15:0] $end
$var wire 16 p PC_plus2 [15:0] $end
$var wire 16 q PC_next [15:0] $end
$var wire 1 r PCSrc $end
$var wire 16 s PC [15:0] $end
$var wire 1 t MemWrite $end
$var wire 3 u ImmSrc [2:0] $end
$var wire 16 v ALU_B [15:0] $end
$var wire 1 w ALUSrc $end
$var wire 16 x ALUResult [15:0] $end
$var wire 4 y ALUControl [3:0] $end
$var parameter 3 z OPC_B $end
$var parameter 3 { OPC_I $end
$var parameter 3 | OPC_J $end
$var parameter 3 } OPC_L $end
$var parameter 3 ~ OPC_R $end
$var parameter 3 !" OPC_S $end
$var parameter 3 "" OPC_U $end
$scope module ALU_CORE $end
$var wire 1 A zero $end
$var wire 16 #" SrcB [15:0] $end
$var wire 16 $" SrcA [15:0] $end
$var wire 4 %" ALU_control [3:0] $end
$var reg 16 &" ALU_result [15:0] $end
$upscope $end
$scope module CU $end
$var wire 4 '" func [3:0] $end
$var wire 3 (" opcode [2:0] $end
$var wire 1 A zero $end
$var reg 4 )" ALUControl [3:0] $end
$var reg 1 w ALUSrc $end
$var reg 3 *" ImmSrc [2:0] $end
$var reg 1 t MemWrite $end
$var reg 1 r PCSrc $end
$var reg 1 k RegWrite $end
$var reg 1 j ResultSrc $end
$upscope $end
$scope module DMEM $end
$var wire 1 $ clk $end
$var wire 16 +" mem_access_addr [15:0] $end
$var wire 1 j mem_read $end
$var wire 1 t mem_write_en $end
$var wire 16 ," mem_write_data [15:0] $end
$var wire 16 -" mem_read_data [15:0] $end
$var wire 3 ." addr [2:0] $end
$upscope $end
$scope module IMEM $end
$var wire 1 $ clk $end
$var wire 16 /" word_index [15:0] $end
$var wire 16 0" pc [15:0] $end
$var wire 16 1" instruction [15:0] $end
$var parameter 32 2" IMEM_WORDS $end
$var parameter 136 3" MEMFILE $end
$var integer 32 4" i [31:0] $end
$upscope $end
$scope module PC_REG $end
$var wire 1 $ clk $end
$var wire 1 5" pc_en $end
$var wire 16 6" pc_next [15:0] $end
$var wire 1 ) reset $end
$var reg 16 7" pc [15:0] $end
$upscope $end
$scope module RD_2 $end
$var wire 1 w ALUSrc $end
$var wire 16 8" SrcB [15:0] $end
$var wire 16 9" RD2 [15:0] $end
$var wire 16 :" ImmExt [15:0] $end
$upscope $end
$scope module RF $end
$var wire 3 ;" A1 [2:0] $end
$var wire 3 <" A2 [2:0] $end
$var wire 3 =" A3 [2:0] $end
$var wire 1 k RegWrite $end
$var wire 16 >" WD3 [15:0] $end
$var wire 1 $ clk $end
$var wire 16 ?" dbg_x1 [15:0] $end
$var wire 16 @" dbg_x2 [15:0] $end
$var wire 16 A" dbg_x3 [15:0] $end
$var wire 16 B" RD2 [15:0] $end
$var wire 16 C" RD1 [15:0] $end
$var integer 32 D" i [31:0] $end
$upscope $end
$scope module SE $end
$var wire 3 E" ImmSrc [2:0] $end
$var wire 16 F" instr [15:0] $end
$var reg 16 G" ImmExt [15:0] $end
$upscope $end
$upscope $end
$upscope $end
$scope task read_channel $end
$var reg 3 H" ch [2:0] $end
$var reg 64 I" name [63:0] $end
$upscope $end
$upscope $end
$enddefinitions $end
$comment Show the parameter values. $end
$dumpall
b111001101110010011000110010111101110000011100100110111101100111011100100110000101101101001100010011011000101110011011010110010101101101 3"
b100000000 2"
b110 ""
b11 !"
b0 ~
b10 }
b101 |
b1 {
b100 z
$end
#0
$dumpvars
bx I"
bx H"
b0 G"
b0 F"
b0 E"
b1000 D"
b0 C"
b0 B"
b0 A"
b0 @"
b0 ?"
b0 >"
b0 ="
b0 <"
b0 ;"
b0 :"
b0 9"
b0 8"
b0 7"
b10 6"
15"
b100000000 4"
b0 1"
b0 0"
b0 /"
b0 ."
b0 -"
b0 ,"
b0 +"
b0 *"
b0 )"
b0 ("
b0 '"
b0 &"
b0 %"
b0 $"
b0 #"
b0 y
b0 x
0w
b0 v
b0 u
0t
b0 s
0r
b10 q
b10 p
b0 o
b0 n
b0 m
b0 l
1k
0j
b0 i
b0 h
b0 g
b0 f
b0 e
b0 d
b0 c
b0 b
b0 a
b0 `
b0 _
b0 ^
b0 ]
b0 \
b0 [
b0 Z
b0 Y
b0 X
b0 W
0V
b0 U
b0 T
b0 S
b0 R
b0 Q
b0 P
b0 O
b0 N
b0 M
b0 L
b0 K
b0 J
b0 I
b0 H
b0 G
b0 F
b0 E
b0 D
b0 C
b0 B
1A
b0 @
b0 ?
b0 >
0=
b0 <
b0 ;
b0 :
b0 9
b0 8
b0 7
b0 6
05
b0 4
b0 3
b0 2
b0 1
b0 0
b0 /
b0 .
b0 -
b11111111 ,
b0 +
b0 *
1)
b0 (
b0 '
0&
1%
0$
b0 #
b0 "
b11111111 !
$end
#5000
1$
#10000
0$
#15000
1$
#20000
0$
#25000
1$
#30000
0$
#35000
0)
1&
1$
#40000
0$
#45000
b1 ."
b10 i
b10 >"
0A
b10 4
b10 7
b10 x
b10 &"
b10 +"
b10 v
b10 #"
b10 8"
b10010 e
b10010 S
b10 a
b10 :"
b10 G"
b10010 T
b10010 `
b10 K
b10 ;"
b10 Q
b10 ="
b1 u
b1 *"
b1 E"
1w
1k
b100100100 ^
b100100100 ]
b100100100000000 Y
b100100100 X
b100 J
b100 b
b100100 d
b100100 h
b10 c
b100 H
b100100 \
b100 F
b100100 [
b100100 Z
b10 P
b10 I
b10010 _
b10 M
b10 C
b10 G
b1 R
b1 ("
b100 q
b100 6"
b100100100000001 3
b100100100000001 8
b100100100000001 W
b100100100000001 1"
b100100100000001 F"
b10 "
b10 -
b1 /"
b10 6
b100 o
b1001001010 U
b1001010 g
b100 p
b10 2
b10 9
b10 s
b10 0"
b10 7"
1$
#50000
0$
#55000
b1 Q
b1 ="
b1 K
b1 ;"
b1001 e
b1001 `
b1 v
b1 #"
b1 8"
b0 ."
b1 i
b1 >"
b10010010 ^
b10010010 ]
b10010010000000 Y
b10010010 X
b10 J
b10 b
b10010 d
b10010 h
b1 c
b10 H
b10010 \
b10 F
b10010 [
b10010 Z
b1 P
b1 I
b1001 _
b1 M
b1 C
b1 G
b1 a
b1 :"
b1 G"
b110 q
b110 6"
b1000 S
b1 4
b1 7
b1 x
b1 &"
b1 +"
b10010010000001 3
b10010010000001 8
b10010010000001 W
b10010010000001 1"
b10010010000001 F"
b100 "
b100 -
b1001 T
b0 n
b0 $"
b0 C"
b10 /"
b100 6
b10 0
b10 ;
b10 ?
b10 @"
b101 o
b100101000 U
b101000 g
b110 p
b100 2
b100 9
b100 s
b100 0"
b100 7"
1$
#60000
0$
#65000
1A
b0 `
b0 K
b0 ;"
b0 Q
b0 ="
b0 e
1k
b0 u
b0 *"
b0 E"
0w
b0 v
b0 #"
b0 8"
b0 ."
b0 i
b0 >"
b0 ^
b0 ]
b0 Y
b0 X
b0 J
b0 b
b0 d
b0 h
b0 c
b0 H
b0 \
b0 F
b0 [
b0 Z
b0 P
b0 I
b0 _
b0 M
b0 C
b0 G
b0 R
b0 ("
b0 a
b0 :"
b0 G"
b1000 q
b1000 6"
b0 S
b0 4
b0 7
b0 x
b0 &"
b0 +"
b0 3
b0 8
b0 W
b0 1"
b0 F"
b110 "
b110 -
b0 T
b0 n
b0 $"
b0 C"
b11 /"
b110 6
b1 1
b1 :
b1 >
b1 ?"
b110 o
b110 U
b110 g
b1000 p
b110 2
b110 9
b110 s
b110 0"
b110 7"
1$
#70000
0$
#75000
b10 S
b10 ."
b100 i
b100 >"
b1 n
b1 $"
b1 C"
0A
b100 4
b100 7
b100 x
b100 &"
b100 +"
b1 K
b1 ;"
b11 v
b11 #"
b11 8"
b10 m
b10 ,"
b10 9"
b10 B"
b11 e
b11 a
b11 :"
b11 G"
b10 T
b1 `
b10 E
b10 <"
b10 u
b10 *"
b10 E"
1t
1w
0k
b10 O
b11001 ^
b11001 ]
b10 L
b11001000000 Y
b11001 X
b10 D
b1 J
b11 d
b11 h
b11 b
b10 N
b1 H
b11 \
b10 B
b1 F
b11 [
b11 Z
b100 P
b100 I
b1 _
b100 M
b1 C
b1010 f
b1010 '"
b11 R
b11 ("
b1010 q
b1010 6"
b11001010011 3
b11001010011 8
b11001010011 W
b11001010011 1"
b11001010011 F"
b1000 "
b1000 -
b100 /"
b1000 6
b1011 o
b111010 U
b1110 g
b1010 p
b1000 2
b1000 9
b1000 s
b1000 0"
b1000 7"
1$
#80000
0$
#85000
1A
b0 ."
b0 i
b0 >"
b0 S
b0 n
b0 $"
b0 C"
b0 m
b0 ,"
b0 9"
b0 B"
b0 e
b0 4
b0 7
b0 x
b0 &"
b0 +"
b0 T
b0 `
b0 K
b0 ;"
b0 E
b0 <"
1k
b0 u
b0 *"
b0 E"
0w
0t
b0 v
b0 #"
b0 8"
b0 O
b0 ^
b0 ]
b0 L
b0 Y
b0 X
b0 D
b0 J
b0 d
b0 h
b0 b
b0 N
b0 H
b0 \
b0 B
b0 F
b0 [
b0 Z
b0 P
b0 I
b0 _
b0 M
b0 C
b0 f
b0 '"
b0 R
b0 ("
b0 a
b0 :"
b0 G"
b1100 q
b1100 6"
b0 3
b0 8
b0 W
b0 1"
b0 F"
b1010 "
b1010 -
b101 /"
b1010 6
b1010 o
b1010 U
b1010 g
b1100 p
b1010 2
b1010 9
b1010 s
b1010 0"
b1010 7"
1$
#90000
0$
#95000
b10 S
b1 n
b1 $"
b1 C"
b1 K
b1 ;"
b11 Q
b11 ="
b10 ."
0A
b100 4
b100 7
b100 x
b100 &"
b100 +"
b11 v
b11 #"
b11 8"
b10 i
b10 >"
b11 a
b11 :"
b11 G"
b10 l
b10 -"
b10 T
b1 `
b10 u
b10 *"
b10 E"
1j
1w
1k
b11 O
b11001 ^
b11001 ]
b11 L
b11001000000 Y
b11001 X
b11 D
b1 J
b11 d
b11 h
b11 b
b11 N
b1 H
b11 \
b11 B
b1 F
b11 [
b11 Z
b100 P
b100 I
b1 _
b100 M
b1 C
b1011 f
b1011 '"
b10 R
b10 ("
b1110 q
b1110 6"
b11001011010 3
b11001011010 8
b11001011010 W
b11001011010 1"
b11001011010 F"
b1100 "
b1100 -
b110 /"
b1100 6
b1111 o
b111110 U
b10010 g
b1110 p
b1100 2
b1100 9
b1100 s
b1100 0"
b1100 7"
1$
#100000
0$
#105000
1A
b0 ."
b0 S
b0 n
b0 $"
b0 C"
b0 l
b0 -"
b0 i
b0 >"
b0 4
b0 7
b0 x
b0 &"
b0 +"
b0 T
b0 `
b0 K
b0 ;"
b0 Q
b0 ="
1k
b0 u
b0 *"
b0 E"
0w
0j
b0 v
b0 #"
b0 8"
b0 O
b0 ^
b0 ]
b0 L
b0 Y
b0 X
b0 D
b0 J
b0 d
b0 h
b0 b
b0 N
b0 H
b0 \
b0 B
b0 F
b0 [
b0 Z
b0 P
b0 I
b0 _
b0 M
b0 C
b0 f
b0 '"
b0 R
b0 ("
b0 a
b0 :"
b0 G"
b10000 q
b10000 6"
b0 3
b0 8
b0 W
b0 1"
b0 F"
b1110 "
b1110 -
b111 /"
b1110 6
b10 /
b10 <
b10 @
b10 A"
b1110 o
b1110 U
b1110 g
b10000 p
b1110 2
b1110 9
b1110 s
b1110 0"
b1110 7"
1$
#110000
0$
#115000
b1 ."
b10 i
b10 >"
0A
b10 4
b10 7
b10 x
b10 &"
b10 +"
b1 v
b1 #"
b1 8"
b1001 e
b1010 S
b1 n
b1 $"
b1 C"
b1 a
b1 :"
b1 G"
b1010 T
b1001 `
b1 K
b1 ;"
b1 Q
b1 ="
b1 u
b1 *"
b1 E"
1w
1k
b10010010 ^
b10010010 ]
b10010010000000 Y
b10010010 X
b10 J
b10 b
b10010 d
b10010 h
b1 c
b10 H
b10010 \
b10 F
b10010 [
b10010 Z
b1 P
b1 I
b1001 _
b1 M
b1 C
b1 G
b1 R
b1 ("
b10010 q
b10010 6"
b10010010000001 3
b10010010000001 8
b10010010000001 W
b10010010000001 1"
b10010010000001 F"
b10000 "
b10000 -
b1000 /"
b10000 6
b10001 o
b100110100 U
b110100 g
b10010 p
b10000 2
b10000 9
b10000 s
b10000 0"
b10000 7"
1$
#120000
0$
#125000
1r
b0 ."
1A
b10 m
b10 ,"
b10 9"
b10 B"
b10 E
b10 <"
b1111111111000110 S
b1 K
b1 ;"
b0 Q
b0 ="
b1111111111000100 `
b1000 e
b1 y
b1 %"
b1 )"
0k
b11 u
b11 *"
b11 E"
0w
b10 v
b10 #"
b10 8"
b0 i
b0 >"
b10 O
b1000001 ^
b1000001 ]
b10 L
b1000001000000 Y
b1000001 X
b10 D
b1 J
b1000 b
b1000 d
b1000 h
b0 c
b10 N
b1 H
b1000 \
b10 B
b1 F
b1000 [
b1000 Z
b0 P
b0 I
b100 _
b0 M
b100 C
b0 G
b1010 f
b1010 '"
b100 R
b100 ("
b10000 a
b10000 :"
b10000 G"
b100010 q
b100010 6"
b0 4
b0 7
b0 x
b0 &"
b0 +"
b1000001010100 3
b1000001010100 8
b1000001010100 W
b1000001010100 1"
b1000001010100 F"
b10010 "
b10010 -
b1111111111000110 T
b10 n
b10 $"
b10 C"
b1001 /"
b10010 6
b10 1
b10 :
b10 >
b10 ?"
b100010 o
b10010100 U
b100010 g
b10100 p
b10010 2
b10010 9
b10010 s
b10010 0"
b10010 7"
1$
#130000
0$
#135000
b0 v
b0 #"
b0 8"
b0 e
b0 ."
b0 i
b0 >"
b0 S
b0 n
b0 $"
b0 C"
b0 m
b0 ,"
b0 9"
b0 B"
1A
b0 4
b0 7
b0 x
b0 &"
b0 +"
b0 T
b0 `
b0 K
b0 ;"
b0 E
b0 <"
1k
b0 u
b0 *"
b0 E"
b0 y
b0 %"
b0 )"
0r
b0 O
b0 ^
b0 ]
b0 L
b0 Y
b0 X
b0 D
b0 J
b0 d
b0 h
b0 b
b0 N
b0 H
b0 \
b0 B
b0 F
b0 [
b0 Z
b0 _
b0 C
b0 f
b0 '"
b0 R
b0 ("
b0 a
b0 :"
b0 G"
b100100 q
b100100 6"
b0 3
b0 8
b0 W
b0 1"
b0 F"
b100010 "
b100010 -
b10001 /"
b100010 6
b100010 o
b100010 U
b100010 g
b100100 p
b100010 2
b100010 9
b100010 s
b100010 0"
b100010 7"
b10000000100000001000000010000000100000001000000010000000100000 I"
b0 H"
1$
#140000
0$
#145000
b100110 q
b100110 6"
b10010 /"
b100100 o
b100100 U
b100100 g
b100110 p
b100100 2
b100100 9
b100100 s
b100100 0"
b100100 7"
b0 "
b0 -
b0 6
1$
b1 '
b1 *
b101010001010010001000000010000000100000001000000010000000100000 I"
b1 H"
#150000
0$
#155000
b101000 q
b101000 6"
b10011 /"
b100110 o
b100110 U
b100110 g
b101000 p
b100110 2
b100110 9
b100110 s
b100110 0"
b100110 7"
1$
b10 '
b10 *
b101111101010010010001010101001101010101010011000101010000100000 I"
b10 H"
#160000
0$
#165000
b101010 q
b101010 6"
b10100 /"
b101000 o
b101000 U
b101000 g
b101010 p
b101000 2
b101000 9
b101000 s
b101000 0"
b101000 7"
b10 "
b10 -
b10 6
1$
b11 '
b11 *
b10000000100000001000000010000000100000001000000010000000100000 I"
b11 H"
#170000
0$
#175000
b10000 e
b10000 i
b10000 >"
b11 Q
b11 ="
0A
b10000 4
b10000 7
b10000 x
b10000 &"
b10000 +"
b10000 v
b10000 #"
b10000 8"
b10000 a
b10000 :"
b10000 G"
b1 T
b1 `
b101 u
b101 *"
b101 E"
1w
1r
1k
b11 O
b10000 ^
b10000 ]
b11 L
b10000000000 Y
b10000 X
b11 D
b10 d
b10 h
b10 b
b11 N
b10 \
b11 B
b10 [
b10 Z
b1 _
b1 C
b11 f
b11 '"
1V
b101 R
b101 ("
b1001010 q
b1001010 6"
b10000011101 3
b10000011101 8
b10000011101 W
b10000011101 1"
b10000011101 F"
b10101 /"
b111010 o
b1001010 U
b101110 g
b101100 p
b101010 2
b101010 9
b101010 s
b101010 0"
b101010 7"
1$
b100 '
b100 *
b100 H"
#180000
0$
#185000
b0 e
b0 i
b0 >"
1A
b0 4
b0 7
b0 x
b0 &"
b0 +"
b0 T
b0 `
b0 Q
b0 ="
1k
b0 u
b0 *"
b0 E"
0w
0r
b0 v
b0 #"
b0 8"
b0 O
b0 ^
b0 ]
b0 L
b0 Y
b0 X
b0 D
b0 d
b0 h
b0 b
b0 N
b0 \
b0 B
b0 [
b0 Z
b0 _
b0 C
b0 f
b0 '"
0V
b0 R
b0 ("
b0 a
b0 :"
b0 G"
b0 3
b0 8
b0 W
b0 1"
b0 F"
b1001100 q
b1001100 6"
b10000 "
b10000 -
b100101 /"
b10000 6
b10000 /
b10000 <
b10000 @
b10000 A"
b1001010 o
b1001010 U
b1001010 g
b1001100 p
b1001010 2
b1001010 9
b1001010 s
b1001010 0"
b1001010 7"
1$
b101 '
b101 *
b101 H"
#190000
0$
#195000
b1001110 q
b1001110 6"
b100110 /"
b1001100 o
b1001100 U
b1001100 g
b1001110 p
b1001100 2
b1001100 9
b1001100 s
b1001100 0"
b1001100 7"
b10101101 "
b10101101 -
b11011110 #
b11011110 .
b1101111010101101 6
1$
b111 '
b111 *
#200000
0$
#205000
b1010000 q
b1010000 6"
b100111 /"
b1001110 o
b1001110 U
b1001110 g
b1010000 p
b1001110 2
b1001110 9
b1001110 s
b1001110 0"
b1001110 7"
b1001110 "
b1001110 -
b0 #
b0 .
b1001110 6
1$
b0 '
b0 *
#210000
0$
#215000
b1010010 q
b1010010 6"
b1010000 "
b1010000 -
b101000 /"
b1010000 6
b1010000 o
b1010000 U
b1010000 g
b1010010 p
b1010000 2
b1010000 9
b1010000 s
b1010000 0"
b1010000 7"
1$
#220000
0$
#225000
b1010100 q
b1010100 6"
b1010010 "
b1010010 -
b101001 /"
b1010010 6
b1010010 o
b1010010 U
b1010010 g
b1010100 p
b1010010 2
b1010010 9
b1010010 s
b1010010 0"
b1010010 7"
1$
#230000
0$
#235000
b1010110 q
b1010110 6"
b1010100 "
b1010100 -
b101010 /"
b1010100 6
b1010100 o
b1010100 U
b1010100 g
b1010110 p
b1010100 2
b1010100 9
b1010100 s
b1010100 0"
b1010100 7"
1$
#240000
0$
#245000
b1011000 q
b1011000 6"
b1010110 "
b1010110 -
b101011 /"
b1010110 6
b1010110 o
b1010110 U
b1010110 g
b1011000 p
b1010110 2
b1010110 9
b1010110 s
b1010110 0"
b1010110 7"
1$
